date,avg_temperature
2008-01-01,17.580833333333334
2008-01-02,16.941666666666663
2008-01-03,13.813333333333334
2008-01-04,13.512083333333331
2008-01-05,13.0375
2008-01-06,12.161666666666669
2008-01-07,12.022500000000003
2008-01-08,10.575833333333334
2008-01-09,11.113333333333335
2008-01-10,10.902500000000002
2008-01-11,11.857916666666668
2008-01-12,12.883333333333335
2008-01-13,15.104999999999999
2008-01-14,16.55791666666666
2008-01-15,12.872499999999997
2008-01-16,10.763333333333335
2008-01-17,10.593750000000002
2008-01-18,10.504166666666666
2008-01-19,11.558750000000002
2008-01-20,9.849583333333333
2008-01-21,10.596250000000001
2008-01-22,11.135416666666666
2008-01-23,10.584999999999999
2008-01-24,10.204583333333334
2008-01-25,11.776666666666666
2008-01-26,13.17125
2008-01-27,14.362083333333333
2008-01-28,11.202083333333334
2008-01-29,9.5325
2008-01-30,9.6775
2008-01-31,10.974583333333333
2008-02-01,9.901666666666666
2008-02-02,10.695833333333333
2008-02-03,10.62208333333333
2008-02-04,10.17
2008-02-05,9.625833333333333
2008-02-06,9.717916666666667
2008-02-07,11.723333333333331
2008-02-08,13.91375
2008-02-09,16.645416666666666
2008-02-10,15.845000000000004
2008-02-11,15.092083333333335
2008-02-12,16.115833333333335
2008-02-13,12.409583333333332
2008-02-14,9.688333333333334
2008-02-15,8.979583333333334
2008-02-16,10.731250000000001
2008-02-17,10.393333333333333
2008-02-18,11.295416666666666
2008-02-19,12.06125
2008-02-20,11.772083333333333
2008-02-21,12.078333333333333
2008-02-22,12.11125
2008-02-23,12.31833333333333
2008-02-24,12.520416666666668
2008-02-25,12.403749999999997
2008-02-26,15.441250000000004
2008-02-27,17.099999999999998
2008-02-28,13.464583333333332
2008-02-29,12.654583333333333
2008-03-01,12.910000000000002
2008-03-02,13.918750000000001
2008-03-03,14.810416666666667
2008-03-04,13.185833333333333
2008-03-05,12.474999999999996
2008-03-06,14.480416666666668
2008-03-07,15.8775
2008-03-08,14.314166666666663
2008-03-09,15.851666666666667
2008-03-10,18.053333333333335
2008-03-11,17.684166666666666
2008-03-12,15.994166666666667
2008-03-13,15.100416666666668
2008-03-14,14.312083333333328
2008-03-15,11.817916666666667
2008-03-16,10.184166666666666
2008-03-17,11.521249999999997
2008-03-18,12.87375
2008-03-19,12.957916666666668
2008-03-20,13.629583333333331
2008-03-21,15.582083333333337
2008-03-22,17.657916666666665
2008-03-23,20.624999999999996
2008-03-24,18.24833333333333
2008-03-25,15.128750000000002
2008-03-26,15.169999999999996
2008-03-27,15.031666666666666
2008-03-28,14.194166666666668
2008-03-29,14.300416666666665
2008-03-30,12.434583333333334
2008-03-31,12.158750000000003
2008-04-01,12.077083333333334
2008-04-02,12.58
2008-04-03,14.439999999999998
2008-04-04,15.327083333333333
2008-04-05,13.987500000000002
2008-04-06,13.929130434782609
2008-04-07,14.475000000000003
2008-04-08,12.948749999999995
2008-04-09,12.710416666666662
2008-04-10,13.485833333333334
2008-04-11,19.23208333333334
2008-04-12,23.393333333333334
2008-04-13,24.964583333333326
2008-04-14,19.83458333333333
2008-04-15,14.482083333333335
2008-04-16,14.584583333333333
2008-04-17,19.23958333333334
2008-04-18,17.2775
2008-04-19,13.19375
2008-04-20,13.22
2008-04-21,13.511666666666665
2008-04-22,13.837083333333332
2008-04-23,14.569999999999995
2008-04-24,14.676250000000001
2008-04-25,20.034583333333337
2008-04-26,22.885833333333327
2008-04-27,26.392916666666675
2008-04-28,24.402916666666666
2008-04-29,17.812916666666663
2008-04-30,13.775833333333331
2008-05-01,15.332083333333332
2008-05-02,17.957916666666673
2008-05-03,17.3475
2008-05-04,14.905000000000001
2008-05-05,14.325833333333334
2008-05-06,13.65875
2008-05-07,14.762916666666664
2008-05-08,15.310833333333335
2008-05-09,14.828750000000001
2008-05-10,15.83333333333333
2008-05-11,15.921666666666665
2008-05-12,14.120416666666666
2008-05-13,15.937916666666666
2008-05-14,17.71166666666667
2008-05-15,19.27916666666667
2008-05-16,23.402083333333334
2008-05-17,24.04375
2008-05-18,24.97333333333333
2008-05-19,23.065416666666668
2008-05-20,18.12333333333334
2008-05-21,16.12666666666666
2008-05-22,14.624583333333335
2008-05-23,12.69833333333333
2008-05-24,13.132916666666667
2008-05-25,13.821249999999997
2008-05-26,14.863750000000001
2008-05-27,15.39291666666667
2008-05-28,15.817500000000003
2008-05-29,16.663749999999997
2008-05-30,16.9275
2008-05-31,16.652916666666666
2008-06-01,17.045416666666664
2008-06-02,16.846666666666668
2008-06-03,16.667916666666663
2008-06-04,15.176250000000003
2008-06-05,17.427083333333332
2008-06-06,19.47958333333333
2008-06-07,17.37166666666667
2008-06-08,17.221666666666668
2008-06-09,17.88875
2008-06-10,17.478333333333335
2008-06-11,17.5775
2008-06-12,18.02
2008-06-13,18.79333333333334
2008-06-14,19.486666666666665
2008-06-15,20.52
2008-06-16,20.150000000000002
2008-06-17,20.964166666666667
2008-06-18,22.0625
2008-06-19,24.38666666666666
2008-06-20,27.167083333333334
2008-06-21,28.45041666666666
2008-06-22,25.973333333333333
2008-06-23,23.08458333333333
2008-06-24,20.41375
2008-06-25,19.2125
2008-06-26,18.993333333333336
2008-06-27,19.134583333333335
2008-06-28,20.115416666666665
2008-06-29,21.64625
2008-06-30,22.13666666666666
2008-07-01,21.615416666666665
2008-07-02,20.790000000000003
2008-07-03,20.917916666666667
2008-07-04,23.050416666666667
2008-07-05,22.000833333333333
2008-07-06,20.309583333333332
2008-07-07,20.01875
2008-07-08,20.172083333333333
2008-07-09,19.460416666666664
2008-07-10,20.792083333333334
2008-07-11,21.09958333333333
2008-07-12,21.53333333333333
2008-07-13,22.523749999999996
2008-07-14,22.496249999999993
2008-07-15,22.560833333333335
2008-07-16,22.461666666666662
2008-07-17,21.543333333333337
2008-07-18,20.911250000000003
2008-07-19,19.72458333333334
2008-07-20,19.7
2008-07-21,20.350833333333334
2008-07-22,20.444166666666664
2008-07-23,20.30666666666666
2008-07-24,20.50916666666667
2008-07-25,21.527083333333337
2008-07-26,21.370416666666667
2008-07-27,20.69958333333333
2008-07-28,20.784166666666668
2008-07-29,21.25291666666667
2008-07-30,20.681250000000002
2008-07-31,20.845000000000002
2008-08-01,21.502916666666664
2008-08-02,21.022500000000004
2008-08-03,22.101250000000004
2008-08-04,23.48875
2008-08-05,22.77791666666667
2008-08-06,23.27333333333333
2008-08-07,23.54875
2008-08-08,22.763333333333332
2008-08-09,22.36666666666667
2008-08-10,22.459166666666672
2008-08-11,20.97083333333334
2008-08-12,20.72041666666667
2008-08-13,20.30833333333333
2008-08-14,22.535
2008-08-15,22.360833333333332
2008-08-16,22.594583333333333
2008-08-17,22.67083333333333
2008-08-18,21.972083333333334
2008-08-19,21.12666666666666
2008-08-20,20.496666666666666
2008-08-21,20.635416666666668
2008-08-22,21.317916666666665
2008-08-23,21.888333333333332
2008-08-24,22.795833333333334
2008-08-25,22.415833333333342
2008-08-26,22.802916666666665
2008-08-27,22.11333333333333
2008-08-28,21.9525
2008-08-29,22.167916666666667
2008-08-30,23.130416666666672
2008-08-31,22.56083333333334
2008-09-01,21.770416666666666
2008-09-02,21.91416666666667
2008-09-03,23.298333333333336
2008-09-04,23.908333333333335
2008-09-05,23.13333333333333
2008-09-06,23.63208333333333
2008-09-07,22.022499999999997
2008-09-08,21.23833333333333
2008-09-09,20.85083333333333
2008-09-10,20.116666666666667
2008-09-11,19.541249999999998
2008-09-12,19.272916666666664
2008-09-13,20.45625
2008-09-14,20.389583333333334
2008-09-15,21.9325
2008-09-16,21.135833333333338
2008-09-17,21.14458333333333
2008-09-18,21.8225
2008-09-19,21.88208333333333
2008-09-20,19.067083333333333
2008-09-21,18.543749999999992
2008-09-22,18.942500000000003
2008-09-23,19.761666666666663
2008-09-24,22.541666666666668
2008-09-25,22.755416666666665
2008-09-26,21.770416666666666
2008-09-27,21.07375
2008-09-28,20.64208333333333
2008-09-29,22.21291666666667
2008-09-30,26.37666666666667
2008-10-01,27.854583333333334
2008-10-02,23.768749999999997
2008-10-03,19.8
2008-10-04,18.309166666666663
2008-10-05,18.0725
2008-10-06,20.263333333333332
2008-10-07,25.064166666666665
2008-10-08,25.822083333333335
2008-10-09,19.777916666666666
2008-10-10,18.369166666666665
2008-10-11,15.602916666666667
2008-10-12,15.17666666666667
2008-10-13,18.02625
2008-10-14,21.03375
2008-10-15,22.072083333333335
2008-10-16,20.89875
2008-10-17,21.790000000000003
2008-10-18,19.177083333333332
2008-10-19,16.971666666666664
2008-10-20,17.087083333333336
2008-10-21,16.795416666666668
2008-10-22,23.456666666666663
2008-10-23,24.321666666666673
2008-10-24,20.781666666666666
2008-10-25,19.641666666666666
2008-10-26,18.7436
2008-10-27,19.92916666666667
2008-10-28,23.12291666666667
2008-10-29,21.288333333333334
2008-10-30,20.985
2008-10-31,21.213749999999997
2008-11-01,21.823750000000004
2008-11-02,17.802916666666665
2008-11-03,15.61583333333333
2008-11-04,14.841666666666669
2008-11-05,14.41833333333333
2008-11-06,18.448749999999997
2008-11-07,20.104583333333334
2008-11-08,19.316666666666666
2008-11-09,14.747916666666669
2008-11-10,14.04916666666667
2008-11-11,14.382916666666672
2008-11-12,16.59
2008-11-13,18.706666666666667
2008-11-14,21.931250000000006
2008-11-15,23.660416666666666
2008-11-16,24.424166666666675
2008-11-17,22.26958333333333
2008-11-18,21.302083333333332
2008-11-19,18.530416666666667
2008-11-20,15.969583333333334
2008-11-21,18.74291666666667
2008-11-22,16.202916666666663
2008-11-23,14.697916666666666
2008-11-24,14.907916666666665
2008-11-25,18.2625
2008-11-26,16.320833333333336
2008-11-27,14.795833333333329
2008-11-28,14.75125
2008-11-29,14.426666666666664
2008-11-30,15.870833333333335
2008-12-01,15.121249999999998
2008-12-02,14.006250000000003
2008-12-03,14.667083333333332
2008-12-04,14.517083333333332
2008-12-05,15.722499999999998
2008-12-06,17.510416666666668
2008-12-07,15.680833333333334
2008-12-08,13.679583333333333
2008-12-09,14.95791666666667
2008-12-10,15.589999999999998
2008-12-11,15.226666666666665
2008-12-12,14.345833333333337
2008-12-13,12.987916666666669
2008-12-14,10.931666666666667
2008-12-15,10.625833333333333
2008-12-16,11.653333333333334
2008-12-17,10.302083333333334
2008-12-18,10.077916666666667
2008-12-19,8.595416666666667
2008-12-20,9.405833333333334
2008-12-21,10.617499999999998
2008-12-22,10.462916666666667
2008-12-23,10.481250000000001
2008-12-24,10.128333333333332
2008-12-25,12.122500000000002
2008-12-26,9.250416666666666
2008-12-27,8.680000000000001
2008-12-28,10.735
2008-12-29,13.70541666666667
2008-12-30,12.865
2008-12-31,11.704583333333332
