date,avg_temperature
2010-01-01,14.090833333333336
2010-01-02,15.637499999999998
2010-01-03,17.906666666666666
2010-01-04,16.029166666666665
2010-01-05,15.17125
2010-01-06,14.40958333333333
2010-01-07,13.997083333333334
2010-01-08,17.363333333333333
2010-01-09,17.551666666666666
2010-01-10,16.72916666666667
2010-01-11,16.890416666666667
2010-01-12,14.740416666666667
2010-01-13,13.16291666666667
2010-01-14,13.450416666666664
2010-01-15,15.281666666666665
2010-01-16,14.479583333333338
2010-01-17,13.000833333333334
2010-01-18,13.516666666666667
2010-01-19,11.975416666666668
2010-01-20,11.998333333333335
2010-01-21,12.832083333333335
2010-01-22,10.06125
2010-01-23,9.775
2010-01-24,10.231250000000001
2010-01-25,11.478333333333332
2010-01-26,12.084166666666667
2010-01-27,12.93125
2010-01-28,12.550416666666665
2010-01-29,12.817083333333331
2010-01-30,12.06
2010-01-31,11.907083333333334
2010-02-01,12.697083333333332
2010-02-02,12.892083333333337
2010-02-03,12.880416666666669
2010-02-04,12.496666666666664
2010-02-05,13.155833333333332
2010-02-06,13.42
2010-02-07,11.620416666666666
2010-02-08,11.458333333333334
2010-02-09,11.594583333333333
2010-02-10,9.734583333333333
2010-02-11,11.185416666666667
2010-02-12,12.602500000000001
2010-02-13,15.187916666666668
2010-02-14,17.303333333333338
2010-02-15,17.94375
2010-02-16,17.63333333333333
2010-02-17,16.10208333333333
2010-02-18,14.224583333333335
2010-02-19,13.133333333333331
2010-02-20,12.808333333333335
2010-02-21,12.525833333333333
2010-02-22,12.803749999999999
2010-02-23,12.180833333333334
2010-02-24,12.510833333333332
2010-02-25,14.210416666666662
2010-02-26,15.987499999999999
2010-02-27,12.6075
2010-02-28,12.27125
2010-03-01,13.680416666666664
2010-03-02,13.700833333333334
2010-03-03,13.016666666666667
2010-03-04,11.90458333333333
2010-03-05,11.360833333333332
2010-03-06,11.579999999999998
2010-03-07,10.405
2010-03-08,12.730833333333335
2010-03-09,10.888333333333334
2010-03-10,10.405833333333335
2010-03-11,11.8375
2010-03-12,12.930833333333334
2010-03-13,11.558749999999998
2010-03-14,12.856086956521736
2010-03-15,16.695416666666663
2010-03-16,21.611666666666665
2010-03-17,20.55
2010-03-18,15.830416666666666
2010-03-19,15.82291666666667
2010-03-20,16.76833333333333
2010-03-21,16.910416666666666
2010-03-22,15.104166666666666
2010-03-23,15.264583333333334
2010-03-24,15.761250000000002
2010-03-25,13.584999999999999
2010-03-26,15.012083333333335
2010-03-27,17.609166666666667
2010-03-28,20.43375
2010-03-29,18.092916666666664
2010-03-30,14.814166666666667
2010-03-31,13.501249999999999
2010-04-01,10.676666666666668
2010-04-02,12.0725
2010-04-03,12.925416666666669
2010-04-04,13.541666666666666
2010-04-05,13.355833333333331
2010-04-06,13.627500000000003
2010-04-07,18.18208333333334
2010-04-08,18.468333333333334
2010-04-09,15.242500000000001
2010-04-10,14.356249999999998
2010-04-11,14.31375
2010-04-12,13.8375
2010-04-13,13.256666666666668
2010-04-14,13.48958333333333
2010-04-15,15.051666666666668
2010-04-16,15.505416666666667
2010-04-17,15.822916666666666
2010-04-18,16.555833333333336
2010-04-19,17.14958333333333
2010-04-20,15.795416666666668
2010-04-21,11.42666666666667
2010-04-22,10.422083333333335
2010-04-23,12.279166666666663
2010-04-24,14.872916666666669
2010-04-25,15.3575
2010-04-26,15.8575
2010-04-27,15.454999999999997
2010-04-28,14.820833333333333
2010-04-29,13.194166666666668
2010-04-30,13.895000000000001
2010-05-01,14.629583333333331
2010-05-02,15.184583333333334
2010-05-03,18.117499999999996
2010-05-04,18.819166666666668
2010-05-05,17.026666666666664
2010-05-06,17.037916666666668
2010-05-07,17.78
2010-05-08,18.370416666666664
2010-05-09,15.020416666666668
2010-05-10,15.044583333333334
2010-05-11,14.165833333333337
2010-05-12,15.394166666666669
2010-05-13,16.44458333333333
2010-05-14,15.604999999999999
2010-05-15,16.596249999999998
2010-05-16,15.979583333333332
2010-05-17,14.874583333333332
2010-05-18,16.587083333333336
2010-05-19,17.280833333333334
2010-05-20,18.295416666666664
2010-05-21,16.956666666666667
2010-05-22,14.787916666666666
2010-05-23,12.83083333333333
2010-05-24,13.882916666666667
2010-05-25,15.104583333333332
2010-05-26,16.17875
2010-05-27,17.335833333333333
2010-05-28,16.09916666666667
2010-05-29,17.325
2010-05-30,18.56541666666667
2010-05-31,17.54791666666667
2010-06-01,16.857499999999998
2010-06-02,17.525000000000002
2010-06-03,18.15875
2010-06-04,19.107083333333332
2010-06-05,20.08666666666667
2010-06-06,19.930416666666662
2010-06-07,19.595000000000002
2010-06-08,18.05625
2010-06-09,17.264583333333334
2010-06-10,16.50791666666667
2010-06-11,16.000000000000004
2010-06-12,16.64458333333333
2010-06-13,18.117916666666666
2010-06-14,19.940416666666668
2010-06-15,19.068749999999998
2010-06-16,16.589166666666667
2010-06-17,17.367083333333337
2010-06-18,17.40875
2010-06-19,17.997083333333336
2010-06-20,18.288749999999997
2010-06-21,17.103749999999998
2010-06-22,17.438750000000002
2010-06-23,18.618333333333336
2010-06-24,18.66875
2010-06-25,18.6225
2010-06-26,17.74041666666667
2010-06-27,18.01875
2010-06-28,17.157916666666665
2010-06-29,18.182916666666667
2010-06-30,19.67291666666667
2010-07-01,20.077083333333334
2010-07-02,19.012916666666673
2010-07-03,17.42625
2010-07-04,17.390416666666667
2010-07-05,17.7625
2010-07-06,17.70625
2010-07-07,17.262916666666666
2010-07-08,17.118333333333332
2010-07-09,18.255
2010-07-10,18.98125
2010-07-11,19.305000000000003
2010-07-12,20.3625
2010-07-13,22.70166666666667
2010-07-14,24.886666666666667
2010-07-15,24.885
2010-07-16,27.56041666666667
2010-07-17,24.716250000000006
2010-07-18,21.942916666666665
2010-07-19,20.75708333333333
2010-07-20,19.42
2010-07-21,19.040000000000003
2010-07-22,19.27416666666667
2010-07-23,19.627916666666668
2010-07-24,19.963333333333335
2010-07-25,19.26625
2010-07-26,18.347083333333334
2010-07-27,18.29
2010-07-28,18.616666666666667
2010-07-29,19.243750000000002
2010-07-30,19.19458333333333
2010-07-31,19.150833333333335
2010-08-01,19.928749999999997
2010-08-02,19.674166666666668
2010-08-03,20.72541666666667
2010-08-04,20.14958333333333
2010-08-05,19.602916666666665
2010-08-06,19.076250000000005
2010-08-07,18.407083333333336
2010-08-08,18.430000000000003
2010-08-09,18.562916666666666
2010-08-10,19.561666666666667
2010-08-11,19.1675
2010-08-12,19.190416666666668
2010-08-13,19.307916666666667
2010-08-14,19.458750000000002
2010-08-15,19.731666666666666
2010-08-16,21.520416666666666
2010-08-17,25.132499999999997
2010-08-18,26.793333333333337
2010-08-19,26.153333333333325
2010-08-20,24.226666666666663
2010-08-21,22.579166666666666
2010-08-22,23.597916666666663
2010-08-23,25.41416666666666
2010-08-24,26.20875
2010-08-25,26.01625
2010-08-26,24.513333333333332
2010-08-27,21.66541666666667
2010-08-28,17.89916666666667
2010-08-29,17.70833333333334
2010-08-30,18.450833333333332
2010-08-31,19.084166666666665
2010-09-01,20.54041666666667
2010-09-02,21.751666666666665
2010-09-03,23.796250000000004
2010-09-04,24.75166666666667
2010-09-05,21.155000000000005
2010-09-06,18.04708333333333
2010-09-07,18.19458333333333
2010-09-08,17.99458333333333
2010-09-09,18.1275
2010-09-10,17.819166666666664
2010-09-11,19.340833333333332
2010-09-12,20.107083333333332
2010-09-13,20.86
2010-09-14,21.159583333333334
2010-09-15,19.782083333333333
2010-09-16,18.679166666666667
2010-09-17,18.624999999999996
2010-09-18,19.199166666666667
2010-09-19,19.237916666666667
2010-09-20,18.67458333333333
2010-09-21,17.36375
2010-09-22,17.56083333333334
2010-09-23,17.96375
2010-09-24,20.96458333333333
2010-09-25,26.06458333333333
2010-09-26,28.30583333333333
2010-09-27,31.67333333333333
2010-09-28,27.647083333333338
2010-09-29,25.36375
2010-09-30,22.184166666666666
2010-10-01,21.34375
2010-10-02,22.30458333333333
2010-10-03,20.61791666666667
2010-10-04,17.198750000000004
2010-10-05,15.993750000000004
2010-10-06,15.73958333333333
2010-10-07,16.57833333333333
2010-10-08,17.27958333333333
2010-10-09,20.462500000000002
2010-10-10,22.55708333333334
2010-10-11,20.343749999999996
2010-10-12,19.08583333333333
2010-10-13,19.640833333333337
2010-10-14,18.80333333333333
2010-10-15,17.467916666666664
2010-10-16,17.267083333333332
2010-10-17,16.237083333333334
2010-10-18,16.400000000000002
2010-10-19,15.697916666666666
2010-10-20,15.351249999999999
2010-10-21,16.215
2010-10-22,15.851666666666665
2010-10-23,15.847500000000002
2010-10-24,17.08625
2010-10-25,16.80875
2010-10-26,15.934166666666668
2010-10-27,19.323333333333334
2010-10-28,21.49666666666667
2010-10-29,19.561249999999998
2010-10-30,15.490416666666668
2010-10-31,14.707916666666668
2010-11-01,19.067916666666665
2010-11-02,24.234166666666663
2010-11-03,28.23833333333334
2010-11-04,28.527083333333337
2010-11-05,24.218333333333337
2010-11-06,18.624166666666675
2010-11-07,15.607999999999999
2010-11-08,14.796666666666665
2010-11-09,13.650833333333333
2010-11-10,13.329999999999998
2010-11-11,15.327916666666669
2010-11-12,17.35333333333333
2010-11-13,18.112083333333334
2010-11-14,17.775416666666665
2010-11-15,17.035
2010-11-16,15.323750000000002
2010-11-17,15.68625
2010-11-18,15.367083333333332
2010-11-19,14.065833333333336
2010-11-20,13.939583333333331
2010-11-21,11.738749999999998
2010-11-22,10.825000000000003
2010-11-23,10.970416666666665
2010-11-24,10.492916666666666
2010-11-25,10.051250000000001
2010-11-26,11.710416666666665
2010-11-27,10.66125
2010-11-28,10.785416666666668
2010-11-29,9.639999999999999
2010-11-30,12.795000000000002
2010-12-01,14.604583333333332
2010-12-02,15.144166666666663
2010-12-03,13.901250000000003
2010-12-04,13.162083333333335
2010-12-05,15.051249999999998
2010-12-06,13.982916666666666
2010-12-07,15.175833333333335
2010-12-08,15.52875
2010-12-09,13.821666666666665
2010-12-10,13.990833333333335
2010-12-11,17.715833333333336
2010-12-12,22.789583333333336
2010-12-13,19.633750000000003
2010-12-14,12.506666666666668
2010-12-15,13.077083333333336
2010-12-16,12.142083333333334
2010-12-17,12.577916666666667
2010-12-18,14.560416666666663
2010-12-19,14.517083333333332
2010-12-20,15.234166666666665
2010-12-21,14.189166666666667
2010-12-22,13.718749999999998
2010-12-23,12.109166666666665
2010-12-24,12.968333333333332
2010-12-25,12.605416666666665
2010-12-26,12.389999999999999
2010-12-27,12.416666666666666
2010-12-28,13.042500000000002
2010-12-29,11.632083333333334
2010-12-30,9.091666666666669
2010-12-31,7.84875
