date,avg_temperature
2012-01-01,23.753333333333334
2012-01-02,22.865294117647053
2012-01-03,20.308333333333326
2012-01-04,17.949999999999996
2012-01-05,19.76222222222222
2012-01-06,21.644444444444442
2012-01-07,22.15555555555555
2012-01-08,22.57888888888889
2012-01-09,24.01833333333333
2012-01-10,23.21736842105263
2012-01-11,23.352380952380948
2012-01-12,24.34421052631579
2012-01-13,24.92736842105263
2012-01-14,22.16315789473684
2012-01-15,22.352777777777774
2012-01-16,23.209999999999994
2012-01-17,23.477391304347826
2012-01-18,23.45842105263158
2012-01-19,23.417142857142856
2012-01-20,23.638499999999997
2012-01-21,24.767894736842106
2012-01-22,25.185499999999998
2012-01-23,25.25999999999999
2012-01-24,25.901052631578942
2012-01-25,25.505499999999998
2012-01-26,24.1945
2012-01-27,21.950499999999998
2012-01-28,22.042631578947365
2012-01-29,23.083499999999994
2012-01-30,22.36684210526315
2012-01-31,24.222777777777775
2012-02-01,23.87210526315789
2012-02-02,23.252105263157894
2012-02-03,23.304499999999997
2012-02-04,23.508
2012-02-05,25.12052631578947
2012-02-06,22.835999999999995
2012-02-07,22.75095238095238
2012-02-08,20.062
2012-02-09,21.203809523809518
2012-02-10,21.942
2012-02-11,22.547894736842103
2012-02-12,21.927
2012-02-13,24.507142857142856
2012-02-14,27.76611111111111
2012-02-15,27.013999999999992
2012-02-16,28.04
2012-02-17,29.228947368421046
2012-02-18,27.036999999999995
2012-02-19,24.05380952380952
2012-02-20,24.720999999999997
2012-02-21,24.384285714285717
2012-02-22,25.056956521739128
2012-02-23,27.154285714285713
2012-02-24,26.900555555555556
2012-02-25,22.874999999999996
2012-02-26,19.87578947368421
2012-02-27,23.387999999999998
2012-02-28,26.522999999999996
2012-02-29,25.93473684210526
2012-03-01,26.71999999999999
2012-03-02,26.69944444444444
2012-03-03,27.629473684210524
2012-03-04,22.166818181818186
2012-03-05,20.409499999999994
2012-03-06,23.552631578947366
2012-03-07,24.301818181818177
2012-03-08,24.799999999999997
2012-03-09,25.51565217391304
2012-03-10,26.02736842105263
2012-03-11,27.4395
2012-03-12,25.713684210526313
2012-03-13,25.714999999999993
2012-03-14,26.865999999999996
2012-03-15,27.493999999999993
2012-03-16,25.6747619047619
2012-03-17,26.197999999999997
2012-03-18,28.87444444444444
2012-03-19,28.880999999999993
2012-03-20,26.930499999999995
2012-03-21,26.582857142857137
2012-03-22,26.6675
2012-03-23,28.078500000000002
2012-03-24,28.01842105263158
2012-03-25,26.1855
2012-03-26,27.3345
2012-03-27,27.058999999999997
2012-03-28,28.11421052631578
2012-03-29,28.69052631578947
2012-03-30,28.352631578947364
2012-03-31,29.48190476190476
2012-04-01,28.154210526315794
2012-04-02,27.55833333333333
2012-04-03,26.04090909090909
2012-04-04,30.742631578947364
2012-04-05,29.673157894736846
2012-04-06,28.19799999999999
2012-04-07,27.412857142857135
2012-04-08,28.747999999999998
2012-04-09,26.225909090909088
2012-04-10,26.84749999999999
2012-04-11,27.677368421052627
2012-04-12,28.678421052631574
2012-04-13,26.4955
2012-04-14,25.10380952380952
2012-04-15,27.53
2012-04-16,28.291000000000004
2012-04-17,28.405263157894733
2012-04-18,27.291000000000004
2012-04-19,27.212999999999994
2012-04-20,28.4995
2012-04-21,26.743157894736843
2012-04-22,25.43380952380952
2012-04-23,25.181999999999995
2012-04-24,25.581052631578945
2012-04-25,26.515
2012-04-26,26.77631578947368
2012-04-27,28.013888888888893
2012-04-28,28.36263157894737
2012-04-29,28.510476190476187
2012-04-30,29.57
2012-05-01,29.538095238095234
2012-05-02,31.15157894736842
2012-05-03,31.177999999999997
2012-05-04,30.704736842105262
2012-05-05,30.787368421052633
2012-05-06,30.95777777777778
2012-05-07,31.290526315789474
2012-05-08,28.921
2012-05-09,29.341052631578943
2012-05-10,29.13190476190476
2012-05-11,30.322222222222212
2012-05-12,29.641904761904758
2012-05-13,27.955
2012-05-14,27.76444444444444
2012-05-15,27.91166666666666
2012-05-16,25.225882352941177
2012-05-17,26.879999999999995
2012-05-18,28.19722222222222
2012-05-19,27.260952380952375
2012-05-20,27.213333333333335
2012-05-21,27.88499999999999
2012-05-22,27.127777777777776
2012-05-23,29.60368421052631
2012-05-24,30.398499999999995
2012-05-25,30.23473684210526
2012-05-26,27.851428571428567
2012-05-27,27.757222222222218
2012-05-28,26.71388888888889
2012-05-29,26.189999999999998
2012-05-30,26.15736842105263
2012-05-31,26.46157894736842
2012-06-01,29.428999999999995
2012-06-02,26.678571428571434
2012-06-03,26.8705
2012-06-04,26.60894736842105
2012-06-05,28.674999999999997
2012-06-06,27.8565
2012-06-07,28.284999999999997
2012-06-08,27.3065
2012-06-09,27.549047619047617
2012-06-10,29.30052631578947
2012-06-11,26.993809523809517
2012-06-12,24.373157894736845
2012-06-13,27.496666666666663
2012-06-14,25.522857142857138
2012-06-15,26.819047619047616
2012-06-16,26.488
2012-06-17,25.198571428571427
2012-06-18,25.103500000000004
2012-06-19,24.398636363636356
2012-06-20,25.4347619047619
2012-06-21,26.421904761904763
2012-06-22,26.747894736842103
2012-06-23,25.714
2012-06-24,26.355238095238093
2012-06-25,25.74571428571428
2012-06-26,26.668947368421048
2012-06-27,27.083
2012-06-28,28.10380952380952
2012-06-29,25.64761904761904
2012-06-30,27.259047619047617
2012-07-01,24.4147619047619
2012-07-02,24.016666666666666
2012-07-03,25.620952380952374
2012-07-04,25.679523809523804
2012-07-05,26.211499999999994
2012-07-06,25.037142857142857
2012-07-07,25.423181818181817
2012-07-08,26.273809523809526
2012-07-09,25.746999999999996
2012-07-10,26.25428571428571
2012-07-11,26.339999999999993
2012-07-12,26.508999999999997
2012-07-13,25.788095238095234
2012-07-14,24.44473684210526
2012-07-15,26.10111111111111
2012-07-16,27.718499999999988
2012-07-17,27.483999999999998
2012-07-18,26.87944444444444
2012-07-19,25.0995652173913
2012-07-20,25.345999999999997
2012-07-21,25.25238095238095
2012-07-22,25.816842105263156
2012-07-23,27.307777777777776
2012-07-24,25.649473684210523
2012-07-25,27.674500000000002
2012-07-26,28.331499999999995
2012-07-27,28.586842105263152
2012-07-28,26.3405
2012-07-29,26.143888888888885
2012-07-30,27.165000000000003
2012-07-31,27.072727272727267
2012-08-01,26.684736842105263
2012-08-02,26.161
2012-08-03,27.016111111111112
2012-08-04,25.0305
2012-08-05,26.038499999999992
2012-08-06,27.43052631578947
2012-08-07,26.830476190476187
2012-08-08,24.928421052631574
2012-08-09,23.00095238095238
2012-08-10,24.423
2012-08-11,23.81272727272727
2012-08-12,25.684999999999995
2012-08-13,25.894761904761904
2012-08-14,25.715294117647055
2012-08-15,25.657142857142855
2012-08-16,25.761904761904756
2012-08-17,24.7240909090909
2012-08-18,25.594999999999995
2012-08-19,26.514499999999998
2012-08-20,26.348695652173912
2012-08-21,24.797999999999995
2012-08-22,24.883
2012-08-23,26.7035
2012-08-24,26.9195
2012-08-25,27.176956521739132
2012-08-26,26.579999999999995
2012-08-27,27.589499999999997
2012-08-28,27.651999999999997
2012-08-29,26.627142857142854
2012-08-30,25.683999999999997
2012-08-31,25.64157894736842
2012-09-01,26.306666666666665
2012-09-02,27.47428571428571
2012-09-03,26.232
2012-09-04,25.508095238095237
2012-09-05,27.204736842105262
2012-09-06,27.329999999999995
2012-09-07,27.339499999999997
2012-09-08,26.63428571428571
2012-09-09,26.291428571428572
2012-09-10,26.247499999999995
2012-09-11,26.208999999999993
2012-09-12,26.79380952380952
2012-09-13,26.845714285714287
2012-09-14,27.2452380952381
2012-09-15,26.714761904761904
2012-09-16,26.703999999999997
2012-09-17,25.79181818181818
2012-09-18,26.43047619047619
2012-09-19,25.746
2012-09-20,25.392105263157895
2012-09-21,25.572999999999997
2012-09-22,25.551499999999997
2012-09-23,26.247500000000002
2012-09-24,27.383999999999993
2012-09-25,26.259047619047617
2012-09-26,26.102999999999998
2012-09-27,26.55380952380952
2012-09-28,26.828571428571422
2012-09-29,27.169523809523803
2012-09-30,27.09619047619047
2012-10-01,26.33954545454545
2012-10-02,25.25166666666666
2012-10-03,24.450526315789475
2012-10-04,25.151000000000003
2012-10-05,26.409047619047616
2012-10-06,26.162380952380946
2012-10-07,26.286499999999997
2012-10-08,26.04714285714286
2012-10-09,25.422857142857136
2012-10-10,25.653809523809525
2012-10-11,25.38095238095238
2012-10-12,27.233999999999998
2012-10-13,25.233636363636364
2012-10-14,25.842999999999996
2012-10-15,25.856999999999992
2012-10-16,25.0235
2012-10-17,26.394999999999996
2012-10-18,25.945
2012-10-19,26.9378947368421
2012-10-20,26.676666666666662
2012-10-21,26.645
2012-10-22,27.133999999999997
2012-10-23,26.899047619047618
2012-10-24,24.305714285714284
2012-10-25,25.6815
2012-10-26,25.2847619047619
2012-10-27,24.65095238095238
2012-10-28,25.333499999999997
2012-10-29,25.364736842105263
2012-10-30,24.318499999999993
2012-10-31,24.639
2012-11-01,24.075
2012-11-02,24.847499999999997
2012-11-03,25.60380952380952
2012-11-04,25.676363636363636
2012-11-05,25.447499999999998
2012-11-06,25.2465
2012-11-07,23.82333333333333
2012-11-08,23.4925
2012-11-09,22.652499999999996
2012-11-10,23.067619047619047
2012-11-11,23.900952380952376
2012-11-12,25.568499999999997
2012-11-13,25.373999999999995
2012-11-14,23.326999999999995
2012-11-15,24.086842105263155
2012-11-16,24.700999999999997
2012-11-17,23.4435
2012-11-18,23.107499999999995
2012-11-19,22.304
2012-11-20,21.835
2012-11-21,23.299
2012-11-22,23.747
2012-11-23,22.683684210526316
2012-11-24,22.906818181818178
2012-11-25,22.30428571428571
2012-11-26,23.183999999999997
2012-11-27,23.432499999999997
2012-11-28,24.101999999999997
2012-11-29,23.40052631578947
2012-11-30,22.93260869565217
2012-12-01,23.522999999999996
2012-12-02,23.47304347826087
2012-12-03,24.764
2012-12-04,24.462
2012-12-05,24.994999999999997
2012-12-06,24.039999999999996
2012-12-07,22.7245
2012-12-08,24.247777777777777
2012-12-09,23.55454545454545
2012-12-10,24.711499999999994
2012-12-11,24.554999999999996
2012-12-12,24.151
2012-12-13,24.049999999999997
2012-12-14,24.864210526315787
2012-12-15,25.16944444444444
2012-12-16,26.015263157894733
2012-12-17,27.015789473684215
2012-12-18,25.127000000000002
2012-12-19,23.811052631578942
2012-12-20,24.7415
2012-12-21,20.912777777777777
2012-12-22,21.693684210526314
2012-12-23,19.788095238095234
2012-12-24,22.033888888888885
2012-12-25,25.196666666666665
2012-12-26,24.04
2012-12-27,24.130555555555556
2012-12-28,25.214444444444442
2012-12-29,25.047777777777778
2012-12-30,23.379444444444445
2012-12-31,23.873888888888885
