date,avg_temperature
2010-01-01,3.3312499999999994
2010-01-02,4.4525
2010-01-03,6.2179166666666665
2010-01-04,5.429583333333333
2010-01-05,5.5179166666666655
2010-01-06,7.449583333333333
2010-01-07,1.9516666666666664
2010-01-08,-0.7062499999999999
2010-01-09,0.3924999999999996
2010-01-10,3.5808333333333326
2010-01-11,6.3379166666666675
2010-01-12,5.595416666666668
2010-01-13,5.255
2010-01-14,6.728749999999999
2010-01-15,7.735416666666666
2010-01-16,6.733333333333334
2010-01-17,8.937083333333332
2010-01-18,11.724166666666664
2010-01-19,11.726666666666665
2010-01-20,9.821666666666667
2010-01-21,11.9675
2010-01-22,9.309166666666664
2010-01-23,5.7575
2010-01-24,4.975416666666666
2010-01-25,4.281666666666667
2010-01-26,5.512083333333333
2010-01-27,8.098333333333334
2010-01-28,5.065833333333333
2010-01-29,2.6250000000000004
2010-01-30,5.037083333333333
2010-01-31,8.253749999999998
2010-02-01,10.333750000000002
2010-02-02,10.381250000000001
2010-02-03,6.474583333333334
2010-02-04,8.928333333333335
2010-02-05,10.747916666666669
2010-02-06,10.580000000000002
2010-02-07,10.440833333333332
2010-02-08,8.604999999999999
2010-02-09,6.464166666666666
2010-02-10,7.091666666666668
2010-02-11,8.412500000000001
2010-02-12,7.925000000000001
2010-02-13,8.934166666666666
2010-02-14,8.630833333333333
2010-02-15,5.1154166666666665
2010-02-16,7.09125
2010-02-17,9.247083333333334
2010-02-18,12.458749999999997
2010-02-19,13.509583333333333
2010-02-20,11.557083333333331
2010-02-21,9.86875
2010-02-22,9.311666666666666
2010-02-23,2.7245833333333334
2010-02-24,6.149166666666666
2010-02-25,11.241666666666665
2010-02-26,9.66958333333333
2010-02-27,11.665416666666665
2010-02-28,9.580416666666666
2010-03-01,9.1175
2010-03-02,9.125833333333334
2010-03-03,12.157916666666665
2010-03-04,15.124583333333334
2010-03-05,15.012083333333335
2010-03-06,14.57
2010-03-07,16.968749999999996
2010-03-08,10.499583333333334
2010-03-09,11.198750000000002
2010-03-10,7.990833333333334
2010-03-11,8.738749999999998
2010-03-12,10.988750000000001
2010-03-13,14.083333333333334
2010-03-14,15.752173913043478
2010-03-15,9.163749999999999
2010-03-16,9.56125
2010-03-17,12.330833333333336
2010-03-18,15.264166666666666
2010-03-19,16.31083333333333
2010-03-20,7.539583333333333
2010-03-21,8.780416666666666
2010-03-22,13.277916666666668
2010-03-23,15.753333333333332
2010-03-24,12.596250000000003
2010-03-25,12.260000000000003
2010-03-26,16.52541666666667
2010-03-27,13.530000000000003
2010-03-28,12.002083333333333
2010-03-29,13.905833333333334
2010-03-30,18.381249999999998
2010-03-31,22.362916666666667
2010-04-01,19.41333333333333
2010-04-02,12.859583333333333
2010-04-03,15.426666666666662
2010-04-04,20.969583333333333
2010-04-05,22.32375
2010-04-06,19.749166666666667
2010-04-07,13.003749999999998
2010-04-08,14.74791666666667
2010-04-09,19.23125
2010-04-10,21.251250000000002
2010-04-11,21.01666666666667
2010-04-12,20.710416666666667
2010-04-13,21.185416666666672
2010-04-14,20.155
2010-04-15,20.026666666666667
2010-04-16,19.702916666666663
2010-04-17,15.882916666666665
2010-04-18,16.745
2010-04-19,16.684166666666666
2010-04-20,18.267500000000002
2010-04-21,21.996250000000003
2010-04-22,14.99125
2010-04-23,10.30375
2010-04-24,15.519999999999998
2010-04-25,19.24208333333333
2010-04-26,21.3475
2010-04-27,18.3775
2010-04-28,22.400000000000002
2010-04-29,22.716666666666665
2010-04-30,12.441666666666665
2010-05-01,13.49875
2010-05-02,14.395833333333334
2010-05-03,15.00291666666667
2010-05-04,20.874999999999996
2010-05-05,24.75916666666667
2010-05-06,27.541249999999994
2010-05-07,25.577083333333334
2010-05-08,20.40958333333333
2010-05-09,23.485416666666666
2010-05-10,25.62166666666667
2010-05-11,24.85875
2010-05-12,20.577500000000004
2010-05-13,20.557916666666667
2010-05-14,23.78291666666667
2010-05-15,21.340000000000003
2010-05-16,23.352083333333336
2010-05-17,25.025000000000006
2010-05-18,25.192500000000006
2010-05-19,24.725833333333338
2010-05-20,25.296666666666663
2010-05-21,27.180833333333336
2010-05-22,27.424166666666665
2010-05-23,26.682916666666667
2010-05-24,23.331666666666667
2010-05-25,23.622083333333336
2010-05-26,26.599999999999994
2010-05-27,28.110833333333332
2010-05-28,28.699583333333333
2010-05-29,28.857083333333335
2010-05-30,28.11291666666666
2010-05-31,28.76291666666667
2010-06-01,28.537916666666664
2010-06-02,27.74875
2010-06-03,28.61708333333333
2010-06-04,30.507499999999997
2010-06-05,32.7225
2010-06-06,32.04416666666667
2010-06-07,30.091250000000002
2010-06-08,30.30416666666667
2010-06-09,32.01875
2010-06-10,31.289166666666663
2010-06-11,29.27541666666667
2010-06-12,29.073750000000004
2010-06-13,26.378333333333334
2010-06-14,26.669583333333335
2010-06-15,27.952083333333338
2010-06-16,30.02874999999999
2010-06-17,29.99791666666667
2010-06-18,30.846666666666675
2010-06-19,31.25916666666666
2010-06-20,32.09875
2010-06-21,32.521249999999995
2010-06-22,31.666666666666668
2010-06-23,31.404166666666672
2010-06-24,29.313333333333333
2010-06-25,29.99333333333334
2010-06-26,29.569166666666664
2010-06-27,29.574583333333337
2010-06-28,26.99541666666667
2010-06-29,24.265833333333333
2010-06-30,25.023750000000003
2010-07-01,26.105
2010-07-02,25.824166666666674
2010-07-03,27.337083333333336
2010-07-04,29.221666666666668
2010-07-05,29.96708333333333
2010-07-06,28.654583333333335
2010-07-07,27.2625
2010-07-08,26.398749999999996
2010-07-09,25.835416666666664
2010-07-10,25.844166666666663
2010-07-11,25.015833333333333
2010-07-12,26.373333333333335
2010-07-13,31.731249999999992
2010-07-14,32.06499999999999
2010-07-15,29.904583333333324
2010-07-16,28.47666666666667
2010-07-17,29.742500000000003
2010-07-18,31.2775
2010-07-19,31.82375
2010-07-20,31.003749999999997
2010-07-21,29.124583333333323
2010-07-22,26.090416666666666
2010-07-23,25.985833333333336
2010-07-24,24.18625
2010-07-25,24.674166666666665
2010-07-26,25.518749999999997
2010-07-27,27.97208333333334
2010-07-28,26.74416666666666
2010-07-29,25.95041666666666
2010-07-30,25.13208333333333
2010-07-31,24.53083333333333
2010-08-01,26.62875
2010-08-02,29.273333333333337
2010-08-03,30.418333333333337
2010-08-04,31.475000000000005
2010-08-05,30.941666666666666
2010-08-06,30.102500000000003
2010-08-07,30.061666666666664
2010-08-08,28.834999999999997
2010-08-09,28.382083333333338
2010-08-10,29.899583333333336
2010-08-11,30.78583333333334
2010-08-12,31.056666666666672
2010-08-13,30.365000000000006
2010-08-14,31.03666666666666
2010-08-15,30.328333333333333
2010-08-16,28.144166666666674
2010-08-17,28.94
2010-08-18,30.022916666666656
2010-08-19,28.857916666666668
2010-08-20,30.670833333333334
2010-08-21,28.74833333333333
2010-08-22,29.098750000000006
2010-08-23,30.17958333333333
2010-08-24,26.043333333333337
2010-08-25,23.52291666666667
2010-08-26,24.829583333333336
2010-08-27,26.21624999999999
2010-08-28,26.225416666666664
2010-08-29,25.351250000000004
2010-08-30,24.90166666666667
2010-08-31,26.690833333333334
2010-09-01,27.691666666666663
2010-09-02,29.41083333333334
2010-09-03,24.269583333333333
2010-09-04,24.41875
2010-09-05,26.556250000000006
2010-09-06,27.96708333333333
2010-09-07,27.61125
2010-09-08,25.34375
2010-09-09,26.295833333333324
2010-09-10,26.491249999999997
2010-09-11,26.30666666666667
2010-09-12,27.053750000000004
2010-09-13,24.79166666666667
2010-09-14,25.731666666666666
2010-09-15,27.882499999999997
2010-09-16,25.614166666666662
2010-09-17,23.720833333333335
2010-09-18,25.410416666666663
2010-09-19,25.454166666666662
2010-09-20,25.32583333333334
2010-09-21,26.531666666666666
2010-09-22,24.609166666666663
2010-09-23,22.467083333333335
2010-09-24,24.536666666666665
2010-09-25,25.35083333333333
2010-09-26,23.019583333333333
2010-09-27,21.69458333333333
2010-09-28,23.363333333333333
2010-09-29,25.260416666666668
2010-09-30,25.24083333333333
2010-10-01,24.67958333333333
2010-10-02,24.299166666666668
2010-10-03,21.946666666666662
2010-10-04,21.279583333333335
2010-10-05,20.910833333333333
2010-10-06,23.47041666666667
2010-10-07,22.953333333333333
2010-10-08,22.59833333333333
2010-10-09,21.794583333333332
2010-10-10,20.61208333333333
2010-10-11,19.69416666666667
2010-10-12,20.43083333333333
2010-10-13,21.417083333333338
2010-10-14,20.259999999999994
2010-10-15,19.87541666666667
2010-10-16,21.227916666666665
2010-10-17,22.083333333333332
2010-10-18,20.730833333333333
2010-10-19,20.01083333333333
2010-10-20,21.012083333333333
2010-10-21,18.07625
2010-10-22,14.87083333333333
2010-10-23,16.682916666666667
2010-10-24,17.523333333333337
2010-10-25,19.80416666666667
2010-10-26,18.579583333333332
2010-10-27,18.20125
2010-10-28,16.168749999999996
2010-10-29,17.324583333333333
2010-10-30,20.399166666666662
2010-10-31,19.617916666666662
2010-11-01,16.811249999999998
2010-11-02,15.017083333333337
2010-11-03,15.752500000000003
2010-11-04,14.55166666666667
2010-11-05,14.154583333333335
2010-11-06,14.210416666666667
2010-11-07,15.835600000000005
2010-11-08,16.2075
2010-11-09,16.12458333333333
2010-11-10,12.438333333333333
2010-11-11,13.627499999999998
2010-11-12,10.197083333333333
2010-11-13,8.670833333333333
2010-11-14,9.902916666666668
2010-11-15,12.743333333333332
2010-11-16,11.987499999999999
2010-11-17,13.638333333333334
2010-11-18,11.060000000000002
2010-11-19,12.046666666666667
2010-11-20,13.571250000000001
2010-11-21,15.819166666666662
2010-11-22,13.565833333333332
2010-11-23,10.48875
2010-11-24,13.536666666666664
2010-11-25,9.500416666666665
2010-11-26,3.646666666666666
2010-11-27,5.292916666666666
2010-11-28,9.537083333333333
2010-11-29,5.0983333333333345
2010-11-30,2.5308333333333333
2010-12-01,4.57625
2010-12-02,7.614583333333333
2010-12-03,8.968333333333332
2010-12-04,10.484166666666667
2010-12-05,10.477500000000001
2010-12-06,10.514583333333333
2010-12-07,11.913749999999999
2010-12-08,9.322500000000002
2010-12-09,8.934166666666668
2010-12-10,14.409999999999998
2010-12-11,14.897083333333333
2010-12-12,9.411666666666665
2010-12-13,8.912083333333333
2010-12-14,11.133750000000001
2010-12-15,15.597083333333332
2010-12-16,12.64666666666667
2010-12-17,11.970833333333333
2010-12-18,10.952083333333333
2010-12-19,13.102916666666665
2010-12-20,14.503749999999998
2010-12-21,14.634583333333333
2010-12-22,12.535833333333334
2010-12-23,10.117916666666668
2010-12-24,8.845416666666667
2010-12-25,8.046249999999999
2010-12-26,7.528333333333332
2010-12-27,8.304166666666665
2010-12-28,10.504999999999997
2010-12-29,10.266666666666666
2010-12-30,7.12
2010-12-31,-0.025416666666666605
