date,avg_temperature
2012-01-01,12.935833333333333
2012-01-02,11.122916666666669
2012-01-03,10.381250000000003
2012-01-04,11.805833333333334
2012-01-05,12.81
2012-01-06,12.560416666666667
2012-01-07,13.210416666666667
2012-01-08,13.878749999999997
2012-01-09,14.804583333333333
2012-01-10,14.470833333333333
2012-01-11,15.351250000000002
2012-01-12,14.453333333333335
2012-01-13,13.967916666666662
2012-01-14,13.241666666666667
2012-01-15,12.967083333333333
2012-01-16,13.877500000000003
2012-01-17,15.467083333333333
2012-01-18,15.338333333333333
2012-01-19,14.717083333333333
2012-01-20,14.929999999999998
2012-01-21,15.458749999999997
2012-01-22,15.944166666666662
2012-01-23,16.25833333333333
2012-01-24,15.956666666666665
2012-01-25,15.315833333333332
2012-01-26,14.652916666666664
2012-01-27,13.6425
2012-01-28,14.15208333333333
2012-01-29,11.598749999999997
2012-01-30,13.008333333333333
2012-01-31,13.192916666666664
2012-02-01,13.669999999999996
2012-02-02,12.98958333333333
2012-02-03,14.305416666666668
2012-02-04,15.652916666666664
2012-02-05,13.677083333333334
2012-02-06,11.740416666666667
2012-02-07,11.336666666666666
2012-02-08,12.27833333333333
2012-02-09,12.032916666666665
2012-02-10,10.944583333333334
2012-02-11,13.324583333333335
2012-02-12,14.693749999999996
2012-02-13,15.679583333333332
2012-02-14,16.328749999999996
2012-02-15,15.964166666666666
2012-02-16,16.129583333333333
2012-02-17,16.380000000000003
2012-02-18,16.775
2012-02-19,16.11125
2012-02-20,17.115
2012-02-21,17.02375
2012-02-22,17.166666666666664
2012-02-23,17.84666666666666
2012-02-24,16.615833333333335
2012-02-25,14.477916666666667
2012-02-26,14.689166666666665
2012-02-27,17.03333333333333
2012-02-28,17.729166666666668
2012-02-29,18.36541666666667
2012-03-01,18.9625
2012-03-02,19.249166666666667
2012-03-03,19.887916666666666
2012-03-04,15.589166666666666
2012-03-05,15.862083333333333
2012-03-06,15.909583333333336
2012-03-07,18.442916666666672
2012-03-08,19.654166666666665
2012-03-09,18.777083333333334
2012-03-10,16.3025
2012-03-11,16.321249999999996
2012-03-12,16.297916666666666
2012-03-13,16.881666666666664
2012-03-14,16.469583333333333
2012-03-15,16.03083333333333
2012-03-16,16.400416666666665
2012-03-17,17.477083333333333
2012-03-18,17.18583333333334
2012-03-19,18.01
2012-03-20,17.7775
2012-03-21,17.526666666666667
2012-03-22,17.978749999999998
2012-03-23,16.765833333333333
2012-03-24,16.230833333333333
2012-03-25,17.280833333333334
2012-03-26,17.201666666666664
2012-03-27,17.178749999999994
2012-03-28,16.345416666666665
2012-03-29,15.479166666666666
2012-03-30,16.728749999999998
2012-03-31,17.342916666666664
2012-04-01,17.557391304347824
2012-04-02,17.80666666666667
2012-04-03,18.807500000000005
2012-04-04,19.081666666666674
2012-04-05,19.196250000000003
2012-04-06,19.232499999999998
2012-04-07,18.50375
2012-04-08,17.728333333333335
2012-04-09,17.08875
2012-04-10,17.176666666666666
2012-04-11,18.294999999999995
2012-04-12,19.044583333333325
2012-04-13,17.905416666666664
2012-04-14,17.107916666666664
2012-04-15,18.601666666666663
2012-04-16,18.88958333333333
2012-04-17,16.08958333333333
2012-04-18,15.548749999999998
2012-04-19,17.442083333333333
2012-04-20,19.261666666666663
2012-04-21,18.369166666666665
2012-04-22,17.257499999999997
2012-04-23,15.372083333333334
2012-04-24,16.254166666666666
2012-04-25,17.81291666666667
2012-04-26,17.794999999999998
2012-04-27,19.823750000000004
2012-04-28,20.285
2012-04-29,21.937916666666666
2012-04-30,21.034166666666668
2012-05-01,21.592083333333335
2012-05-02,21.55708333333334
2012-05-03,20.863333333333333
2012-05-04,21.59833333333333
2012-05-05,19.401249999999994
2012-05-06,18.958333333333332
2012-05-07,19.713333333333335
2012-05-08,20.334583333333335
2012-05-09,18.638333333333332
2012-05-10,18.47041666666667
2012-05-11,19.944166666666664
2012-05-12,18.526249999999997
2012-05-13,16.482083333333332
2012-05-14,17.909166666666668
2012-05-15,19.172916666666662
2012-05-16,17.96791666666666
2012-05-17,17.930833333333336
2012-05-18,19.256250000000005
2012-05-19,19.532500000000006
2012-05-20,18.537499999999994
2012-05-21,16.524166666666662
2012-05-22,18.267916666666668
2012-05-23,20.360416666666666
2012-05-24,21.18416666666667
2012-05-25,21.166249999999998
2012-05-26,20.655416666666667
2012-05-27,21.03208333333333
2012-05-28,20.719166666666663
2012-05-29,20.667083333333334
2012-05-30,20.125833333333336
2012-05-31,21.56375
2012-06-01,20.51583333333334
2012-06-02,18.295416666666668
2012-06-03,18.62125
2012-06-04,18.365
2012-06-05,18.777083333333334
2012-06-06,19.157083333333333
2012-06-07,19.298333333333336
2012-06-08,19.48625
2012-06-09,20.860833333333336
2012-06-10,21.587500000000006
2012-06-11,21.181250000000002
2012-06-12,20.684166666666666
2012-06-13,19.517083333333332
2012-06-14,19.63416666666667
2012-06-15,19.073333333333334
2012-06-16,16.318749999999998
2012-06-17,15.619999999999997
2012-06-18,17.55458333333333
2012-06-19,16.98208333333333
2012-06-20,15.624999999999998
2012-06-21,16.70833333333333
2012-06-22,17.14458333333333
2012-06-23,17.720000000000002
2012-06-24,17.394583333333333
2012-06-25,18.427083333333332
2012-06-26,18.749166666666664
2012-06-27,18.917083333333334
2012-06-28,17.84208333333333
2012-06-29,18.277916666666663
2012-06-30,17.284583333333327
2012-07-01,16.02291666666666
2012-07-02,16.735
2012-07-03,16.09625
2012-07-04,16.78375
2012-07-05,16.83625
2012-07-06,16.654583333333335
2012-07-07,16.424166666666665
2012-07-08,18.480416666666667
2012-07-09,17.788333333333334
2012-07-10,17.267083333333332
2012-07-11,18.074583333333333
2012-07-12,18.09
2012-07-13,16.868749999999995
2012-07-14,15.207499999999998
2012-07-15,16.096956521739124
2012-07-16,16.289166666666663
2012-07-17,16.5525
2012-07-18,15.754583333333334
2012-07-19,17.438750000000002
2012-07-20,17.132499999999997
2012-07-21,17.5475
2012-07-22,17.04708333333333
2012-07-23,16.558333333333334
2012-07-24,17.144166666666663
2012-07-25,17.370833333333337
2012-07-26,17.502916666666668
2012-07-27,18.33791666666667
2012-07-28,17.029166666666665
2012-07-29,16.562499999999996
2012-07-30,17.774166666666666
2012-07-31,18.923749999999995
2012-08-01,18.286666666666665
2012-08-02,19.03708333333333
2012-08-03,18.493750000000002
2012-08-04,18.778750000000002
2012-08-05,18.371666666666663
2012-08-06,18.20333333333333
2012-08-07,18.459166666666665
2012-08-08,19.018333333333334
2012-08-09,16.78208333333333
2012-08-10,16.039999999999996
2012-08-11,16.677499999999995
2012-08-12,16.951249999999998
2012-08-13,17.072916666666664
2012-08-14,18.48782608695652
2012-08-15,18.898695652173913
2012-08-16,18.494166666666665
2012-08-17,16.99291666666667
2012-08-18,16.711666666666662
2012-08-19,16.926249999999996
2012-08-20,16.89625
2012-08-21,16.151666666666664
2012-08-22,16.84
2012-08-23,17.116249999999997
2012-08-24,16.793333333333333
2012-08-25,17.748749999999998
2012-08-26,17.143749999999994
2012-08-27,17.826666666666664
2012-08-28,18.500833333333333
2012-08-29,18.847499999999997
2012-08-30,18.70791666666666
2012-08-31,19.203750000000003
2012-09-01,17.663333333333338
2012-09-02,18.921666666666663
2012-09-03,18.904166666666658
2012-09-04,18.11
2012-09-05,18.918333333333333
2012-09-06,20.064999999999998
2012-09-07,19.272916666666667
2012-09-08,18.45208333333333
2012-09-09,17.911666666666665
2012-09-10,17.424999999999997
2012-09-11,18.2825
2012-09-12,17.03541666666666
2012-09-13,17.243333333333336
2012-09-14,17.559166666666666
2012-09-15,16.951666666666664
2012-09-16,16.752499999999994
2012-09-17,16.82833333333333
2012-09-18,17.950833333333332
2012-09-19,16.329583333333336
2012-09-20,16.569166666666668
2012-09-21,16.300833333333333
2012-09-22,17.497083333333332
2012-09-23,17.00166666666667
2012-09-24,17.17958333333333
2012-09-25,17.337500000000002
2012-09-26,17.250416666666666
2012-09-27,17.631249999999998
2012-09-28,18.701249999999998
2012-09-29,18.61166666666666
2012-09-30,17.401666666666664
2012-10-01,17.214166666666667
2012-10-02,16.688750000000002
2012-10-03,15.424166666666666
2012-10-04,15.706666666666665
2012-10-05,15.99
2012-10-06,17.149166666666666
2012-10-07,16.84875
2012-10-08,17.708750000000002
2012-10-09,17.05291666666666
2012-10-10,17.074166666666667
2012-10-11,18.065833333333327
2012-10-12,17.57791666666667
2012-10-13,17.740416666666665
2012-10-14,18.02125
2012-10-15,16.60083333333333
2012-10-16,16.71083333333333
2012-10-17,18.6675
2012-10-18,18.5825
2012-10-19,18.860833333333332
2012-10-20,17.93875
2012-10-21,16.755833333333335
2012-10-22,17.20958333333333
2012-10-23,18.152083333333334
2012-10-24,19.218749999999996
2012-10-25,17.78291666666667
2012-10-26,16.48541666666667
2012-10-27,17.02125
2012-10-28,16.4652
2012-10-29,16.11208333333333
2012-10-30,15.286666666666669
2012-10-31,14.866666666666667
2012-11-01,15.573750000000002
2012-11-02,14.066666666666668
2012-11-03,15.147083333333333
2012-11-04,14.832500000000001
2012-11-05,14.386666666666665
2012-11-06,14.982916666666666
2012-11-07,14.267916666666666
2012-11-08,13.918750000000001
2012-11-09,14.59541666666667
2012-11-10,15.296250000000002
2012-11-11,16.30666666666667
2012-11-12,15.809166666666668
2012-11-13,14.942083333333331
2012-11-14,14.424583333333336
2012-11-15,15.508333333333335
2012-11-16,14.219166666666666
2012-11-17,14.432083333333333
2012-11-18,15.454166666666666
2012-11-19,16.04875
2012-11-20,14.499166666666667
2012-11-21,13.747916666666667
2012-11-22,14.521666666666663
2012-11-23,14.77458333333333
2012-11-24,13.609166666666665
2012-11-25,13.453333333333335
2012-11-26,15.29166666666667
2012-11-27,14.547916666666666
2012-11-28,13.921666666666665
2012-11-29,15.37375
2012-11-30,16.0425
2012-12-01,15.358749999999999
2012-12-02,14.644583333333332
2012-12-03,15.16125
2012-12-04,14.543333333333335
2012-12-05,13.535000000000002
2012-12-06,13.375416666666668
2012-12-07,13.715416666666668
2012-12-08,13.630416666666664
2012-12-09,14.930000000000001
2012-12-10,15.83875
2012-12-11,16.605416666666663
2012-12-12,15.828333333333333
2012-12-13,14.817916666666667
2012-12-14,15.663749999999999
2012-12-15,16.319999999999997
2012-12-16,16.87333333333334
2012-12-17,16.06833333333333
2012-12-18,15.503333333333332
2012-12-19,16.34958333333333
2012-12-20,14.42291666666666
2012-12-21,12.863749999999996
2012-12-22,12.4675
2012-12-23,14.605000000000002
2012-12-24,15.347083333333336
2012-12-25,15.496666666666663
2012-12-26,14.5075
2012-12-27,14.938749999999999
2012-12-28,15.462083333333332
2012-12-29,13.586666666666666
2012-12-30,13.238749999999998
2012-12-31,14.70875
