date,avg_temperature,min_temperature,max_temperature,humidity,sunrise_time,sunset_time,time_zone,gmt_zone
2018-01-01,2.7554166666666666,-0.97,8.66,0.93,07:28:00,18:03:00,America/Monterrey, GMT-06
2018-01-02,0.98375,-1.06,5.18,0.94,07:29:00,18:04:00,America/Monterrey, GMT-06
2018-01-03,4.055833333333333,0.23,10.05,0.79,07:29:00,18:05:00,America/Monterrey, GMT-06
2018-01-04,7.077500000000001,0.32,14.08,0.64,07:29:00,18:05:00,America/Monterrey, GMT-06
2018-01-05,9.712500000000002,5.32,15.97,0.73,07:29:00,18:06:00,America/Monterrey, GMT-06
2018-01-06,12.028333333333334,4.7,20.02,0.77,07:30:00,18:07:00,America/Monterrey, GMT-06
2018-01-07,14.259166666666664,8.52,21.37,0.78,07:30:00,18:07:00,America/Monterrey, GMT-06
2018-01-08,15.985833333333332,12.27,22.91,0.59,07:30:00,18:08:00,America/Monterrey, GMT-06
2018-01-09,14.433749999999998,6.98,22.01,0.58,07:30:00,18:09:00,America/Monterrey, GMT-06
2018-01-10,15.185416666666667,7.24,24.38,0.63,07:30:00,18:10:00,America/Monterrey, GMT-06
2018-01-11,18.19875,11.62,25.45,0.46,07:30:00,18:10:00,America/Monterrey, GMT-06
2018-01-12,11.997916666666667,7.16,17.61,0.4,07:30:00,18:11:00,America/Monterrey, GMT-06
2018-01-13,9.672083333333335,3.84,14.23,0.53,07:30:00,18:12:00,America/Monterrey, GMT-06
2018-01-14,9.534166666666666,4.34,15.85,0.76,07:30:00,18:13:00,America/Monterrey, GMT-06
2018-01-15,12.025,5.19,19.63,0.74,07:30:00,18:13:00,America/Monterrey, GMT-06
2018-01-16,4.627916666666667,-2.03,12.64,0.91,07:30:00,18:14:00,America/Monterrey, GMT-06
2018-01-17,-0.6375000000000001,-2.48,1.7,0.91,07:30:00,18:15:00,America/Monterrey, GMT-06
2018-01-18,1.6883333333333337,-1.48,6.23,0.92,07:30:00,18:16:00,America/Monterrey, GMT-06
2018-01-19,9.457083333333332,2.5,18.71,0.76,07:30:00,18:16:00,America/Monterrey, GMT-06
2018-01-20,13.721666666666666,4.84,24.04,0.67,07:30:00,18:17:00,America/Monterrey, GMT-06
2018-01-21,17.341666666666665,11.95,26.89,0.66,07:29:00,18:18:00,America/Monterrey, GMT-06
2018-01-22,15.007500000000002,9.85,18.32,0.47,07:29:00,18:19:00,America/Monterrey, GMT-06
2018-01-23,11.454583333333332,6.82,16.68,0.49,07:29:00,18:19:00,America/Monterrey, GMT-06
2018-01-24,11.99708333333333,7.68,16.2,0.58,07:29:00,18:20:00,America/Monterrey, GMT-06
2018-01-25,9.842083333333331,8.35,11.59,0.79,07:29:00,18:21:00,America/Monterrey, GMT-06
2018-01-26,12.550416666666665,9.08,16.67,0.88,07:28:00,18:22:00,America/Monterrey, GMT-06
2018-01-27,15.750833333333333,13.17,19.5,0.84,07:28:00,18:23:00,America/Monterrey, GMT-06
2018-01-28,14.234583333333335,12.21,16.52,0.89,07:28:00,18:23:00,America/Monterrey, GMT-06
2018-01-29,14.47375,11.69,18.57,0.69,07:27:00,18:24:00,America/Monterrey, GMT-06
2018-01-30,12.660833333333334,6.15,18.86,0.43,07:27:00,18:25:00,America/Monterrey, GMT-06
2018-01-31,13.447916666666664,8.33,20.37,0.6,07:27:00,18:26:00,America/Monterrey, GMT-06
2018-02-01,18.576249999999998,9.45,28.15,0.5,07:26:00,18:26:00,America/Monterrey, GMT-06
2018-02-02,14.74458333333333,11.7,20.82,0.52,07:26:00,18:27:00,America/Monterrey, GMT-06
2018-02-03,13.417499999999999,7.64,18.04,0.67,07:25:00,18:28:00,America/Monterrey, GMT-06
2018-02-04,20.459583333333338,15.15,26.89,0.51,07:25:00,18:29:00,America/Monterrey, GMT-06
2018-02-05,16.472499999999997,14.14,18.96,0.81,07:24:00,18:29:00,America/Monterrey, GMT-06
2018-02-06,17.8875,14.37,23.1,0.84,07:24:00,18:30:00,America/Monterrey, GMT-06
2018-02-07,14.847083333333332,9.78,20.39,0.86,07:23:00,18:31:00,America/Monterrey, GMT-06
2018-02-08,10.410000000000002,8.41,13.07,0.78,07:23:00,18:31:00,America/Monterrey, GMT-06
2018-02-09,12.715416666666668,9.31,17.51,0.78,07:22:00,18:32:00,America/Monterrey, GMT-06
2018-02-10,19.12125,11.67,28.63,0.64,07:21:00,18:33:00,America/Monterrey, GMT-06
2018-02-11,15.870833333333337,8.21,27.63,0.67,07:21:00,18:33:00,America/Monterrey, GMT-06
2018-02-12,7.312916666666667,6.29,8.57,0.93,07:20:00,18:34:00,America/Monterrey, GMT-06
2018-02-13,10.005416666666667,6.22,14.42,0.93,07:19:00,18:35:00,America/Monterrey, GMT-06
2018-02-14,14.816250000000002,11.12,21.96,0.89,07:19:00,18:35:00,America/Monterrey, GMT-06
2018-02-15,18.594166666666666,12.48,27.35,0.79,07:18:00,18:36:00,America/Monterrey, GMT-06
2018-02-16,21.409166666666668,15.56,28.08,0.7,07:17:00,18:37:00,America/Monterrey, GMT-06
2018-02-17,21.283333333333335,16.64,26.8,0.79,07:16:00,18:37:00,America/Monterrey, GMT-06
2018-02-18,21.0075,16.96,26.59,0.76,07:16:00,18:38:00,America/Monterrey, GMT-06
2018-02-19,21.39375,17.44,26.13,0.74,07:15:00,18:39:00,America/Monterrey, GMT-06
2018-02-20,20.752916666666668,17.1,25.41,0.8,07:14:00,18:39:00,America/Monterrey, GMT-06
2018-02-21,20.667500000000004,15.22,28.16,0.73,07:13:00,18:40:00,America/Monterrey, GMT-06
2018-02-22,11.853749999999998,8.3,14.82,0.95,07:12:00,18:40:00,America/Monterrey, GMT-06
2018-02-23,15.951666666666668,11.44,23.33,0.94,07:12:00,18:41:00,America/Monterrey, GMT-06
2018-02-24,21.550833333333333,15.82,28.48,0.82,07:11:00,18:42:00,America/Monterrey, GMT-06
2018-02-25,20.91875,18.04,24.1,0.85,07:10:00,18:42:00,America/Monterrey, GMT-06
2018-02-26,18.080416666666668,15.78,20.45,0.95,07:09:00,18:43:00,America/Monterrey, GMT-06
2018-02-27,19.544583333333335,15.23,25.37,0.9,07:08:00,18:43:00,America/Monterrey, GMT-06
2018-02-28,23.13791666666666,17.17,30.29,0.76,07:07:00,18:44:00,America/Monterrey, GMT-06
2018-03-01,20.934583333333332,15.98,24.46,0.46,07:06:00,18:44:00,America/Monterrey, GMT-06
2018-03-02,16.941666666666663,10.93,22.09,0.53,07:05:00,18:45:00,America/Monterrey, GMT-06
2018-03-03,19.46125,14.1,24.19,0.75,07:04:00,18:45:00,America/Monterrey, GMT-06
2018-03-04,21.104583333333338,16.87,26.73,0.78,07:03:00,18:46:00,America/Monterrey, GMT-06
2018-03-05,23.382083333333338,17.8,29.69,0.72,07:02:00,18:46:00,America/Monterrey, GMT-06
2018-03-06,18.754166666666666,13.29,23.83,0.61,07:02:00,18:47:00,America/Monterrey, GMT-06
2018-03-07,15.635,13.25,18.75,0.5,07:01:00,18:47:00,America/Monterrey, GMT-06
2018-03-08,13.654583333333333,9.33,17.17,0.69,07:00:00,18:48:00,America/Monterrey, GMT-06
2018-03-09,17.709583333333335,12.28,24.26,0.77,06:59:00,18:48:00,America/Monterrey, GMT-06
2018-03-10,22.820833333333336,14.96,32.45,0.68,06:58:00,18:49:00,America/Monterrey, GMT-06
2018-03-11,23.375416666666666,16.14,31.34,0.55,06:56:00,18:49:00,America/Monterrey, GMT-06
2018-03-12,14.73625,12.65,16.57,0.44,06:55:00,18:50:00,America/Monterrey, GMT-06
2018-03-13,14.599583333333333,8.69,19.39,0.5,06:54:00,18:50:00,America/Monterrey, GMT-06
2018-03-14,12.890833333333335,11.07,14.83,0.89,06:53:00,18:51:00,America/Monterrey, GMT-06
2018-03-15,15.893333333333336,11.93,22.02,0.86,06:52:00,18:51:00,America/Monterrey, GMT-06
2018-03-16,22.787499999999998,13.39,31.73,0.55,06:51:00,18:52:00,America/Monterrey, GMT-06
2018-03-17,24.93041666666667,16.42,33.29,0.5,06:50:00,18:52:00,America/Monterrey, GMT-06
2018-03-18,26.439583333333342,16.94,34.93,0.41,06:49:00,18:53:00,America/Monterrey, GMT-06
2018-03-19,24.844583333333336,18.29,29.88,0.34,06:48:00,18:53:00,America/Monterrey, GMT-06
2018-03-20,19.604583333333334,14.47,23.3,0.44,06:47:00,18:53:00,America/Monterrey, GMT-06
2018-03-21,17.90083333333333,12.5,23.7,0.72,06:46:00,18:54:00,America/Monterrey, GMT-06
2018-03-22,18.757916666666667,15.89,21.93,0.81,06:45:00,18:54:00,America/Monterrey, GMT-06
2018-03-23,21.59333333333333,16.99,28.22,0.76,06:44:00,18:55:00,America/Monterrey, GMT-06
2018-03-24,23.345,16.93,29.97,0.74,06:43:00,18:55:00,America/Monterrey, GMT-06
2018-03-25,25.490833333333338,18.68,32.18,0.67,06:42:00,18:56:00,America/Monterrey, GMT-06
2018-03-26,23.670833333333338,17.72,29.82,0.72,06:41:00,18:56:00,America/Monterrey, GMT-06
2018-03-27,24.346666666666664,19.13,30.37,0.7,06:40:00,18:57:00,America/Monterrey, GMT-06
2018-03-28,23.33791666666667,20.67,27.45,0.79,06:39:00,18:57:00,America/Monterrey, GMT-06
2018-03-29,23.167499999999993,17.64,29.3,0.47,06:37:00,18:57:00,America/Monterrey, GMT-06
2018-03-30,21.43625,14.24,27.57,0.39,06:36:00,18:58:00,America/Monterrey, GMT-06
2018-03-31,20.321666666666665,13.06,28.4,0.57,06:35:00,18:58:00,America/Monterrey, GMT-06
2018-04-01,22.82260869565217,15.03,30.99,0.61,06:34:00,19:59:00,America/Monterrey, GMT-05
2018-04-02,24.124166666666667,17.43,32.15,0.67,07:33:00,19:59:00,America/Monterrey, GMT-05
2018-04-03,24.228750000000005,18.41,30.38,0.67,07:32:00,20:00:00,America/Monterrey, GMT-05
2018-04-04,17.54875,12.11,22.51,0.75,07:31:00,20:00:00,America/Monterrey, GMT-05
2018-04-05,17.159583333333334,12.02,24.66,0.8,07:30:00,20:01:00,America/Monterrey, GMT-05
2018-04-06,23.02291666666667,15.38,31.82,0.69,07:29:00,20:01:00,America/Monterrey, GMT-05
2018-04-07,22.16125,17.45,26.15,0.63,07:28:00,20:01:00,America/Monterrey, GMT-05
2018-04-08,18.71291666666666,13.66,25.18,0.65,07:27:00,20:02:00,America/Monterrey, GMT-05
2018-04-09,21.196666666666662,14.71,27.93,0.68,07:26:00,20:02:00,America/Monterrey, GMT-05
2018-04-10,16.99083333333333,14.57,21.73,0.89,07:25:00,20:03:00,America/Monterrey, GMT-05
2018-04-11,16.639166666666664,13.76,19.94,0.88,07:24:00,20:03:00,America/Monterrey, GMT-05
2018-04-12,22.384166666666662,13.68,31.03,0.7,07:23:00,20:04:00,America/Monterrey, GMT-05
2018-04-13,27.346666666666668,17.55,37.03,0.43,07:22:00,20:04:00,America/Monterrey, GMT-05
2018-04-14,21.491250000000004,17.27,24.82,0.17,07:21:00,20:05:00,America/Monterrey, GMT-05
2018-04-15,19.34375,10.22,26.58,0.25,07:20:00,20:05:00,America/Monterrey, GMT-05
2018-04-16,20.537916666666664,12.89,29.8,0.37,07:19:00,20:06:00,America/Monterrey, GMT-05
2018-04-17,22.62,13.93,32.06,0.57,07:18:00,20:06:00,America/Monterrey, GMT-05
2018-04-18,24.304583333333337,17.09,32.12,0.66,07:17:00,20:07:00,America/Monterrey, GMT-05
2018-04-19,19.56291666666667,16.97,24.72,0.95,07:16:00,20:07:00,America/Monterrey, GMT-05
2018-04-20,19.544999999999998,16.29,24.22,0.91,07:15:00,20:08:00,America/Monterrey, GMT-05
2018-04-21,21.52416666666667,16.83,27.23,0.81,07:15:00,20:08:00,America/Monterrey, GMT-05
2018-04-22,22.618750000000002,19.73,25.98,0.72,07:14:00,20:09:00,America/Monterrey, GMT-05
2018-04-23,18.58958333333333,16.53,21.42,0.95,07:13:00,20:09:00,America/Monterrey, GMT-05
2018-04-24,20.951249999999998,17.19,25.03,0.9,07:12:00,20:10:00,America/Monterrey, GMT-05
2018-04-25,21.48541666666667,17.49,26.14,0.86,07:11:00,20:10:00,America/Monterrey, GMT-05
2018-04-26,18.548750000000002,14.69,23.7,0.82,07:10:00,20:11:00,America/Monterrey, GMT-05
2018-04-27,20.270833333333332,16.53,25.98,0.79,07:09:00,20:11:00,America/Monterrey, GMT-05
2018-04-28,17.849166666666665,13.94,21.27,0.89,07:09:00,20:12:00,America/Monterrey, GMT-05
2018-04-29,17.52375,15.11,20.12,0.91,07:08:00,20:12:00,America/Monterrey, GMT-05
2018-04-30,20.537499999999998,16.54,26.44,0.87,07:07:00,20:13:00,America/Monterrey, GMT-05
2018-05-01,24.175416666666663,18.96,30.88,0.78,07:06:00,20:13:00,America/Monterrey, GMT-05
2018-05-02,25.80791666666667,21.15,31.96,0.78,07:06:00,20:14:00,America/Monterrey, GMT-05
2018-05-03,25.72125,22.39,30.37,0.77,07:05:00,20:14:00,America/Monterrey, GMT-05
2018-05-04,22.781250000000004,19.54,26.6,0.87,07:04:00,20:15:00,America/Monterrey, GMT-05
2018-05-05,19.184166666666666,17.78,20.83,0.95,07:04:00,20:15:00,America/Monterrey, GMT-05
2018-05-06,22.670833333333334,17.65,28.94,0.78,07:03:00,20:16:00,America/Monterrey, GMT-05
2018-05-07,22.06583333333333,17.45,27.32,0.77,07:02:00,20:16:00,America/Monterrey, GMT-05
2018-05-08,22.35625,14.03,30.47,0.64,07:02:00,20:17:00,America/Monterrey, GMT-05
2018-05-09,22.23375,15.95,29.28,0.72,07:01:00,20:17:00,America/Monterrey, GMT-05
2018-05-10,23.040000000000003,17.99,28.12,0.73,07:00:00,20:18:00,America/Monterrey, GMT-05
2018-05-11,22.901249999999994,17.03,30.35,0.74,07:00:00,20:19:00,America/Monterrey, GMT-05
2018-05-12,23.3625,17.41,29.1,0.79,06:59:00,20:19:00,America/Monterrey, GMT-05
2018-05-13,25.372083333333332,21.42,30.03,0.78,06:59:00,20:20:00,America/Monterrey, GMT-05
2018-05-14,24.989583333333332,21.24,29.84,0.83,06:58:00,20:20:00,America/Monterrey, GMT-05
2018-05-15,25.643333333333334,20.38,31.14,0.75,06:58:00,20:21:00,America/Monterrey, GMT-05
2018-05-16,26.401666666666667,21.7,32.5,0.72,06:57:00,20:21:00,America/Monterrey, GMT-05
2018-05-17,26.74166666666667,20.15,33.54,0.68,06:57:00,20:22:00,America/Monterrey, GMT-05
2018-05-18,25.745416666666667,19.05,32.05,0.64,06:56:00,20:22:00,America/Monterrey, GMT-05
2018-05-19,24.738333333333333,19.53,30.45,0.66,06:56:00,20:23:00,America/Monterrey, GMT-05
2018-05-20,24.086249999999996,20.9,28.05,0.81,06:55:00,20:23:00,America/Monterrey, GMT-05
2018-05-21,23.404583333333335,19.09,27.13,0.76,06:55:00,20:24:00,America/Monterrey, GMT-05
2018-05-22,23.79375,20.79,28.11,0.83,06:54:00,20:24:00,America/Monterrey, GMT-05
2018-05-23,22.935000000000002,19.96,26.59,0.89,06:54:00,20:25:00,America/Monterrey, GMT-05
2018-05-24,25.185,20.82,31.21,0.77,06:54:00,20:25:00,America/Monterrey, GMT-05
2018-05-25,26.70041666666667,19.86,33.94,0.68,06:53:00,20:26:00,America/Monterrey, GMT-05
2018-05-26,27.885833333333334,18.92,36.06,0.58,06:53:00,20:27:00,America/Monterrey, GMT-05
2018-05-27,28.092916666666664,19.03,36.62,0.47,06:53:00,20:27:00,America/Monterrey, GMT-05
2018-05-28,27.974999999999998,19.2,36.34,0.49,06:53:00,20:28:00,America/Monterrey, GMT-05
2018-05-29,27.14333333333333,20.25,34.86,0.59,06:52:00,20:28:00,America/Monterrey, GMT-05
2018-05-30,26.66791666666667,20.88,33.23,0.68,06:52:00,20:28:00,America/Monterrey, GMT-05
2018-05-31,27.377083333333335,22.61,33.73,0.66,06:52:00,20:29:00,America/Monterrey, GMT-05
2018-06-01,27.93624999999999,20.66,35.72,0.59,06:52:00,20:29:00,America/Monterrey, GMT-05
2018-06-02,28.63916666666667,22.13,36.63,0.55,06:52:00,20:30:00,America/Monterrey, GMT-05
2018-06-03,28.657500000000002,21.78,35.98,0.5,06:51:00,20:30:00,America/Monterrey, GMT-05
2018-06-04,28.35875,20.18,35.87,0.52,06:51:00,20:31:00,America/Monterrey, GMT-05
2018-06-05,28.84541666666667,19.32,37.59,0.48,06:51:00,20:31:00,America/Monterrey, GMT-05
2018-06-06,29.106956521739136,20.13,37.58,0.43,06:51:00,20:32:00,America/Monterrey, GMT-05
2018-06-07,27.690833333333334,21.46,34.66,0.62,06:51:00,20:32:00,America/Monterrey, GMT-05
2018-06-08,27.7925,22.81,34.77,0.61,06:51:00,20:32:00,America/Monterrey, GMT-05
2018-06-09,27.075,21.46,33.57,0.62,06:51:00,20:33:00,America/Monterrey, GMT-05
2018-06-10,27.0025,20.02,35.39,0.6,06:51:00,20:33:00,America/Monterrey, GMT-05
2018-06-11,27.600833333333338,22.79,32.52,0.6,06:51:00,20:34:00,America/Monterrey, GMT-05
2018-06-12,26.565416666666664,21.4,32.68,0.66,06:51:00,20:34:00,America/Monterrey, GMT-05
2018-06-13,26.092916666666667,20.52,32.62,0.65,06:51:00,20:34:00,America/Monterrey, GMT-05
2018-06-14,25.70583333333334,18.83,32.49,0.64,06:51:00,20:34:00,America/Monterrey, GMT-05
2018-06-15,26.907500000000002,20.46,33.62,0.65,06:51:00,20:35:00,America/Monterrey, GMT-05
2018-06-16,26.875416666666663,22.21,33.04,0.69,06:51:00,20:35:00,America/Monterrey, GMT-05
2018-06-17,26.793333333333337,22.2,33.38,0.69,06:51:00,20:35:00,America/Monterrey, GMT-05
2018-06-18,26.147083333333338,20.57,33.2,0.7,06:52:00,20:36:00,America/Monterrey, GMT-05
2018-06-19,26.378750000000007,21.27,33.01,0.71,06:52:00,20:36:00,America/Monterrey, GMT-05
2018-06-20,25.51041666666667,21.8,30.56,0.78,06:52:00,20:36:00,America/Monterrey, GMT-05
2018-06-21,21.710000000000004,19.94,23.97,0.99,06:52:00,20:36:00,America/Monterrey, GMT-05
2018-06-22,23.84,20.16,28.06,0.86,06:52:00,20:36:00,America/Monterrey, GMT-05
2018-06-23,27.44130434782609,21.83,34.71,0.73,06:52:00,20:37:00,America/Monterrey, GMT-05
2018-06-24,26.49478260869565,21.81,32.52,0.72,06:53:00,20:37:00,America/Monterrey, GMT-05
2018-06-25,25.324166666666667,22.08,30.94,0.84,06:53:00,20:37:00,America/Monterrey, GMT-05
2018-06-26,25.134999999999994,20.67,30.92,0.75,06:53:00,20:37:00,America/Monterrey, GMT-05
2018-06-27,26.223333333333333,21.16,32.66,0.72,06:54:00,20:37:00,America/Monterrey, GMT-05
2018-06-28,27.124782608695654,21.79,33.76,0.68,06:54:00,20:37:00,America/Monterrey, GMT-05
2018-06-29,27.421666666666663,20.91,34.38,0.67,06:54:00,20:37:00,America/Monterrey, GMT-05
2018-06-30,28.038750000000004,20.73,35.09,0.62,06:54:00,20:37:00,America/Monterrey, GMT-05
2018-07-01,28.233333333333334,22.18,34.65,0.63,06:55:00,20:37:00,America/Monterrey, GMT-05
2018-07-02,27.937083333333337,21.97,34.91,0.6,06:55:00,20:37:00,America/Monterrey, GMT-05
2018-07-03,27.788749999999997,22.01,34.94,0.62,06:55:00,20:37:00,America/Monterrey, GMT-05
2018-07-04,27.623750000000005,21.72,34.66,0.64,06:56:00,20:37:00,America/Monterrey, GMT-05
2018-07-05,25.464999999999993,21.88,30.23,0.71,06:56:00,20:37:00,America/Monterrey, GMT-05
2018-07-06,25.25375,19.4,31.86,0.7,06:57:00,20:37:00,America/Monterrey, GMT-05
2018-07-07,22.986666666666668,19.86,28.79,0.82,06:57:00,20:37:00,America/Monterrey, GMT-05
2018-07-08,23.360833333333336,19.44,29.83,0.81,06:57:00,20:37:00,America/Monterrey, GMT-05
2018-07-09,25.057916666666667,20.56,32.66,0.73,06:58:00,20:37:00,America/Monterrey, GMT-05
2018-07-10,25.459999999999994,18.32,32.2,0.67,06:58:00,20:37:00,America/Monterrey, GMT-05
2018-07-11,25.830833333333334,18.65,33.94,0.65,06:59:00,20:37:00,America/Monterrey, GMT-05
2018-07-12,27.007500000000004,18.85,35.03,0.6,06:59:00,20:36:00,America/Monterrey, GMT-05
2018-07-13,27.022499999999994,21.35,32.85,0.59,06:59:00,20:36:00,America/Monterrey, GMT-05
2018-07-14,27.131666666666664,21.47,32.88,0.64,07:00:00,20:36:00,America/Monterrey, GMT-05
2018-07-15,27.858333333333334,20.02,36.17,0.59,07:00:00,20:36:00,America/Monterrey, GMT-05
2018-07-16,27.915833333333328,20.23,35.28,0.56,07:01:00,20:35:00,America/Monterrey, GMT-05
2018-07-17,28.453181818181825,21.02,35.58,0.53,07:01:00,20:35:00,America/Monterrey, GMT-05
2018-07-18,28.90913043478261,20.25,36.9,0.54,07:02:00,20:35:00,America/Monterrey, GMT-05
2018-07-19,28.792499999999993,20.05,36.39,0.5,07:02:00,20:34:00,America/Monterrey, GMT-05
2018-07-20,28.593913043478263,20.05,36.68,0.49,07:03:00,20:34:00,America/Monterrey, GMT-05
2018-07-21,28.696956521739136,22.57,36.35,0.57,07:03:00,20:34:00,America/Monterrey, GMT-05
2018-07-22,29.11130434782609,19.93,37.61,0.49,07:04:00,20:33:00,America/Monterrey, GMT-05
2018-07-23,30.235833333333332,20.92,39.14,0.43,07:04:00,20:33:00,America/Monterrey, GMT-05
2018-07-24,31.376086956521743,22.48,38.88,0.37,07:05:00,20:32:00,America/Monterrey, GMT-05
2018-07-25,28.906956521739136,23.73,35.13,0.5,07:05:00,20:32:00,America/Monterrey, GMT-05
2018-07-26,28.44,22.55,34.57,0.58,07:06:00,20:31:00,America/Monterrey, GMT-05
2018-07-27,28.770000000000007,23.75,34.14,0.64,07:06:00,20:31:00,America/Monterrey, GMT-05
2018-07-28,28.800833333333333,21.67,36.63,0.59,07:07:00,20:30:00,America/Monterrey, GMT-05
2018-07-29,29.385000000000005,21.87,37.27,0.57,07:07:00,20:30:00,America/Monterrey, GMT-05
2018-07-30,29.662916666666675,21.89,37.57,0.58,07:08:00,20:29:00,America/Monterrey, GMT-05
2018-07-31,28.297083333333333,22.51,33.52,0.59,07:08:00,20:29:00,America/Monterrey, GMT-05
2018-08-01,27.500416666666666,20.86,35.63,0.63,07:09:00,20:28:00,America/Monterrey, GMT-05
2018-08-02,27.39708333333333,19.29,35.86,0.52,07:09:00,20:28:00,America/Monterrey, GMT-05
2018-08-03,27.0175,18.95,35.02,0.53,07:10:00,20:27:00,America/Monterrey, GMT-05
2018-08-04,27.085416666666664,20.79,34.32,0.55,07:10:00,20:26:00,America/Monterrey, GMT-05
2018-08-05,24.026666666666667,19.98,28.99,0.67,07:11:00,20:26:00,America/Monterrey, GMT-05
2018-08-06,26.52625,20.86,33.66,0.58,07:11:00,20:25:00,America/Monterrey, GMT-05
2018-08-07,27.90541666666667,21.68,35.19,0.56,07:12:00,20:24:00,America/Monterrey, GMT-05
2018-08-08,28.09375,21.06,36.01,0.54,07:12:00,20:24:00,America/Monterrey, GMT-05
2018-08-09,27.232083333333332,22.0,32.5,0.59,07:13:00,20:23:00,America/Monterrey, GMT-05
2018-08-10,27.970833333333335,21.79,35.33,0.58,07:13:00,20:22:00,America/Monterrey, GMT-05
2018-08-11,26.417083333333334,20.89,33.83,0.66,07:14:00,20:21:00,America/Monterrey, GMT-05
2018-08-12,25.53583333333334,22.51,31.03,0.72,07:14:00,20:20:00,America/Monterrey, GMT-05
2018-08-13,26.533749999999998,21.76,33.34,0.69,07:15:00,20:20:00,America/Monterrey, GMT-05
2018-08-14,27.99291666666667,21.54,36.13,0.56,07:15:00,20:19:00,America/Monterrey, GMT-05
2018-08-15,28.225833333333327,19.81,36.62,0.58,07:15:00,20:18:00,America/Monterrey, GMT-05
2018-08-16,28.732083333333335,21.29,36.73,0.59,07:16:00,20:17:00,America/Monterrey, GMT-05
2018-08-17,28.900833333333328,22.26,37.23,0.51,07:16:00,20:16:00,America/Monterrey, GMT-05
2018-08-18,29.122083333333336,20.91,36.54,0.56,07:17:00,20:15:00,America/Monterrey, GMT-05
2018-08-19,29.175416666666667,20.98,38.23,0.56,07:17:00,20:15:00,America/Monterrey, GMT-05
2018-08-20,28.83875,22.63,36.66,0.58,07:18:00,20:14:00,America/Monterrey, GMT-05
2018-08-21,28.77304347826086,22.2,35.97,0.55,07:18:00,20:13:00,America/Monterrey, GMT-05
2018-08-22,28.375416666666666,20.01,36.72,0.54,07:19:00,20:12:00,America/Monterrey, GMT-05
2018-08-23,28.623750000000005,19.75,36.33,0.51,07:19:00,20:11:00,America/Monterrey, GMT-05
2018-08-24,28.9675,21.57,36.72,0.53,07:19:00,20:10:00,America/Monterrey, GMT-05
2018-08-25,28.357916666666668,20.98,35.83,0.55,07:20:00,20:09:00,America/Monterrey, GMT-05
2018-08-26,28.620833333333334,23.04,35.97,0.56,07:20:00,20:08:00,America/Monterrey, GMT-05
2018-08-27,28.603333333333328,21.62,36.9,0.55,07:21:00,20:07:00,America/Monterrey, GMT-05
2018-08-28,28.313333333333336,22.02,35.49,0.53,07:21:00,20:06:00,America/Monterrey, GMT-05
2018-08-29,27.63916666666667,20.33,34.5,0.57,07:22:00,20:05:00,America/Monterrey, GMT-05
2018-08-30,28.02875,22.7,35.5,0.56,07:22:00,20:04:00,America/Monterrey, GMT-05
2018-08-31,27.88173913043478,21.74,34.6,0.58,07:22:00,20:03:00,America/Monterrey, GMT-05
2018-09-01,27.200434782608696,20.56,33.95,0.68,07:23:00,20:02:00,America/Monterrey, GMT-05
2018-09-02,25.94458333333333,21.62,35.18,0.73,07:23:00,20:01:00,America/Monterrey, GMT-05
2018-09-03,25.94173913043478,21.53,33.08,0.72,07:24:00,20:00:00,America/Monterrey, GMT-05
2018-09-04,25.485833333333336,21.4,31.34,0.78,07:24:00,19:59:00,America/Monterrey, GMT-05
2018-09-05,26.4375,20.91,33.46,0.71,07:24:00,19:58:00,America/Monterrey, GMT-05
2018-09-06,25.157499999999995,20.88,31.15,0.77,07:25:00,19:57:00,America/Monterrey, GMT-05
2018-09-07,24.94083333333333,21.04,31.2,0.78,07:25:00,19:56:00,America/Monterrey, GMT-05
2018-09-08,25.2075,20.98,30.8,0.77,07:25:00,19:54:00,America/Monterrey, GMT-05
2018-09-09,22.173750000000002,19.97,25.38,0.95,07:26:00,19:53:00,America/Monterrey, GMT-05
2018-09-10,22.913750000000004,20.07,28.59,0.87,07:26:00,19:52:00,America/Monterrey, GMT-05
2018-09-11,23.56833333333333,20.54,27.38,0.84,07:27:00,19:51:00,America/Monterrey, GMT-05
2018-09-12,24.59541666666666,21.31,30.91,0.74,07:27:00,19:50:00,America/Monterrey, GMT-05
2018-09-13,24.66916666666666,19.54,30.26,0.78,07:27:00,19:49:00,America/Monterrey, GMT-05
2018-09-14,24.837083333333336,21.0,30.2,0.79,07:28:00,19:48:00,America/Monterrey, GMT-05
2018-09-15,24.26833333333333,20.39,29.49,0.89,07:28:00,19:47:00,America/Monterrey, GMT-05
2018-09-16,23.88166666666667,21.05,28.16,0.93,07:28:00,19:46:00,America/Monterrey, GMT-05
2018-09-17,23.967916666666667,21.39,27.52,0.94,07:29:00,19:45:00,America/Monterrey, GMT-05
2018-09-18,24.553749999999997,20.48,29.35,0.8,07:29:00,19:43:00,America/Monterrey, GMT-05
2018-09-19,23.621250000000003,21.07,26.13,0.89,07:30:00,19:42:00,America/Monterrey, GMT-05
2018-09-20,24.93833333333333,21.11,30.3,0.81,07:30:00,19:41:00,America/Monterrey, GMT-05
2018-09-21,26.049166666666668,21.38,32.56,0.78,07:30:00,19:40:00,America/Monterrey, GMT-05
2018-09-22,23.396666666666665,20.71,26.5,0.89,07:31:00,19:39:00,America/Monterrey, GMT-05
2018-09-23,22.533749999999998,19.8,26.49,0.85,07:31:00,19:38:00,America/Monterrey, GMT-05
2018-09-24,24.466250000000002,20.05,30.17,0.79,07:31:00,19:37:00,America/Monterrey, GMT-05
2018-09-25,25.197916666666668,20.05,32.45,0.78,07:32:00,19:36:00,America/Monterrey, GMT-05
2018-09-26,25.160833333333333,19.97,30.47,0.81,07:32:00,19:35:00,America/Monterrey, GMT-05
2018-09-27,21.678749999999997,19.04,25.63,0.9,07:33:00,19:33:00,America/Monterrey, GMT-05
2018-09-28,21.554583333333326,18.68,24.95,0.91,07:33:00,19:32:00,America/Monterrey, GMT-05
2018-09-29,21.930833333333336,19.05,26.73,0.91,07:33:00,19:31:00,America/Monterrey, GMT-05
2018-09-30,21.90625,18.74,25.78,0.89,07:34:00,19:30:00,America/Monterrey, GMT-05
2018-10-01,23.07416666666667,20.06,28.73,0.88,07:34:00,19:29:00,America/Monterrey, GMT-05
2018-10-02,23.998333333333324,20.17,29.37,0.86,07:35:00,19:28:00,America/Monterrey, GMT-05
2018-10-03,23.66291666666667,19.27,29.1,0.82,07:35:00,19:27:00,America/Monterrey, GMT-05
2018-10-04,24.084999999999997,19.83,29.29,0.79,07:35:00,19:26:00,America/Monterrey, GMT-05
2018-10-05,24.082916666666662,19.61,29.34,0.79,07:36:00,19:25:00,America/Monterrey, GMT-05
2018-10-06,24.102083333333336,19.84,28.45,0.8,07:36:00,19:24:00,America/Monterrey, GMT-05
2018-10-07,23.548333333333332,19.81,27.97,0.82,07:37:00,19:23:00,America/Monterrey, GMT-05
2018-10-08,23.190416666666664,20.25,26.93,0.85,07:37:00,19:22:00,America/Monterrey, GMT-05
2018-10-09,24.76875,18.56,34.13,0.77,07:38:00,19:21:00,America/Monterrey, GMT-05
2018-10-10,24.581666666666667,20.74,28.19,0.76,07:38:00,19:20:00,America/Monterrey, GMT-05
2018-10-11,23.282083333333333,20.07,27.28,0.88,07:39:00,19:19:00,America/Monterrey, GMT-05
2018-10-12,24.015,21.24,27.96,0.89,07:39:00,19:18:00,America/Monterrey, GMT-05
2018-10-13,24.744583333333328,21.43,30.02,0.82,07:39:00,19:17:00,America/Monterrey, GMT-05
2018-10-14,24.145416666666666,20.86,28.2,0.85,07:40:00,19:16:00,America/Monterrey, GMT-05
2018-10-15,17.01125,8.39,24.14,0.91,07:40:00,19:15:00,America/Monterrey, GMT-05
2018-10-16,9.413333333333332,7.24,11.66,0.87,07:41:00,19:14:00,America/Monterrey, GMT-05
2018-10-17,11.70375,8.43,15.43,0.83,07:41:00,19:13:00,America/Monterrey, GMT-05
2018-10-18,13.683750000000003,11.04,17.08,0.92,07:42:00,19:12:00,America/Monterrey, GMT-05
2018-10-19,16.301249999999996,12.53,20.45,0.9,07:42:00,19:11:00,America/Monterrey, GMT-05
2018-10-20,17.782083333333336,15.94,20.87,0.96,07:43:00,19:10:00,America/Monterrey, GMT-05
2018-10-21,15.280833333333335,12.77,17.76,1.0,07:44:00,19:10:00,America/Monterrey, GMT-05
2018-10-22,14.399583333333332,12.42,16.74,0.9,07:44:00,19:09:00,America/Monterrey, GMT-05
2018-10-23,13.205833333333333,11.77,15.1,0.99,07:45:00,19:08:00,America/Monterrey, GMT-05
2018-10-24,14.850833333333332,12.11,20.2,0.94,07:45:00,19:07:00,America/Monterrey, GMT-05
2018-10-25,17.759166666666662,14.33,24.37,0.88,07:46:00,19:06:00,America/Monterrey, GMT-05
2018-10-26,18.527499999999996,15.83,22.67,0.89,07:46:00,19:05:00,America/Monterrey, GMT-05
2018-10-27,19.05125,14.67,25.62,0.77,07:47:00,19:05:00,America/Monterrey, GMT-05
2018-10-28,19.069200000000002,13.69,25.85,0.8,07:48:00,18:04:00,America/Monterrey, GMT-06
2018-10-29,19.03058823529412,15.97,24.28,0.89,06:48:00,18:03:00,America/Monterrey, GMT-06
2018-10-30,22.872777777777774,19.43,29.63,0.71,06:49:00,18:03:00,America/Monterrey, GMT-06
2018-10-31,22.24458333333334,16.09,30.41,0.79,06:49:00,18:02:00,America/Monterrey, GMT-06
2018-11-01,18.57875,15.27,22.72,0.76,06:50:00,18:01:00,America/Monterrey, GMT-06
2018-11-02,16.966666666666665,14.23,19.97,0.76,06:51:00,18:01:00,America/Monterrey, GMT-06
2018-11-03,17.676249999999996,12.02,25.4,0.78,06:51:00,18:00:00,America/Monterrey, GMT-06
2018-11-04,19.634347826086955,14.97,25.72,0.82,06:52:00,17:59:00,America/Monterrey, GMT-06
2018-11-05,21.315416666666668,15.85,28.11,0.82,06:53:00,17:59:00,America/Monterrey, GMT-06
2018-11-06,23.61,17.68,31.85,0.69,06:53:00,17:58:00,America/Monterrey, GMT-06
2018-11-07,23.718333333333334,18.36,31.79,0.77,06:54:00,17:58:00,America/Monterrey, GMT-06
2018-11-08,22.58375,19.55,26.43,0.87,06:55:00,17:57:00,America/Monterrey, GMT-06
2018-11-09,15.62,8.62,22.49,0.92,06:55:00,17:57:00,America/Monterrey, GMT-06
2018-11-10,9.203043478260868,7.72,11.05,0.91,06:56:00,17:56:00,America/Monterrey, GMT-06
2018-11-11,14.503478260869565,8.63,21.64,0.91,06:57:00,17:56:00,America/Monterrey, GMT-06
2018-11-12,13.180833333333332,6.7,16.26,0.87,06:57:00,17:55:00,America/Monterrey, GMT-06
2018-11-13,6.259166666666665,2.92,11.51,0.64,06:58:00,17:55:00,America/Monterrey, GMT-06
2018-11-14,7.429166666666667,0.01,16.96,0.56,06:59:00,17:54:00,America/Monterrey, GMT-06
2018-11-15,9.014583333333334,3.06,17.1,0.57,07:00:00,17:54:00,America/Monterrey, GMT-06
2018-11-16,11.434999999999997,5.09,19.74,0.58,07:00:00,17:54:00,America/Monterrey, GMT-06
2018-11-17,13.846666666666666,7.85,21.01,0.73,07:01:00,17:53:00,America/Monterrey, GMT-06
2018-11-18,15.811249999999996,11.42,21.55,0.8,07:02:00,17:53:00,America/Monterrey, GMT-06
2018-11-19,11.962499999999999,9.72,14.48,0.96,07:02:00,17:53:00,America/Monterrey, GMT-06
2018-11-20,11.874583333333334,9.79,14.13,0.89,07:03:00,17:53:00,America/Monterrey, GMT-06
2018-11-21,10.485833333333334,7.99,13.57,0.97,07:04:00,17:52:00,America/Monterrey, GMT-06
2018-11-22,12.129583333333336,9.46,15.41,0.95,07:05:00,17:52:00,America/Monterrey, GMT-06
2018-11-23,16.357916666666664,10.8,25.21,0.84,07:05:00,17:52:00,America/Monterrey, GMT-06
2018-11-24,16.88125,12.19,24.13,0.74,07:06:00,17:52:00,America/Monterrey, GMT-06
2018-11-25,18.802083333333336,13.49,29.26,0.57,07:07:00,17:52:00,America/Monterrey, GMT-06
2018-11-26,13.137500000000003,9.07,17.97,0.39,07:08:00,17:52:00,America/Monterrey, GMT-06
2018-11-27,11.059583333333334,6.04,17.24,0.61,07:08:00,17:52:00,America/Monterrey, GMT-06
2018-11-28,13.680833333333334,10.49,17.97,0.75,07:09:00,17:52:00,America/Monterrey, GMT-06
2018-11-29,18.16541666666667,12.65,26.53,0.74,07:10:00,17:52:00,America/Monterrey, GMT-06
2018-11-30,19.90041666666667,13.97,28.54,0.72,07:11:00,17:52:00,America/Monterrey, GMT-06
2018-12-01,19.699166666666667,13.75,26.77,0.53,07:11:00,17:52:00,America/Monterrey, GMT-06
2018-12-02,18.64958333333333,12.37,27.77,0.65,07:12:00,17:52:00,America/Monterrey, GMT-06
2018-12-03,17.62416666666667,14.64,22.53,0.79,07:13:00,17:52:00,America/Monterrey, GMT-06
2018-12-04,14.125833333333333,11.64,15.8,0.76,07:13:00,17:52:00,America/Monterrey, GMT-06
2018-12-05,10.86125,9.9,12.16,1.0,07:14:00,17:52:00,America/Monterrey, GMT-06
2018-12-06,14.551666666666668,10.25,20.97,0.91,07:15:00,17:52:00,America/Monterrey, GMT-06
2018-12-07,15.172083333333331,12.44,16.8,0.97,07:16:00,17:52:00,America/Monterrey, GMT-06
2018-12-08,12.515416666666672,8.96,14.94,0.97,07:16:00,17:52:00,America/Monterrey, GMT-06
2018-12-09,10.569583333333332,8.05,14.66,0.93,07:17:00,17:53:00,America/Monterrey, GMT-06
2018-12-10,11.209583333333335,7.84,16.05,0.91,07:18:00,17:53:00,America/Monterrey, GMT-06
2018-12-11,11.831249999999997,8.71,15.27,0.84,07:18:00,17:53:00,America/Monterrey, GMT-06
2018-12-12,14.73625,10.13,22.26,0.88,07:19:00,17:53:00,America/Monterrey, GMT-06
2018-12-13,18.203333333333337,12.72,25.57,0.63,07:19:00,17:54:00,America/Monterrey, GMT-06
2018-12-14,13.698749999999999,9.78,18.03,0.3,07:20:00,17:54:00,America/Monterrey, GMT-06
2018-12-15,12.263750000000002,4.85,20.51,0.47,07:21:00,17:54:00,America/Monterrey, GMT-06
2018-12-16,11.864166666666668,5.29,18.95,0.53,07:21:00,17:55:00,America/Monterrey, GMT-06
2018-12-17,12.967916666666667,8.5,20.33,0.5,07:22:00,17:55:00,America/Monterrey, GMT-06
2018-12-18,11.939166666666665,8.15,18.13,0.79,07:22:00,17:56:00,America/Monterrey, GMT-06
2018-12-19,15.967083333333333,8.68,25.41,0.52,07:23:00,17:56:00,America/Monterrey, GMT-06
2018-12-20,15.914583333333328,9.88,20.74,0.35,07:23:00,17:56:00,America/Monterrey, GMT-06
2018-12-21,13.25625,7.37,21.7,0.46,07:24:00,17:57:00,America/Monterrey, GMT-06
2018-12-22,17.39625,10.71,27.49,0.22,07:24:00,17:57:00,America/Monterrey, GMT-06
2018-12-23,17.20083333333334,11.89,24.82,0.3,07:25:00,17:58:00,America/Monterrey, GMT-06
2018-12-24,14.481250000000003,9.86,21.27,0.74,07:25:00,17:58:00,America/Monterrey, GMT-06
2018-12-25,16.396666666666665,12.19,23.33,0.72,07:26:00,17:59:00,America/Monterrey, GMT-06
2018-12-26,19.214166666666667,14.54,26.04,0.72,07:26:00,17:59:00,America/Monterrey, GMT-06
2018-12-27,16.681666666666665,12.42,23.3,0.43,07:27:00,18:00:00,America/Monterrey, GMT-06
2018-12-28,14.329583333333334,8.86,21.55,0.63,07:27:00,18:01:00,America/Monterrey, GMT-06
2018-12-29,11.614583333333334,6.85,14.6,0.9,07:27:00,18:01:00,America/Monterrey, GMT-06
2018-12-30,8.746666666666668,6.07,13.09,0.83,07:28:00,18:02:00,America/Monterrey, GMT-06
2018-12-31,11.282916666666667,7.66,17.79,0.71,07:28:00,18:02:00,America/Monterrey, GMT-06
