date,avg_temperature,min_temperature,max_temperature,humidity,sunrise_time,sunset_time,time_zone,gmt_zone
2012-01-01,20.39708333333333,13.45,27.76,0.22,06:50:00,16:54:00,America/Tijuana, GMT-08
2012-01-02,19.392500000000002,12.53,27.86,0.28,06:50:00,16:55:00,America/Tijuana, GMT-08
2012-01-03,18.730833333333333,12.99,27.21,0.35,06:51:00,16:55:00,America/Tijuana, GMT-08
2012-01-04,21.84,15.4,29.74,0.19,06:51:00,16:56:00,America/Tijuana, GMT-08
2012-01-05,21.142083333333336,14.43,28.71,0.19,06:51:00,16:57:00,America/Tijuana, GMT-08
2012-01-06,16.355833333333333,11.07,24.14,0.4,06:51:00,16:58:00,America/Tijuana, GMT-08
2012-01-07,12.660000000000004,8.96,17.88,0.67,06:51:00,16:59:00,America/Tijuana, GMT-08
2012-01-08,13.913749999999999,8.22,21.11,0.33,06:51:00,16:59:00,America/Tijuana, GMT-08
2012-01-09,15.525833333333336,10.08,22.8,0.25,06:51:00,17:00:00,America/Tijuana, GMT-08
2012-01-10,13.960833333333332,9.31,21.77,0.35,06:51:00,17:01:00,America/Tijuana, GMT-08
2012-01-11,14.686249999999996,9.59,22.04,0.42,06:51:00,17:02:00,America/Tijuana, GMT-08
2012-01-12,15.905000000000001,12.15,22.02,0.35,06:51:00,17:03:00,America/Tijuana, GMT-08
2012-01-13,17.584583333333335,13.26,22.96,0.09,06:51:00,17:04:00,America/Tijuana, GMT-08
2012-01-14,15.549999999999999,10.72,20.2,0.18,06:51:00,17:05:00,America/Tijuana, GMT-08
2012-01-15,13.857500000000002,10.21,18.12,0.44,06:51:00,17:05:00,America/Tijuana, GMT-08
2012-01-16,10.922916666666666,7.87,12.62,0.8,06:50:00,17:06:00,America/Tijuana, GMT-08
2012-01-17,10.167083333333336,6.45,15.21,0.67,06:50:00,17:07:00,America/Tijuana, GMT-08
2012-01-18,11.057916666666669,5.21,18.79,0.58,06:50:00,17:08:00,America/Tijuana, GMT-08
2012-01-19,11.451250000000002,6.01,19.32,0.58,06:50:00,17:09:00,America/Tijuana, GMT-08
2012-01-20,11.847083333333332,7.68,17.33,0.69,06:49:00,17:10:00,America/Tijuana, GMT-08
2012-01-21,11.684166666666664,8.79,14.81,0.84,06:49:00,17:11:00,America/Tijuana, GMT-08
2012-01-22,10.673749999999998,6.49,15.55,0.75,06:49:00,17:12:00,America/Tijuana, GMT-08
2012-01-23,11.023333333333333,8.42,13.55,0.78,06:48:00,17:13:00,America/Tijuana, GMT-08
2012-01-24,12.752499999999998,8.06,18.02,0.75,06:48:00,17:14:00,America/Tijuana, GMT-08
2012-01-25,16.346666666666668,10.03,23.94,0.43,06:48:00,17:15:00,America/Tijuana, GMT-08
2012-01-26,18.88625,13.29,28.37,0.39,06:47:00,17:16:00,America/Tijuana, GMT-08
2012-01-27,17.65791666666667,10.79,24.37,0.38,06:47:00,17:17:00,America/Tijuana, GMT-08
2012-01-28,18.40875,14.17,23.77,0.13,06:46:00,17:18:00,America/Tijuana, GMT-08
2012-01-29,18.801666666666666,12.66,25.69,0.15,06:46:00,17:19:00,America/Tijuana, GMT-08
2012-01-30,14.858333333333334,10.1,22.38,0.36,06:45:00,17:20:00,America/Tijuana, GMT-08
2012-01-31,12.44375,6.66,19.22,0.57,06:44:00,17:20:00,America/Tijuana, GMT-08
2012-02-01,12.91625,7.91,20.39,0.63,06:44:00,17:21:00,America/Tijuana, GMT-08
2012-02-02,12.418749999999998,6.57,18.53,0.6,06:43:00,17:22:00,America/Tijuana, GMT-08
2012-02-03,15.406666666666666,10.88,21.78,0.22,06:43:00,17:23:00,America/Tijuana, GMT-08
2012-02-04,16.369583333333335,12.78,22.34,0.23,06:42:00,17:24:00,America/Tijuana, GMT-08
2012-02-05,16.484583333333337,12.62,23.1,0.27,06:41:00,17:25:00,America/Tijuana, GMT-08
2012-02-06,16.44875,11.12,21.93,0.28,06:40:00,17:26:00,America/Tijuana, GMT-08
2012-02-07,14.329166666666667,12.06,17.37,0.51,06:40:00,17:27:00,America/Tijuana, GMT-08
2012-02-08,15.614583333333334,9.97,22.0,0.54,06:39:00,17:28:00,America/Tijuana, GMT-08
2012-02-09,18.155416666666664,11.99,26.19,0.36,06:38:00,17:29:00,America/Tijuana, GMT-08
2012-02-10,15.964166666666669,11.13,23.41,0.52,06:37:00,17:30:00,America/Tijuana, GMT-08
2012-02-11,12.47166666666667,10.54,15.24,0.74,06:36:00,17:31:00,America/Tijuana, GMT-08
2012-02-12,12.141666666666666,10.63,14.51,0.75,06:36:00,17:32:00,America/Tijuana, GMT-08
2012-02-13,11.650416666666667,8.82,14.16,0.74,06:35:00,17:33:00,America/Tijuana, GMT-08
2012-02-14,10.207083333333335,7.8,14.01,0.73,06:34:00,17:33:00,America/Tijuana, GMT-08
2012-02-15,9.573333333333332,7.23,13.64,0.75,06:33:00,17:34:00,America/Tijuana, GMT-08
2012-02-16,11.175833333333332,6.35,16.63,0.62,06:32:00,17:35:00,America/Tijuana, GMT-08
2012-02-17,13.2525,8.11,19.98,0.48,06:31:00,17:36:00,America/Tijuana, GMT-08
2012-02-18,11.528750000000002,6.44,16.64,0.64,06:30:00,17:37:00,America/Tijuana, GMT-08
2012-02-19,11.937916666666665,9.98,15.48,0.76,06:29:00,17:38:00,America/Tijuana, GMT-08
2012-02-20,11.022083333333333,6.83,15.35,0.73,06:28:00,17:39:00,America/Tijuana, GMT-08
2012-02-21,14.305000000000001,7.53,22.03,0.49,06:27:00,17:39:00,America/Tijuana, GMT-08
2012-02-22,17.62625,11.17,25.95,0.34,06:26:00,17:40:00,America/Tijuana, GMT-08
2012-02-23,16.610416666666666,11.14,25.41,0.5,06:25:00,17:41:00,America/Tijuana, GMT-08
2012-02-24,14.36416666666667,10.39,21.38,0.66,06:24:00,17:42:00,America/Tijuana, GMT-08
2012-02-25,13.90458333333333,9.65,21.24,0.71,06:23:00,17:43:00,America/Tijuana, GMT-08
2012-02-26,12.4125,9.47,16.87,0.71,06:21:00,17:44:00,America/Tijuana, GMT-08
2012-02-27,10.172499999999998,6.42,12.97,0.73,06:20:00,17:44:00,America/Tijuana, GMT-08
2012-02-28,9.238333333333333,6.65,12.75,0.67,06:19:00,17:45:00,America/Tijuana, GMT-08
2012-02-29,9.777916666666666,4.75,14.33,0.69,06:18:00,17:46:00,America/Tijuana, GMT-08
2012-03-01,11.688333333333333,9.55,14.36,0.73,06:17:00,17:47:00,America/Tijuana, GMT-08
2012-03-02,13.152500000000003,6.81,19.87,0.43,06:16:00,17:47:00,America/Tijuana, GMT-08
2012-03-03,17.481249999999992,10.54,24.98,0.15,06:14:00,17:48:00,America/Tijuana, GMT-08
2012-03-04,21.599166666666665,14.39,30.33,0.18,06:13:00,17:49:00,America/Tijuana, GMT-08
2012-03-05,19.617500000000003,14.11,26.99,0.3,06:12:00,17:50:00,America/Tijuana, GMT-08
2012-03-06,12.089166666666669,9.2,15.42,0.7,06:11:00,17:51:00,America/Tijuana, GMT-08
2012-03-07,10.978749999999998,7.63,16.25,0.47,06:09:00,17:51:00,America/Tijuana, GMT-08
2012-03-08,14.564583333333333,6.07,22.53,0.3,06:08:00,17:52:00,America/Tijuana, GMT-08
2012-03-09,18.854999999999997,12.05,26.83,0.21,06:07:00,17:53:00,America/Tijuana, GMT-08
2012-03-10,16.175,10.7,23.36,0.4,06:06:00,17:53:00,America/Tijuana, GMT-08
2012-03-11,12.994347826086955,9.11,18.81,0.66,06:04:00,18:54:00,America/Tijuana, GMT-07
2012-03-12,12.795,8.48,18.15,0.66,07:03:00,18:55:00,America/Tijuana, GMT-07
2012-03-13,13.289166666666665,10.24,18.53,0.68,07:02:00,18:56:00,America/Tijuana, GMT-07
2012-03-14,13.557916666666666,10.1,19.31,0.7,07:01:00,18:56:00,America/Tijuana, GMT-07
2012-03-15,13.314166666666663,9.65,18.52,0.74,06:59:00,18:57:00,America/Tijuana, GMT-07
2012-03-16,13.872083333333329,11.22,19.15,0.76,06:58:00,18:58:00,America/Tijuana, GMT-07
2012-03-17,11.781666666666666,8.71,14.05,0.86,06:57:00,18:58:00,America/Tijuana, GMT-07
2012-03-18,8.443750000000001,6.46,10.55,0.72,06:55:00,18:59:00,America/Tijuana, GMT-07
2012-03-19,9.429583333333332,6.96,13.04,0.8,06:54:00,19:00:00,America/Tijuana, GMT-07
2012-03-20,12.329166666666666,5.6,19.66,0.58,06:53:00,19:01:00,America/Tijuana, GMT-07
2012-03-21,15.509583333333333,9.06,23.18,0.49,06:51:00,19:01:00,America/Tijuana, GMT-07
2012-03-22,15.565,9.59,22.83,0.58,06:50:00,19:02:00,America/Tijuana, GMT-07
2012-03-23,13.717500000000001,10.25,20.14,0.74,06:49:00,19:03:00,America/Tijuana, GMT-07
2012-03-24,13.181249999999999,9.73,18.88,0.74,06:48:00,19:03:00,America/Tijuana, GMT-07
2012-03-25,12.185416666666663,8.83,17.43,0.75,06:46:00,19:04:00,America/Tijuana, GMT-07
2012-03-26,12.630833333333335,10.04,17.02,0.74,06:45:00,19:05:00,America/Tijuana, GMT-07
2012-03-27,12.552083333333334,7.6,19.1,0.73,06:44:00,19:05:00,America/Tijuana, GMT-07
2012-03-28,13.116666666666662,7.27,19.43,0.69,06:42:00,19:06:00,America/Tijuana, GMT-07
2012-03-29,14.643750000000002,11.36,21.96,0.75,06:41:00,19:07:00,America/Tijuana, GMT-07
2012-03-30,14.671666666666669,10.58,19.92,0.74,06:40:00,19:07:00,America/Tijuana, GMT-07
2012-03-31,12.887083333333335,11.42,15.01,0.81,06:38:00,19:08:00,America/Tijuana, GMT-07
2012-04-01,12.527916666666668,9.8,16.0,0.67,06:37:00,19:09:00,America/Tijuana, GMT-07
2012-04-02,14.85,7.68,22.52,0.46,06:36:00,19:09:00,America/Tijuana, GMT-07
2012-04-03,17.167083333333334,10.26,24.97,0.35,06:34:00,19:10:00,America/Tijuana, GMT-07
2012-04-04,16.40125,10.93,23.66,0.5,06:33:00,19:11:00,America/Tijuana, GMT-07
2012-04-05,13.871666666666668,10.61,18.39,0.7,06:32:00,19:12:00,America/Tijuana, GMT-07
2012-04-06,14.150416666666667,7.24,21.4,0.54,06:31:00,19:12:00,America/Tijuana, GMT-07
2012-04-07,19.285,11.9,26.89,0.22,06:29:00,19:13:00,America/Tijuana, GMT-07
2012-04-08,18.836666666666666,12.58,27.33,0.31,06:28:00,19:14:00,America/Tijuana, GMT-07
2012-04-09,17.50791666666667,11.94,26.15,0.44,06:27:00,19:14:00,America/Tijuana, GMT-07
2012-04-10,14.27541666666667,10.04,19.86,0.67,06:26:00,19:15:00,America/Tijuana, GMT-07
2012-04-11,13.445,11.21,16.24,0.73,06:24:00,19:16:00,America/Tijuana, GMT-07
2012-04-12,13.128749999999998,10.18,16.79,0.7,06:23:00,19:16:00,America/Tijuana, GMT-07
2012-04-13,11.385416666666666,8.72,15.93,0.76,06:22:00,19:17:00,America/Tijuana, GMT-07
2012-04-14,11.02041666666667,9.31,13.2,0.68,06:21:00,19:18:00,America/Tijuana, GMT-07
2012-04-15,12.519166666666669,6.37,18.69,0.68,06:20:00,19:19:00,America/Tijuana, GMT-07
2012-04-16,16.44333333333333,9.21,24.3,0.58,06:18:00,19:19:00,America/Tijuana, GMT-07
2012-04-17,18.66041666666667,11.79,26.25,0.54,06:17:00,19:20:00,America/Tijuana, GMT-07
2012-04-18,16.756249999999998,11.08,24.23,0.65,06:16:00,19:21:00,America/Tijuana, GMT-07
2012-04-19,16.91208333333333,11.82,23.75,0.68,06:15:00,19:21:00,America/Tijuana, GMT-07
2012-04-20,18.205833333333334,12.28,26.75,0.67,06:14:00,19:22:00,America/Tijuana, GMT-07
2012-04-21,18.06,13.24,26.8,0.72,06:13:00,19:23:00,America/Tijuana, GMT-07
2012-04-22,16.557916666666667,14.15,20.95,0.79,06:12:00,19:24:00,America/Tijuana, GMT-07
2012-04-23,14.688749999999997,13.3,16.29,0.81,06:10:00,19:24:00,America/Tijuana, GMT-07
2012-04-24,17.05,11.06,24.81,0.66,06:09:00,19:25:00,America/Tijuana, GMT-07
2012-04-25,18.14,14.32,25.66,0.68,06:08:00,19:26:00,America/Tijuana, GMT-07
2012-04-26,15.574166666666668,13.47,18.79,0.81,06:07:00,19:26:00,America/Tijuana, GMT-07
2012-04-27,15.5475,12.91,19.7,0.75,06:06:00,19:27:00,America/Tijuana, GMT-07
2012-04-28,17.213333333333335,11.57,24.4,0.69,06:05:00,19:28:00,America/Tijuana, GMT-07
2012-04-29,16.049583333333334,13.01,19.65,0.79,06:04:00,19:29:00,America/Tijuana, GMT-07
2012-04-30,15.954583333333334,14.26,18.6,0.82,06:03:00,19:29:00,America/Tijuana, GMT-07
2012-05-01,16.21333333333333,14.11,19.48,0.74,06:02:00,19:30:00,America/Tijuana, GMT-07
2012-05-02,15.301666666666662,13.42,18.43,0.74,06:01:00,19:31:00,America/Tijuana, GMT-07
2012-05-03,16.056666666666665,12.79,20.54,0.7,06:00:00,19:32:00,America/Tijuana, GMT-07
2012-05-04,16.90125,13.31,22.08,0.7,05:59:00,19:32:00,America/Tijuana, GMT-07
2012-05-05,16.910416666666666,12.82,22.54,0.69,05:59:00,19:33:00,America/Tijuana, GMT-07
2012-05-06,16.0575,11.92,21.4,0.71,05:58:00,19:34:00,America/Tijuana, GMT-07
2012-05-07,16.93708333333333,11.8,24.14,0.7,05:57:00,19:35:00,America/Tijuana, GMT-07
2012-05-08,18.47958333333333,13.39,24.57,0.64,05:56:00,19:35:00,America/Tijuana, GMT-07
2012-05-09,19.14958333333334,13.99,26.07,0.6,05:55:00,19:36:00,America/Tijuana, GMT-07
2012-05-10,17.004166666666666,13.25,23.05,0.7,05:54:00,19:37:00,America/Tijuana, GMT-07
2012-05-11,16.85166666666667,12.82,22.75,0.65,05:54:00,19:38:00,America/Tijuana, GMT-07
2012-05-12,17.552916666666665,12.01,24.49,0.66,05:53:00,19:38:00,America/Tijuana, GMT-07
2012-05-13,17.71958333333333,13.29,24.81,0.71,05:52:00,19:39:00,America/Tijuana, GMT-07
2012-05-14,18.213333333333335,13.67,25.31,0.69,05:51:00,19:40:00,America/Tijuana, GMT-07
2012-05-15,18.155416666666667,13.23,24.43,0.65,05:51:00,19:40:00,America/Tijuana, GMT-07
2012-05-16,20.022916666666667,12.91,27.62,0.61,05:50:00,19:41:00,America/Tijuana, GMT-07
2012-05-17,18.3975,14.61,24.24,0.71,05:50:00,19:42:00,America/Tijuana, GMT-07
2012-05-18,16.325833333333332,13.11,20.81,0.7,05:49:00,19:43:00,America/Tijuana, GMT-07
2012-05-19,17.609583333333333,12.82,24.72,0.68,05:48:00,19:43:00,America/Tijuana, GMT-07
2012-05-20,19.874166666666664,13.65,27.63,0.65,05:48:00,19:44:00,America/Tijuana, GMT-07
2012-05-21,20.882083333333334,14.93,29.39,0.61,05:47:00,19:45:00,America/Tijuana, GMT-07
2012-05-22,19.763749999999998,13.96,27.52,0.62,05:47:00,19:45:00,America/Tijuana, GMT-07
2012-05-23,17.314583333333335,13.85,22.8,0.72,05:46:00,19:46:00,America/Tijuana, GMT-07
2012-05-24,17.121666666666666,14.7,21.13,0.71,05:46:00,19:47:00,America/Tijuana, GMT-07
2012-05-25,14.662083333333333,11.84,17.11,0.75,05:45:00,19:47:00,America/Tijuana, GMT-07
2012-05-26,14.122499999999997,10.96,18.25,0.64,05:45:00,19:48:00,America/Tijuana, GMT-07
2012-05-27,16.21916666666667,10.53,21.93,0.63,05:44:00,19:49:00,America/Tijuana, GMT-07
2012-05-28,18.60125,12.6,25.52,0.63,05:44:00,19:49:00,America/Tijuana, GMT-07
2012-05-29,18.973333333333333,13.43,25.6,0.62,05:44:00,19:50:00,America/Tijuana, GMT-07
2012-05-30,18.06333333333333,13.53,24.27,0.67,05:43:00,19:50:00,America/Tijuana, GMT-07
2012-05-31,19.223333333333333,13.77,26.58,0.66,05:43:00,19:51:00,America/Tijuana, GMT-07
2012-06-01,19.455416666666668,13.78,26.34,0.65,05:43:00,19:52:00,America/Tijuana, GMT-07
2012-06-02,17.84041666666667,13.72,25.54,0.7,05:42:00,19:52:00,America/Tijuana, GMT-07
2012-06-03,18.225416666666668,14.46,23.63,0.69,05:42:00,19:53:00,America/Tijuana, GMT-07
2012-06-04,17.68708333333333,15.35,21.33,0.74,05:42:00,19:53:00,America/Tijuana, GMT-07
2012-06-05,18.02041666666667,14.75,22.59,0.69,05:42:00,19:54:00,America/Tijuana, GMT-07
2012-06-06,17.816666666666666,11.74,24.27,0.62,05:42:00,19:54:00,America/Tijuana, GMT-07
2012-06-07,19.205416666666668,13.25,25.56,0.63,05:42:00,19:55:00,America/Tijuana, GMT-07
2012-06-08,18.14875,13.63,23.89,0.68,05:41:00,19:55:00,America/Tijuana, GMT-07
2012-06-09,17.19541666666667,13.25,22.37,0.7,05:41:00,19:56:00,America/Tijuana, GMT-07
2012-06-10,17.085833333333333,13.43,22.34,0.69,05:41:00,19:56:00,America/Tijuana, GMT-07
2012-06-11,17.885416666666668,13.47,24.54,0.7,05:41:00,19:56:00,America/Tijuana, GMT-07
2012-06-12,18.750833333333333,14.19,24.76,0.71,05:41:00,19:57:00,America/Tijuana, GMT-07
2012-06-13,18.02958333333333,14.47,25.41,0.71,05:41:00,19:57:00,America/Tijuana, GMT-07
2012-06-14,17.118333333333336,14.1,21.63,0.71,05:41:00,19:57:00,America/Tijuana, GMT-07
2012-06-15,16.789166666666663,14.27,20.71,0.73,05:41:00,19:58:00,America/Tijuana, GMT-07
2012-06-16,18.793749999999996,15.07,24.06,0.67,05:41:00,19:58:00,America/Tijuana, GMT-07
2012-06-17,21.179583333333333,13.88,30.26,0.61,05:41:00,19:58:00,America/Tijuana, GMT-07
2012-06-18,20.665000000000003,15.98,27.98,0.65,05:42:00,19:59:00,America/Tijuana, GMT-07
2012-06-19,20.00375,15.02,26.74,0.63,05:42:00,19:59:00,America/Tijuana, GMT-07
2012-06-20,18.978749999999998,13.91,25.26,0.64,05:42:00,19:59:00,America/Tijuana, GMT-07
2012-06-21,19.30333333333333,14.36,25.46,0.65,05:42:00,19:59:00,America/Tijuana, GMT-07
2012-06-22,19.674583333333327,14.84,26.15,0.64,05:42:00,19:59:00,America/Tijuana, GMT-07
2012-06-23,19.68625,14.75,25.85,0.63,05:43:00,20:00:00,America/Tijuana, GMT-07
2012-06-24,20.063333333333333,14.29,26.01,0.61,05:43:00,20:00:00,America/Tijuana, GMT-07
2012-06-25,19.767916666666668,14.65,26.17,0.61,05:43:00,20:00:00,America/Tijuana, GMT-07
2012-06-26,20.416666666666668,13.37,27.75,0.55,05:43:00,20:00:00,America/Tijuana, GMT-07
2012-06-27,20.982499999999998,14.42,28.14,0.57,05:44:00,20:00:00,America/Tijuana, GMT-07
2012-06-28,21.34541666666667,15.4,28.06,0.62,05:44:00,20:00:00,America/Tijuana, GMT-07
2012-06-29,22.19208333333334,15.06,29.33,0.55,05:44:00,20:00:00,America/Tijuana, GMT-07
2012-06-30,21.480833333333333,15.22,28.84,0.54,05:45:00,20:00:00,America/Tijuana, GMT-07
2012-07-01,20.570416666666667,15.54,26.68,0.64,05:45:00,20:00:00,America/Tijuana, GMT-07
2012-07-02,19.330000000000002,16.24,24.18,0.69,05:46:00,20:00:00,America/Tijuana, GMT-07
2012-07-03,18.566666666666666,15.58,22.74,0.71,05:46:00,20:00:00,America/Tijuana, GMT-07
2012-07-04,18.227083333333336,15.77,21.86,0.73,05:46:00,20:00:00,America/Tijuana, GMT-07
2012-07-05,18.648750000000003,15.57,23.7,0.71,05:47:00,20:00:00,America/Tijuana, GMT-07
2012-07-06,20.191666666666666,15.38,27.02,0.67,05:47:00,19:59:00,America/Tijuana, GMT-07
2012-07-07,20.95291666666667,15.36,28.29,0.63,05:48:00,19:59:00,America/Tijuana, GMT-07
2012-07-08,22.722083333333334,15.35,30.89,0.54,05:48:00,19:59:00,America/Tijuana, GMT-07
2012-07-09,23.15958333333333,16.8,30.21,0.54,05:49:00,19:59:00,America/Tijuana, GMT-07
2012-07-10,23.714583333333334,17.82,32.15,0.56,05:49:00,19:58:00,America/Tijuana, GMT-07
2012-07-11,23.638333333333335,18.07,31.49,0.56,05:50:00,19:58:00,America/Tijuana, GMT-07
2012-07-12,23.235000000000003,17.9,30.6,0.63,05:50:00,19:58:00,America/Tijuana, GMT-07
2012-07-13,23.665000000000003,19.19,29.71,0.66,05:51:00,19:57:00,America/Tijuana, GMT-07
2012-07-14,23.367500000000003,17.98,29.2,0.65,05:52:00,19:57:00,America/Tijuana, GMT-07
2012-07-15,20.402083333333334,16.05,26.55,0.66,05:52:00,19:57:00,America/Tijuana, GMT-07
2012-07-16,18.88875,15.43,24.13,0.65,05:53:00,19:56:00,America/Tijuana, GMT-07
2012-07-17,19.81166666666667,15.45,25.56,0.61,05:53:00,19:56:00,America/Tijuana, GMT-07
2012-07-18,23.262916666666666,15.65,30.41,0.5,05:54:00,19:55:00,America/Tijuana, GMT-07
2012-07-19,24.646666666666672,18.64,31.37,0.48,05:55:00,19:55:00,America/Tijuana, GMT-07
2012-07-20,24.441249999999997,18.81,31.17,0.54,05:55:00,19:54:00,America/Tijuana, GMT-07
2012-07-21,23.043750000000003,18.53,29.23,0.65,05:56:00,19:54:00,America/Tijuana, GMT-07
2012-07-22,22.527500000000003,18.19,27.88,0.65,05:56:00,19:53:00,America/Tijuana, GMT-07
2012-07-23,22.010416666666668,17.8,27.65,0.65,05:57:00,19:53:00,America/Tijuana, GMT-07
2012-07-24,21.427083333333332,16.96,27.45,0.64,05:58:00,19:52:00,America/Tijuana, GMT-07
2012-07-25,20.785833333333333,16.19,28.14,0.64,05:58:00,19:51:00,America/Tijuana, GMT-07
2012-07-26,20.6775,16.19,27.1,0.64,05:59:00,19:51:00,America/Tijuana, GMT-07
2012-07-27,20.535416666666666,16.33,26.67,0.64,06:00:00,19:50:00,America/Tijuana, GMT-07
2012-07-28,20.97625,15.51,27.48,0.62,06:00:00,19:49:00,America/Tijuana, GMT-07
2012-07-29,20.972083333333334,15.66,28.2,0.63,06:01:00,19:49:00,America/Tijuana, GMT-07
2012-07-30,21.050416666666667,16.69,26.57,0.67,06:02:00,19:48:00,America/Tijuana, GMT-07
2012-07-31,21.879583333333333,18.47,27.81,0.67,06:02:00,19:47:00,America/Tijuana, GMT-07
2012-08-01,22.846666666666664,18.05,29.23,0.61,06:03:00,19:46:00,America/Tijuana, GMT-07
2012-08-02,22.17125,18.18,28.16,0.64,06:04:00,19:45:00,America/Tijuana, GMT-07
2012-08-03,20.321666666666665,17.04,25.1,0.68,06:04:00,19:45:00,America/Tijuana, GMT-07
2012-08-04,20.60375,17.17,26.72,0.68,06:05:00,19:44:00,America/Tijuana, GMT-07
2012-08-05,22.07291666666666,17.13,28.59,0.67,06:06:00,19:43:00,America/Tijuana, GMT-07
2012-08-06,24.875,18.4,32.18,0.61,06:07:00,19:42:00,America/Tijuana, GMT-07
2012-08-07,26.093333333333334,20.71,33.0,0.58,06:07:00,19:41:00,America/Tijuana, GMT-07
2012-08-08,26.58874999999999,20.63,33.47,0.55,06:08:00,19:40:00,America/Tijuana, GMT-07
2012-08-09,26.549583333333334,21.06,33.06,0.56,06:09:00,19:39:00,America/Tijuana, GMT-07
2012-08-10,27.096249999999998,22.06,34.47,0.56,06:09:00,19:38:00,America/Tijuana, GMT-07
2012-08-11,26.625,20.8,33.48,0.58,06:10:00,19:37:00,America/Tijuana, GMT-07
2012-08-12,27.46708333333333,22.16,33.89,0.56,06:11:00,19:36:00,America/Tijuana, GMT-07
2012-08-13,27.406666666666666,21.9,33.95,0.55,06:11:00,19:35:00,America/Tijuana, GMT-07
2012-08-14,26.637499999999992,21.17,33.73,0.57,06:12:00,19:34:00,America/Tijuana, GMT-07
2012-08-15,24.950833333333332,20.1,31.53,0.61,06:13:00,19:33:00,America/Tijuana, GMT-07
2012-08-16,26.415833333333328,22.3,31.49,0.59,06:13:00,19:32:00,America/Tijuana, GMT-07
2012-08-17,27.397500000000004,23.09,32.45,0.56,06:14:00,19:31:00,America/Tijuana, GMT-07
2012-08-18,26.432083333333335,22.38,31.76,0.55,06:15:00,19:30:00,America/Tijuana, GMT-07
2012-08-19,26.291250000000005,21.71,31.63,0.51,06:15:00,19:29:00,America/Tijuana, GMT-07
2012-08-20,25.188333333333343,20.8,30.58,0.6,06:16:00,19:28:00,America/Tijuana, GMT-07
2012-08-21,23.34541666666667,20.18,28.41,0.68,06:17:00,19:27:00,America/Tijuana, GMT-07
2012-08-22,22.523333333333337,19.62,26.92,0.7,06:17:00,19:25:00,America/Tijuana, GMT-07
2012-08-23,22.330416666666665,19.58,27.14,0.74,06:18:00,19:24:00,America/Tijuana, GMT-07
2012-08-24,21.355833333333337,18.94,24.98,0.79,06:19:00,19:23:00,America/Tijuana, GMT-07
2012-08-25,21.196249999999996,17.95,26.68,0.72,06:19:00,19:22:00,America/Tijuana, GMT-07
2012-08-26,22.122916666666665,16.59,28.88,0.63,06:20:00,19:21:00,America/Tijuana, GMT-07
2012-08-27,24.253333333333334,17.77,31.76,0.54,06:21:00,19:19:00,America/Tijuana, GMT-07
2012-08-28,25.545000000000005,19.55,31.79,0.49,06:21:00,19:18:00,America/Tijuana, GMT-07
2012-08-29,25.676666666666666,20.43,32.72,0.56,06:22:00,19:17:00,America/Tijuana, GMT-07
2012-08-30,25.222083333333334,21.83,29.64,0.6,06:23:00,19:16:00,America/Tijuana, GMT-07
2012-08-31,25.96208333333333,20.59,32.29,0.57,06:23:00,19:14:00,America/Tijuana, GMT-07
2012-09-01,26.145416666666666,19.29,33.75,0.39,06:24:00,19:13:00,America/Tijuana, GMT-07
2012-09-02,25.120833333333334,19.87,32.4,0.41,06:24:00,19:12:00,America/Tijuana, GMT-07
2012-09-03,24.785833333333333,18.89,32.61,0.51,06:25:00,19:11:00,America/Tijuana, GMT-07
2012-09-04,26.69666666666667,20.09,34.54,0.41,06:26:00,19:09:00,America/Tijuana, GMT-07
2012-09-05,26.40041666666667,22.29,32.09,0.36,06:26:00,19:08:00,America/Tijuana, GMT-07
2012-09-06,24.989166666666673,20.03,30.31,0.48,06:27:00,19:07:00,America/Tijuana, GMT-07
2012-09-07,24.468333333333334,19.93,29.54,0.56,06:28:00,19:05:00,America/Tijuana, GMT-07
2012-09-08,24.467916666666664,19.8,30.27,0.61,06:28:00,19:04:00,America/Tijuana, GMT-07
2012-09-09,24.45125,20.7,31.06,0.67,06:29:00,19:03:00,America/Tijuana, GMT-07
2012-09-10,24.362083333333334,21.3,28.98,0.73,06:29:00,19:01:00,America/Tijuana, GMT-07
2012-09-11,21.997083333333336,20.47,23.23,0.83,06:30:00,19:00:00,America/Tijuana, GMT-07
2012-09-12,23.47541666666667,20.5,28.97,0.76,06:31:00,18:59:00,America/Tijuana, GMT-07
2012-09-13,24.76333333333334,19.9,31.1,0.64,06:31:00,18:57:00,America/Tijuana, GMT-07
2012-09-14,29.89708333333333,20.62,38.48,0.33,06:32:00,18:56:00,America/Tijuana, GMT-07
2012-09-15,30.736666666666665,24.72,37.78,0.2,06:33:00,18:55:00,America/Tijuana, GMT-07
2012-09-16,24.849999999999998,19.39,31.26,0.47,06:33:00,18:53:00,America/Tijuana, GMT-07
2012-09-17,22.925833333333333,17.94,29.65,0.62,06:34:00,18:52:00,America/Tijuana, GMT-07
2012-09-18,22.769583333333333,18.08,29.4,0.63,06:34:00,18:50:00,America/Tijuana, GMT-07
2012-09-19,23.214583333333337,17.96,30.28,0.62,06:35:00,18:49:00,America/Tijuana, GMT-07
2012-09-20,24.720833333333335,19.37,32.48,0.58,06:36:00,18:48:00,America/Tijuana, GMT-07
2012-09-21,25.09375,19.94,32.41,0.57,06:36:00,18:46:00,America/Tijuana, GMT-07
2012-09-22,26.235416666666676,20.32,33.19,0.5,06:37:00,18:45:00,America/Tijuana, GMT-07
2012-09-23,26.942916666666665,20.39,34.82,0.41,06:37:00,18:44:00,America/Tijuana, GMT-07
2012-09-24,24.72083333333333,19.29,31.38,0.48,06:38:00,18:42:00,America/Tijuana, GMT-07
2012-09-25,21.286666666666665,17.03,26.89,0.61,06:39:00,18:41:00,America/Tijuana, GMT-07
2012-09-26,20.506666666666664,16.35,26.61,0.66,06:39:00,18:40:00,America/Tijuana, GMT-07
2012-09-27,22.471666666666664,17.15,29.98,0.62,06:40:00,18:38:00,America/Tijuana, GMT-07
2012-09-28,23.555416666666662,17.93,31.12,0.54,06:41:00,18:37:00,America/Tijuana, GMT-07
2012-09-29,24.402083333333337,17.83,31.67,0.51,06:41:00,18:36:00,America/Tijuana, GMT-07
2012-09-30,27.037916666666664,20.52,34.92,0.36,06:42:00,18:34:00,America/Tijuana, GMT-07
2012-10-01,27.83208333333333,21.21,36.27,0.31,06:43:00,18:33:00,America/Tijuana, GMT-07
2012-10-02,28.24041666666666,22.62,36.62,0.28,06:43:00,18:32:00,America/Tijuana, GMT-07
2012-10-03,25.283749999999998,19.75,32.96,0.39,06:44:00,18:30:00,America/Tijuana, GMT-07
2012-10-04,21.1425,16.97,27.52,0.63,06:45:00,18:29:00,America/Tijuana, GMT-07
2012-10-05,19.873333333333335,16.28,26.12,0.66,06:45:00,18:28:00,America/Tijuana, GMT-07
2012-10-06,20.73,15.33,27.53,0.63,06:46:00,18:26:00,America/Tijuana, GMT-07
2012-10-07,20.754166666666666,17.34,26.28,0.7,06:47:00,18:25:00,America/Tijuana, GMT-07
2012-10-08,19.941666666666666,17.27,24.41,0.72,06:47:00,18:24:00,America/Tijuana, GMT-07
2012-10-09,19.444999999999993,16.74,24.12,0.68,06:48:00,18:23:00,America/Tijuana, GMT-07
2012-10-10,18.56791666666667,15.88,22.5,0.69,06:49:00,18:21:00,America/Tijuana, GMT-07
2012-10-11,16.65875,13.67,19.46,0.7,06:49:00,18:20:00,America/Tijuana, GMT-07
2012-10-12,16.298750000000002,13.82,19.51,0.74,06:50:00,18:19:00,America/Tijuana, GMT-07
2012-10-13,18.271666666666665,12.4,25.13,0.64,06:51:00,18:18:00,America/Tijuana, GMT-07
2012-10-14,23.41291666666667,15.84,31.96,0.42,06:52:00,18:17:00,America/Tijuana, GMT-07
2012-10-15,24.425416666666674,18.8,31.9,0.37,06:52:00,18:15:00,America/Tijuana, GMT-07
2012-10-16,23.8725,17.05,31.99,0.37,06:53:00,18:14:00,America/Tijuana, GMT-07
2012-10-17,27.2325,18.84,35.68,0.24,06:54:00,18:13:00,America/Tijuana, GMT-07
2012-10-18,21.96875,18.46,27.53,0.67,06:55:00,18:12:00,America/Tijuana, GMT-07
2012-10-19,20.19875,16.53,25.11,0.73,06:55:00,18:11:00,America/Tijuana, GMT-07
2012-10-20,18.43166666666667,16.9,20.2,0.83,06:56:00,18:10:00,America/Tijuana, GMT-07
2012-10-21,17.840416666666666,16.58,20.28,0.82,06:57:00,18:09:00,America/Tijuana, GMT-07
2012-10-22,17.137499999999996,15.11,20.26,0.75,06:58:00,18:08:00,America/Tijuana, GMT-07
2012-10-23,16.09625,13.09,20.47,0.69,06:58:00,18:07:00,America/Tijuana, GMT-07
2012-10-24,16.096666666666668,12.56,20.58,0.65,06:59:00,18:06:00,America/Tijuana, GMT-07
2012-10-25,17.609583333333333,11.61,23.92,0.53,07:00:00,18:05:00,America/Tijuana, GMT-07
2012-10-26,22.824583333333333,17.39,28.74,0.17,07:01:00,18:04:00,America/Tijuana, GMT-07
2012-10-27,23.508333333333326,18.56,31.97,0.11,07:02:00,18:03:00,America/Tijuana, GMT-07
2012-10-28,22.117500000000003,17.52,28.81,0.17,07:02:00,18:02:00,America/Tijuana, GMT-07
2012-10-29,20.360833333333336,15.6,28.21,0.29,07:03:00,18:01:00,America/Tijuana, GMT-07
2012-10-30,18.935416666666665,13.64,26.82,0.46,07:04:00,18:00:00,America/Tijuana, GMT-07
2012-10-31,17.164166666666663,13.33,21.89,0.68,07:05:00,17:59:00,America/Tijuana, GMT-07
2012-11-01,16.75916666666667,14.27,21.37,0.69,07:06:00,17:58:00,America/Tijuana, GMT-07
2012-11-02,16.520416666666666,14.24,20.3,0.68,07:07:00,17:57:00,America/Tijuana, GMT-07
2012-11-03,17.452916666666667,12.18,25.26,0.65,07:08:00,17:56:00,America/Tijuana, GMT-07
2012-11-04,23.092399999999998,15.74,31.19,0.28,07:08:00,16:55:00,America/Tijuana, GMT-08
2012-11-05,24.142916666666665,19.12,30.88,0.21,06:09:00,16:55:00,America/Tijuana, GMT-08
2012-11-06,20.362916666666667,15.37,26.78,0.42,06:10:00,16:54:00,America/Tijuana, GMT-08
2012-11-07,17.563750000000002,13.49,23.75,0.64,06:11:00,16:53:00,America/Tijuana, GMT-08
2012-11-08,16.480833333333337,14.17,19.46,0.76,06:12:00,16:52:00,America/Tijuana, GMT-08
2012-11-09,13.519583333333328,10.68,15.47,0.73,06:13:00,16:52:00,America/Tijuana, GMT-08
2012-11-10,12.442916666666669,9.91,15.18,0.62,06:14:00,16:51:00,America/Tijuana, GMT-08
2012-11-11,12.330000000000004,7.38,17.93,0.46,06:15:00,16:50:00,America/Tijuana, GMT-08
2012-11-12,15.315416666666666,9.71,21.64,0.23,06:16:00,16:50:00,America/Tijuana, GMT-08
2012-11-13,18.868333333333336,12.43,27.32,0.16,06:17:00,16:49:00,America/Tijuana, GMT-08
2012-11-14,18.00916666666667,13.99,24.53,0.29,06:17:00,16:49:00,America/Tijuana, GMT-08
2012-11-15,16.615833333333335,14.21,19.41,0.35,06:18:00,16:48:00,America/Tijuana, GMT-08
2012-11-16,17.454583333333336,13.18,23.03,0.49,06:19:00,16:48:00,America/Tijuana, GMT-08
2012-11-17,17.224166666666665,14.15,21.78,0.71,06:20:00,16:47:00,America/Tijuana, GMT-08
2012-11-18,16.133333333333336,13.22,20.17,0.77,06:21:00,16:47:00,America/Tijuana, GMT-08
2012-11-19,15.191250000000002,10.55,21.49,0.75,06:22:00,16:46:00,America/Tijuana, GMT-08
2012-11-20,15.121249999999996,10.72,20.65,0.72,06:23:00,16:46:00,America/Tijuana, GMT-08
2012-11-21,14.46875,10.77,19.38,0.75,06:24:00,16:46:00,America/Tijuana, GMT-08
2012-11-22,15.51333333333333,10.47,22.32,0.67,06:25:00,16:45:00,America/Tijuana, GMT-08
2012-11-23,17.740000000000002,12.17,26.24,0.53,06:26:00,16:45:00,America/Tijuana, GMT-08
2012-11-24,19.586250000000003,12.88,29.21,0.4,06:26:00,16:45:00,America/Tijuana, GMT-08
2012-11-25,15.342499999999996,11.18,21.51,0.64,06:27:00,16:44:00,America/Tijuana, GMT-08
2012-11-26,14.386666666666668,11.56,18.8,0.75,06:28:00,16:44:00,America/Tijuana, GMT-08
2012-11-27,14.995416666666666,10.73,22.32,0.69,06:29:00,16:44:00,America/Tijuana, GMT-08
2012-11-28,15.262916666666664,12.34,19.69,0.71,06:30:00,16:44:00,America/Tijuana, GMT-08
2012-11-29,17.067500000000003,14.07,22.49,0.73,06:31:00,16:44:00,America/Tijuana, GMT-08
2012-11-30,17.539583333333333,14.82,20.59,0.82,06:32:00,16:43:00,America/Tijuana, GMT-08
2012-12-01,16.934583333333332,14.32,20.3,0.81,06:33:00,16:43:00,America/Tijuana, GMT-08
2012-12-02,16.600416666666664,15.06,19.93,0.8,06:33:00,16:43:00,America/Tijuana, GMT-08
2012-12-03,15.90041666666667,13.16,18.84,0.84,06:34:00,16:43:00,America/Tijuana, GMT-08
2012-12-04,16.65291666666666,13.02,22.31,0.75,06:35:00,16:43:00,America/Tijuana, GMT-08
2012-12-05,15.886666666666668,12.8,21.54,0.73,06:36:00,16:43:00,America/Tijuana, GMT-08
2012-12-06,15.567083333333334,12.76,20.39,0.76,06:37:00,16:43:00,America/Tijuana, GMT-08
2012-12-07,15.647916666666669,12.45,20.55,0.71,06:37:00,16:44:00,America/Tijuana, GMT-08
2012-12-08,14.74,10.93,20.54,0.68,06:38:00,16:44:00,America/Tijuana, GMT-08
2012-12-09,14.030833333333334,9.49,20.12,0.62,06:39:00,16:44:00,America/Tijuana, GMT-08
2012-12-10,15.792083333333336,9.26,23.24,0.44,06:40:00,16:44:00,America/Tijuana, GMT-08
2012-12-11,15.723333333333331,10.62,23.7,0.41,06:40:00,16:44:00,America/Tijuana, GMT-08
2012-12-12,14.09125,9.23,19.55,0.59,06:41:00,16:44:00,America/Tijuana, GMT-08
2012-12-13,12.543333333333331,10.47,14.87,0.77,06:42:00,16:45:00,America/Tijuana, GMT-08
2012-12-14,10.666666666666666,8.97,13.86,0.71,06:42:00,16:45:00,America/Tijuana, GMT-08
2012-12-15,10.970833333333333,9.16,13.98,0.73,06:43:00,16:45:00,America/Tijuana, GMT-08
2012-12-16,12.099583333333333,9.76,14.81,0.77,06:44:00,16:46:00,America/Tijuana, GMT-08
2012-12-17,14.122916666666661,12.41,17.22,0.83,06:44:00,16:46:00,America/Tijuana, GMT-08
2012-12-18,12.705000000000004,10.05,14.41,0.8,06:45:00,16:46:00,America/Tijuana, GMT-08
2012-12-19,9.61375,3.83,14.37,0.37,06:45:00,16:47:00,America/Tijuana, GMT-08
2012-12-20,12.776250000000003,8.76,20.23,0.27,06:46:00,16:47:00,America/Tijuana, GMT-08
2012-12-21,11.648749999999998,7.74,16.8,0.41,06:46:00,16:48:00,America/Tijuana, GMT-08
2012-12-22,10.833333333333336,6.4,15.2,0.61,06:47:00,16:48:00,America/Tijuana, GMT-08
2012-12-23,11.53375,7.53,16.16,0.73,06:47:00,16:49:00,America/Tijuana, GMT-08
2012-12-24,12.027083333333332,9.53,15.91,0.85,06:48:00,16:49:00,America/Tijuana, GMT-08
2012-12-25,11.902499999999998,8.34,17.24,0.67,06:48:00,16:50:00,America/Tijuana, GMT-08
2012-12-26,11.332083333333332,9.39,14.41,0.75,06:49:00,16:51:00,America/Tijuana, GMT-08
2012-12-27,10.794583333333334,7.35,14.08,0.71,06:49:00,16:51:00,America/Tijuana, GMT-08
2012-12-28,10.777916666666668,6.31,16.71,0.51,06:49:00,16:52:00,America/Tijuana, GMT-08
2012-12-29,10.287916666666666,7.26,14.31,0.64,06:50:00,16:52:00,America/Tijuana, GMT-08
2012-12-30,8.145416666666664,5.62,11.79,0.81,06:50:00,16:53:00,America/Tijuana, GMT-08
2012-12-31,8.455833333333333,3.76,14.31,0.64,06:50:00,16:54:00,America/Tijuana, GMT-08
