date,avg_temperature,min_temperature,max_temperature,humidity,sunrise_time,sunset_time,time_zone,gmt_zone
2008-01-01,17.580833333333334,14.07,22.91,0.12,07:28:00,16:54:00,America/Tijuana, GMT-08
2008-01-02,16.941666666666663,12.36,21.85,0.21,06:50:00,16:55:00,America/Tijuana, GMT-08
2008-01-03,13.813333333333334,11.08,17.81,0.46,06:51:00,16:55:00,America/Tijuana, GMT-08
2008-01-04,13.512083333333331,10.94,16.51,0.75,06:51:00,16:56:00,America/Tijuana, GMT-08
2008-01-05,13.0375,11.23,14.2,0.93,06:51:00,16:57:00,America/Tijuana, GMT-08
2008-01-06,12.161666666666669,10.23,14.21,0.9,06:51:00,16:58:00,America/Tijuana, GMT-08
2008-01-07,12.022500000000003,8.56,13.41,0.87,06:51:00,16:59:00,America/Tijuana, GMT-08
2008-01-08,10.575833333333334,6.58,14.75,0.82,06:51:00,16:59:00,America/Tijuana, GMT-08
2008-01-09,11.113333333333335,7.81,15.01,0.81,06:51:00,17:00:00,America/Tijuana, GMT-08
2008-01-10,10.902500000000002,6.33,16.26,0.82,06:51:00,17:01:00,America/Tijuana, GMT-08
2008-01-11,11.857916666666668,7.28,17.77,0.78,06:51:00,17:02:00,America/Tijuana, GMT-08
2008-01-12,12.883333333333335,8.44,18.68,0.73,06:51:00,17:03:00,America/Tijuana, GMT-08
2008-01-13,15.104999999999999,9.19,23.08,0.49,06:51:00,17:04:00,America/Tijuana, GMT-08
2008-01-14,16.55791666666666,11.26,22.45,0.29,06:51:00,17:05:00,America/Tijuana, GMT-08
2008-01-15,12.872499999999997,8.17,19.36,0.51,06:51:00,17:05:00,America/Tijuana, GMT-08
2008-01-16,10.763333333333335,7.29,15.33,0.76,06:50:00,17:06:00,America/Tijuana, GMT-08
2008-01-17,10.593750000000002,5.66,16.22,0.36,06:50:00,17:07:00,America/Tijuana, GMT-08
2008-01-18,10.504166666666666,5.37,17.17,0.41,06:50:00,17:08:00,America/Tijuana, GMT-08
2008-01-19,11.558750000000002,6.75,18.32,0.44,06:50:00,17:09:00,America/Tijuana, GMT-08
2008-01-20,9.849583333333333,4.77,15.79,0.62,06:49:00,17:10:00,America/Tijuana, GMT-08
2008-01-21,10.596250000000001,9.16,12.26,0.76,06:49:00,17:11:00,America/Tijuana, GMT-08
2008-01-22,11.135416666666666,7.86,15.3,0.75,06:49:00,17:12:00,America/Tijuana, GMT-08
2008-01-23,10.584999999999999,5.7,15.38,0.7,06:48:00,17:13:00,America/Tijuana, GMT-08
2008-01-24,10.204583333333334,6.93,13.21,0.76,06:48:00,17:14:00,America/Tijuana, GMT-08
2008-01-25,11.776666666666666,8.79,16.31,0.64,06:48:00,17:15:00,America/Tijuana, GMT-08
2008-01-26,13.17125,8.6,18.5,0.62,06:47:00,17:16:00,America/Tijuana, GMT-08
2008-01-27,14.362083333333333,12.46,16.96,0.85,06:47:00,17:17:00,America/Tijuana, GMT-08
2008-01-28,11.202083333333334,8.9,12.79,0.83,06:46:00,17:18:00,America/Tijuana, GMT-08
2008-01-29,9.5325,6.81,12.99,0.74,06:46:00,17:19:00,America/Tijuana, GMT-08
2008-01-30,9.6775,6.71,13.27,0.74,06:45:00,17:20:00,America/Tijuana, GMT-08
2008-01-31,10.974583333333333,6.33,16.91,0.54,06:44:00,17:20:00,America/Tijuana, GMT-08
2008-02-01,9.901666666666666,4.69,14.78,0.7,06:44:00,17:21:00,America/Tijuana, GMT-08
2008-02-02,10.695833333333333,8.54,13.58,0.74,06:43:00,17:22:00,America/Tijuana, GMT-08
2008-02-03,10.62208333333333,9.01,12.97,0.89,06:43:00,17:23:00,America/Tijuana, GMT-08
2008-02-04,10.17,7.05,13.14,0.71,06:42:00,17:24:00,America/Tijuana, GMT-08
2008-02-05,9.625833333333333,4.44,15.74,0.6,06:41:00,17:25:00,America/Tijuana, GMT-08
2008-02-06,9.717916666666667,4.13,15.81,0.65,06:40:00,17:26:00,America/Tijuana, GMT-08
2008-02-07,11.723333333333331,6.18,19.33,0.66,06:40:00,17:27:00,America/Tijuana, GMT-08
2008-02-08,13.91375,7.52,23.26,0.63,06:39:00,17:28:00,America/Tijuana, GMT-08
2008-02-09,16.645416666666666,10.06,26.01,0.4,06:38:00,17:29:00,America/Tijuana, GMT-08
2008-02-10,15.845000000000004,9.39,25.55,0.48,06:37:00,17:30:00,America/Tijuana, GMT-08
2008-02-11,15.092083333333335,8.98,23.03,0.57,06:36:00,17:31:00,America/Tijuana, GMT-08
2008-02-12,16.115833333333335,8.56,26.41,0.57,06:36:00,17:32:00,America/Tijuana, GMT-08
2008-02-13,12.409583333333332,9.2,17.53,0.75,06:35:00,17:32:00,America/Tijuana, GMT-08
2008-02-14,9.688333333333334,5.17,13.09,0.78,06:34:00,17:33:00,America/Tijuana, GMT-08
2008-02-15,8.979583333333334,2.63,15.9,0.61,06:33:00,17:34:00,America/Tijuana, GMT-08
2008-02-16,10.731250000000001,4.41,17.35,0.66,06:32:00,17:35:00,America/Tijuana, GMT-08
2008-02-17,10.393333333333333,5.61,15.73,0.78,06:31:00,17:36:00,America/Tijuana, GMT-08
2008-02-18,11.295416666666666,7.48,16.53,0.81,06:30:00,17:37:00,America/Tijuana, GMT-08
2008-02-19,12.06125,10.84,14.98,0.79,06:29:00,17:38:00,America/Tijuana, GMT-08
2008-02-20,11.772083333333333,10.25,13.83,0.87,06:28:00,17:39:00,America/Tijuana, GMT-08
2008-02-21,12.078333333333333,8.75,16.06,0.77,06:27:00,17:39:00,America/Tijuana, GMT-08
2008-02-22,12.11125,10.25,13.81,0.84,06:26:00,17:40:00,America/Tijuana, GMT-08
2008-02-23,12.31833333333333,7.17,17.27,0.72,06:25:00,17:41:00,America/Tijuana, GMT-08
2008-02-24,12.520416666666668,10.09,14.27,0.8,06:24:00,17:42:00,America/Tijuana, GMT-08
2008-02-25,12.403749999999997,7.41,17.66,0.76,06:23:00,17:43:00,America/Tijuana, GMT-08
2008-02-26,15.441250000000004,8.08,24.24,0.57,06:21:00,17:44:00,America/Tijuana, GMT-08
2008-02-27,17.099999999999998,10.75,24.95,0.45,06:20:00,17:44:00,America/Tijuana, GMT-08
2008-02-28,13.464583333333332,9.3,18.92,0.71,06:19:00,17:45:00,America/Tijuana, GMT-08
2008-02-29,12.654583333333333,10.39,16.49,0.79,06:18:00,17:46:00,America/Tijuana, GMT-08
2008-03-01,12.910000000000002,10.89,16.48,0.77,06:17:00,17:47:00,America/Tijuana, GMT-08
2008-03-02,13.918750000000001,10.08,19.14,0.67,06:16:00,17:47:00,America/Tijuana, GMT-08
2008-03-03,14.810416666666667,9.8,20.43,0.3,06:14:00,17:48:00,America/Tijuana, GMT-08
2008-03-04,13.185833333333333,7.07,20.67,0.49,06:13:00,17:49:00,America/Tijuana, GMT-08
2008-03-05,12.474999999999996,8.6,17.6,0.74,06:12:00,17:50:00,America/Tijuana, GMT-08
2008-03-06,14.480416666666668,7.37,22.2,0.47,06:11:00,17:51:00,America/Tijuana, GMT-08
2008-03-07,15.8775,9.31,23.17,0.42,06:10:00,17:51:00,America/Tijuana, GMT-08
2008-03-08,14.314166666666663,8.64,21.04,0.56,06:08:00,17:52:00,America/Tijuana, GMT-08
2008-03-09,15.851666666666667,8.3,23.74,0.54,06:07:00,17:53:00,America/Tijuana, GMT-08
2008-03-10,18.053333333333335,10.7,26.58,0.32,06:06:00,17:53:00,America/Tijuana, GMT-08
2008-03-11,17.684166666666666,11.52,25.75,0.42,06:04:00,17:54:00,America/Tijuana, GMT-08
2008-03-12,15.994166666666667,11.29,22.14,0.6,06:03:00,17:55:00,America/Tijuana, GMT-08
2008-03-13,15.100416666666668,11.46,21.27,0.79,06:02:00,17:56:00,America/Tijuana, GMT-08
2008-03-14,14.312083333333328,10.92,17.35,0.76,06:01:00,17:56:00,America/Tijuana, GMT-08
2008-03-15,11.817916666666667,8.74,14.51,0.7,05:59:00,17:57:00,America/Tijuana, GMT-08
2008-03-16,10.184166666666666,6.24,14.76,0.67,05:58:00,17:58:00,America/Tijuana, GMT-08
2008-03-17,11.521249999999997,5.62,16.99,0.59,05:57:00,17:58:00,America/Tijuana, GMT-08
2008-03-18,12.87375,6.65,19.81,0.58,05:55:00,17:59:00,America/Tijuana, GMT-08
2008-03-19,12.957916666666668,9.24,18.09,0.75,05:54:00,18:00:00,America/Tijuana, GMT-08
2008-03-20,13.629583333333331,10.39,19.22,0.72,05:53:00,18:01:00,America/Tijuana, GMT-08
2008-03-21,15.582083333333337,8.32,23.8,0.62,05:51:00,18:01:00,America/Tijuana, GMT-08
2008-03-22,17.657916666666665,9.67,27.11,0.49,05:50:00,18:02:00,America/Tijuana, GMT-08
2008-03-23,20.624999999999996,12.29,29.99,0.26,05:49:00,18:03:00,America/Tijuana, GMT-08
2008-03-24,18.24833333333333,11.84,27.49,0.39,05:48:00,18:03:00,America/Tijuana, GMT-08
2008-03-25,15.128750000000002,9.24,22.36,0.68,05:46:00,18:04:00,America/Tijuana, GMT-08
2008-03-26,15.169999999999996,11.01,21.26,0.74,05:45:00,18:05:00,America/Tijuana, GMT-08
2008-03-27,15.031666666666666,10.75,19.93,0.72,05:44:00,18:05:00,America/Tijuana, GMT-08
2008-03-28,14.194166666666668,10.57,19.45,0.72,05:42:00,18:06:00,America/Tijuana, GMT-08
2008-03-29,14.300416666666665,11.03,18.53,0.73,05:41:00,18:07:00,America/Tijuana, GMT-08
2008-03-30,12.434583333333334,10.32,15.27,0.71,05:40:00,18:07:00,America/Tijuana, GMT-08
2008-03-31,12.158750000000003,8.03,16.83,0.63,05:38:00,18:08:00,America/Tijuana, GMT-08
2008-04-01,12.077083333333334,7.94,17.24,0.7,05:37:00,18:09:00,America/Tijuana, GMT-08
2008-04-02,12.58,7.6,18.08,0.68,05:36:00,18:09:00,America/Tijuana, GMT-08
2008-04-03,14.439999999999998,10.78,19.27,0.72,05:34:00,18:10:00,America/Tijuana, GMT-08
2008-04-04,15.327083333333333,12.02,21.13,0.74,05:33:00,18:11:00,America/Tijuana, GMT-08
2008-04-05,13.987500000000002,11.48,18.3,0.71,05:32:00,18:12:00,America/Tijuana, GMT-08
2008-04-06,13.929130434782609,11.41,17.34,0.69,05:31:00,19:12:00,America/Tijuana, GMT-07
2008-04-07,14.475000000000003,11.29,18.91,0.7,06:29:00,19:13:00,America/Tijuana, GMT-07
2008-04-08,12.948749999999995,8.89,17.7,0.69,06:28:00,19:14:00,America/Tijuana, GMT-07
2008-04-09,12.710416666666662,9.51,16.57,0.65,06:27:00,19:14:00,America/Tijuana, GMT-07
2008-04-10,13.485833333333334,6.87,20.2,0.66,06:26:00,19:15:00,America/Tijuana, GMT-07
2008-04-11,19.23208333333334,9.89,29.16,0.47,06:24:00,19:16:00,America/Tijuana, GMT-07
2008-04-12,23.393333333333334,14.58,32.36,0.21,06:23:00,19:16:00,America/Tijuana, GMT-07
2008-04-13,24.964583333333326,15.96,34.24,0.15,06:22:00,19:17:00,America/Tijuana, GMT-07
2008-04-14,19.83458333333333,13.5,28.28,0.41,06:21:00,19:18:00,America/Tijuana, GMT-07
2008-04-15,14.482083333333335,11.81,18.51,0.68,06:20:00,19:18:00,America/Tijuana, GMT-07
2008-04-16,14.584583333333333,9.65,19.03,0.61,06:18:00,19:19:00,America/Tijuana, GMT-07
2008-04-17,19.23958333333334,10.45,28.74,0.39,06:17:00,19:20:00,America/Tijuana, GMT-07
2008-04-18,17.2775,11.78,25.06,0.49,06:16:00,19:21:00,America/Tijuana, GMT-07
2008-04-19,13.19375,11.29,15.73,0.71,06:15:00,19:21:00,America/Tijuana, GMT-07
2008-04-20,13.22,10.28,17.28,0.66,06:14:00,19:22:00,America/Tijuana, GMT-07
2008-04-21,13.511666666666665,9.94,18.28,0.68,06:13:00,19:23:00,America/Tijuana, GMT-07
2008-04-22,13.837083333333332,8.64,19.15,0.71,06:12:00,19:24:00,America/Tijuana, GMT-07
2008-04-23,14.569999999999995,11.77,18.86,0.69,06:10:00,19:24:00,America/Tijuana, GMT-07
2008-04-24,14.676250000000001,10.13,20.11,0.69,06:09:00,19:25:00,America/Tijuana, GMT-07
2008-04-25,20.034583333333337,11.17,30.31,0.45,06:08:00,19:26:00,America/Tijuana, GMT-07
2008-04-26,22.885833333333327,14.34,31.53,0.26,06:07:00,19:26:00,America/Tijuana, GMT-07
2008-04-27,26.392916666666675,19.1,34.08,0.16,06:06:00,19:27:00,America/Tijuana, GMT-07
2008-04-28,24.402916666666666,16.46,33.07,0.19,06:05:00,19:28:00,America/Tijuana, GMT-07
2008-04-29,17.812916666666663,13.5,23.56,0.67,06:04:00,19:29:00,America/Tijuana, GMT-07
2008-04-30,13.775833333333331,12.51,15.43,0.71,06:03:00,19:29:00,America/Tijuana, GMT-07
2008-05-01,15.332083333333332,11.01,19.85,0.68,06:02:00,19:30:00,America/Tijuana, GMT-07
2008-05-02,17.957916666666673,11.23,25.65,0.58,06:01:00,19:31:00,America/Tijuana, GMT-07
2008-05-03,17.3475,11.96,23.6,0.6,06:00:00,19:32:00,America/Tijuana, GMT-07
2008-05-04,14.905000000000001,12.35,19.06,0.7,06:00:00,19:32:00,America/Tijuana, GMT-07
2008-05-05,14.325833333333334,12.43,17.04,0.7,05:59:00,19:33:00,America/Tijuana, GMT-07
2008-05-06,13.65875,12.46,14.93,0.8,05:58:00,19:34:00,America/Tijuana, GMT-07
2008-05-07,14.762916666666664,12.33,18.13,0.77,05:57:00,19:35:00,America/Tijuana, GMT-07
2008-05-08,15.310833333333335,12.18,19.13,0.73,05:56:00,19:35:00,America/Tijuana, GMT-07
2008-05-09,14.828750000000001,12.95,17.9,0.75,05:55:00,19:36:00,America/Tijuana, GMT-07
2008-05-10,15.83333333333333,12.33,20.01,0.72,05:54:00,19:37:00,America/Tijuana, GMT-07
2008-05-11,15.921666666666665,13.84,19.58,0.73,05:54:00,19:38:00,America/Tijuana, GMT-07
2008-05-12,14.120416666666666,12.53,16.61,0.72,05:53:00,19:38:00,America/Tijuana, GMT-07
2008-05-13,15.937916666666666,12.39,20.99,0.69,05:52:00,19:39:00,America/Tijuana, GMT-07
2008-05-14,17.71166666666667,11.72,24.2,0.66,05:52:00,19:40:00,America/Tijuana, GMT-07
2008-05-15,19.27916666666667,13.42,26.29,0.66,05:51:00,19:40:00,America/Tijuana, GMT-07
2008-05-16,23.402083333333334,14.61,32.04,0.51,05:50:00,19:41:00,America/Tijuana, GMT-07
2008-05-17,24.04375,16.24,31.65,0.45,05:50:00,19:42:00,America/Tijuana, GMT-07
2008-05-18,24.97333333333333,17.55,32.25,0.45,05:49:00,19:43:00,America/Tijuana, GMT-07
2008-05-19,23.065416666666668,17.35,30.01,0.61,05:48:00,19:43:00,America/Tijuana, GMT-07
2008-05-20,18.12333333333334,14.75,21.45,0.74,05:48:00,19:44:00,America/Tijuana, GMT-07
2008-05-21,16.12666666666666,14.03,20.04,0.74,05:47:00,19:45:00,America/Tijuana, GMT-07
2008-05-22,14.624583333333335,12.64,17.69,0.72,05:47:00,19:45:00,America/Tijuana, GMT-07
2008-05-23,12.69833333333333,10.93,14.54,0.77,05:46:00,19:46:00,America/Tijuana, GMT-07
2008-05-24,13.132916666666667,9.74,17.3,0.67,05:46:00,19:47:00,America/Tijuana, GMT-07
2008-05-25,13.821249999999997,9.49,17.82,0.62,05:45:00,19:47:00,America/Tijuana, GMT-07
2008-05-26,14.863750000000001,12.55,18.38,0.67,05:45:00,19:48:00,America/Tijuana, GMT-07
2008-05-27,15.39291666666667,12.36,19.45,0.72,05:44:00,19:49:00,America/Tijuana, GMT-07
2008-05-28,15.817500000000003,10.88,20.47,0.69,05:44:00,19:49:00,America/Tijuana, GMT-07
2008-05-29,16.663749999999997,10.81,22.34,0.66,05:44:00,19:50:00,America/Tijuana, GMT-07
2008-05-30,16.9275,11.68,22.58,0.69,05:43:00,19:50:00,America/Tijuana, GMT-07
2008-05-31,16.652916666666666,13.69,20.48,0.7,05:43:00,19:51:00,America/Tijuana, GMT-07
2008-06-01,17.045416666666664,13.59,22.35,0.71,05:43:00,19:51:00,America/Tijuana, GMT-07
2008-06-02,16.846666666666668,12.85,22.05,0.71,05:42:00,19:52:00,America/Tijuana, GMT-07
2008-06-03,16.667916666666663,13.56,20.73,0.7,05:42:00,19:53:00,America/Tijuana, GMT-07
2008-06-04,15.176250000000003,13.73,17.45,0.79,05:42:00,19:53:00,America/Tijuana, GMT-07
2008-06-05,17.427083333333332,13.12,23.02,0.7,05:42:00,19:54:00,America/Tijuana, GMT-07
2008-06-06,19.47958333333333,13.22,28.0,0.66,05:42:00,19:54:00,America/Tijuana, GMT-07
2008-06-07,17.37166666666667,14.49,22.33,0.7,05:42:00,19:55:00,America/Tijuana, GMT-07
2008-06-08,17.221666666666668,13.4,22.42,0.72,05:41:00,19:55:00,America/Tijuana, GMT-07
2008-06-09,17.88875,13.48,23.8,0.73,05:41:00,19:55:00,America/Tijuana, GMT-07
2008-06-10,17.478333333333335,14.37,22.33,0.75,05:41:00,19:56:00,America/Tijuana, GMT-07
2008-06-11,17.5775,14.24,22.39,0.68,05:41:00,19:56:00,America/Tijuana, GMT-07
2008-06-12,18.02,14.82,22.37,0.68,05:41:00,19:57:00,America/Tijuana, GMT-07
2008-06-13,18.79333333333334,14.1,24.16,0.71,05:41:00,19:57:00,America/Tijuana, GMT-07
2008-06-14,19.486666666666665,15.17,25.16,0.72,05:41:00,19:57:00,America/Tijuana, GMT-07
2008-06-15,20.52,15.47,27.78,0.66,05:41:00,19:58:00,America/Tijuana, GMT-07
2008-06-16,20.150000000000002,15.5,26.66,0.68,05:41:00,19:58:00,America/Tijuana, GMT-07
2008-06-17,20.964166666666667,15.76,28.12,0.68,05:41:00,19:58:00,America/Tijuana, GMT-07
2008-06-18,22.0625,15.62,31.99,0.61,05:42:00,19:59:00,America/Tijuana, GMT-07
2008-06-19,24.38666666666666,17.38,34.22,0.47,05:42:00,19:59:00,America/Tijuana, GMT-07
2008-06-20,27.167083333333334,17.2,36.19,0.4,05:42:00,19:59:00,America/Tijuana, GMT-07
2008-06-21,28.45041666666666,19.93,38.42,0.42,05:42:00,19:59:00,America/Tijuana, GMT-07
2008-06-22,25.973333333333333,18.7,31.98,0.5,05:42:00,19:59:00,America/Tijuana, GMT-07
2008-06-23,23.08458333333333,18.16,29.39,0.64,05:43:00,20:00:00,America/Tijuana, GMT-07
2008-06-24,20.41375,16.54,26.24,0.65,05:43:00,20:00:00,America/Tijuana, GMT-07
2008-06-25,19.2125,15.9,24.23,0.68,05:43:00,20:00:00,America/Tijuana, GMT-07
2008-06-26,18.993333333333336,16.1,23.78,0.69,05:43:00,20:00:00,America/Tijuana, GMT-07
2008-06-27,19.134583333333335,15.43,24.19,0.68,05:44:00,20:00:00,America/Tijuana, GMT-07
2008-06-28,20.115416666666665,15.02,26.42,0.69,05:44:00,20:00:00,America/Tijuana, GMT-07
2008-06-29,21.64625,16.71,27.68,0.68,05:44:00,20:00:00,America/Tijuana, GMT-07
2008-06-30,22.13666666666666,17.27,28.28,0.66,05:45:00,20:00:00,America/Tijuana, GMT-07
2008-07-01,21.615416666666665,17.26,28.12,0.69,05:45:00,20:00:00,America/Tijuana, GMT-07
2008-07-02,20.790000000000003,16.78,26.44,0.71,05:45:00,20:00:00,America/Tijuana, GMT-07
2008-07-03,20.917916666666667,16.33,27.75,0.72,05:46:00,20:00:00,America/Tijuana, GMT-07
2008-07-04,23.050416666666667,16.8,30.4,0.65,05:46:00,20:00:00,America/Tijuana, GMT-07
2008-07-05,22.000833333333333,17.5,26.76,0.7,05:47:00,19:59:00,America/Tijuana, GMT-07
2008-07-06,20.309583333333332,16.76,26.51,0.73,05:47:00,19:59:00,America/Tijuana, GMT-07
2008-07-07,20.01875,16.49,26.02,0.73,05:48:00,19:59:00,America/Tijuana, GMT-07
2008-07-08,20.172083333333333,16.83,24.36,0.74,05:48:00,19:59:00,America/Tijuana, GMT-07
2008-07-09,19.460416666666664,16.75,23.88,0.76,05:49:00,19:59:00,America/Tijuana, GMT-07
2008-07-10,20.792083333333334,17.26,25.82,0.71,05:49:00,19:58:00,America/Tijuana, GMT-07
2008-07-11,21.09958333333333,18.39,24.5,0.75,05:50:00,19:58:00,America/Tijuana, GMT-07
2008-07-12,21.53333333333333,17.75,26.54,0.75,05:50:00,19:58:00,America/Tijuana, GMT-07
2008-07-13,22.523749999999996,19.0,27.5,0.73,05:51:00,19:57:00,America/Tijuana, GMT-07
2008-07-14,22.496249999999993,18.89,28.02,0.7,05:51:00,19:57:00,America/Tijuana, GMT-07
2008-07-15,22.560833333333335,18.45,27.88,0.68,05:52:00,19:57:00,America/Tijuana, GMT-07
2008-07-16,22.461666666666662,18.74,27.27,0.71,05:53:00,19:56:00,America/Tijuana, GMT-07
2008-07-17,21.543333333333337,18.13,27.03,0.73,05:53:00,19:56:00,America/Tijuana, GMT-07
2008-07-18,20.911250000000003,17.2,26.08,0.72,05:54:00,19:55:00,America/Tijuana, GMT-07
2008-07-19,19.72458333333334,17.03,23.83,0.74,05:54:00,19:55:00,America/Tijuana, GMT-07
2008-07-20,19.7,16.71,24.62,0.69,05:55:00,19:54:00,America/Tijuana, GMT-07
2008-07-21,20.350833333333334,14.95,25.72,0.68,05:56:00,19:54:00,America/Tijuana, GMT-07
2008-07-22,20.444166666666664,16.68,25.31,0.7,05:56:00,19:53:00,America/Tijuana, GMT-07
2008-07-23,20.30666666666666,16.07,25.87,0.66,05:57:00,19:53:00,America/Tijuana, GMT-07
2008-07-24,20.50916666666667,16.53,25.69,0.68,05:58:00,19:52:00,America/Tijuana, GMT-07
2008-07-25,21.527083333333337,17.53,26.59,0.71,05:58:00,19:51:00,America/Tijuana, GMT-07
2008-07-26,21.370416666666667,18.1,25.35,0.72,05:59:00,19:51:00,America/Tijuana, GMT-07
2008-07-27,20.69958333333333,18.63,24.25,0.75,06:00:00,19:50:00,America/Tijuana, GMT-07
2008-07-28,20.784166666666668,18.24,24.82,0.7,06:00:00,19:49:00,America/Tijuana, GMT-07
2008-07-29,21.25291666666667,18.4,25.66,0.72,06:01:00,19:49:00,America/Tijuana, GMT-07
2008-07-30,20.681250000000002,17.63,26.42,0.74,06:02:00,19:48:00,America/Tijuana, GMT-07
2008-07-31,20.845000000000002,17.4,25.89,0.72,06:02:00,19:47:00,America/Tijuana, GMT-07
2008-08-01,21.502916666666664,18.23,27.34,0.72,06:03:00,19:46:00,America/Tijuana, GMT-07
2008-08-02,21.022500000000004,17.79,25.92,0.73,06:04:00,19:46:00,America/Tijuana, GMT-07
2008-08-03,22.101250000000004,17.96,27.77,0.72,06:04:00,19:45:00,America/Tijuana, GMT-07
2008-08-04,23.48875,19.48,28.97,0.69,06:05:00,19:44:00,America/Tijuana, GMT-07
2008-08-05,22.77791666666667,18.94,28.25,0.7,06:06:00,19:43:00,America/Tijuana, GMT-07
2008-08-06,23.27333333333333,18.77,29.1,0.68,06:07:00,19:42:00,America/Tijuana, GMT-07
2008-08-07,23.54875,19.94,27.94,0.69,06:07:00,19:41:00,America/Tijuana, GMT-07
2008-08-08,22.763333333333332,19.32,27.77,0.73,06:08:00,19:40:00,America/Tijuana, GMT-07
2008-08-09,22.36666666666667,18.8,27.35,0.72,06:09:00,19:39:00,America/Tijuana, GMT-07
2008-08-10,22.459166666666672,18.0,28.39,0.68,06:09:00,19:38:00,America/Tijuana, GMT-07
2008-08-11,20.97083333333334,17.74,25.77,0.69,06:10:00,19:37:00,America/Tijuana, GMT-07
2008-08-12,20.72041666666667,17.11,26.96,0.71,06:11:00,19:36:00,America/Tijuana, GMT-07
2008-08-13,20.30833333333333,17.01,24.46,0.76,06:11:00,19:35:00,America/Tijuana, GMT-07
2008-08-14,22.535,18.17,28.38,0.72,06:12:00,19:34:00,America/Tijuana, GMT-07
2008-08-15,22.360833333333332,18.97,27.09,0.73,06:13:00,19:33:00,America/Tijuana, GMT-07
2008-08-16,22.594583333333333,19.07,27.95,0.7,06:13:00,19:32:00,America/Tijuana, GMT-07
2008-08-17,22.67083333333333,18.88,28.2,0.68,06:14:00,19:31:00,America/Tijuana, GMT-07
2008-08-18,21.972083333333334,18.61,26.74,0.7,06:15:00,19:30:00,America/Tijuana, GMT-07
2008-08-19,21.12666666666666,17.9,26.31,0.71,06:15:00,19:29:00,America/Tijuana, GMT-07
2008-08-20,20.496666666666666,17.08,26.01,0.68,06:16:00,19:28:00,America/Tijuana, GMT-07
2008-08-21,20.635416666666668,16.86,25.64,0.7,06:17:00,19:27:00,America/Tijuana, GMT-07
2008-08-22,21.317916666666665,18.37,26.53,0.71,06:17:00,19:25:00,America/Tijuana, GMT-07
2008-08-23,21.888333333333332,18.0,27.33,0.72,06:18:00,19:24:00,America/Tijuana, GMT-07
2008-08-24,22.795833333333334,19.14,27.6,0.72,06:19:00,19:23:00,America/Tijuana, GMT-07
2008-08-25,22.415833333333342,18.88,27.58,0.77,06:19:00,19:22:00,America/Tijuana, GMT-07
2008-08-26,22.802916666666665,19.41,27.78,0.74,06:20:00,19:21:00,America/Tijuana, GMT-07
2008-08-27,22.11333333333333,18.92,26.56,0.73,06:21:00,19:19:00,America/Tijuana, GMT-07
2008-08-28,21.9525,19.08,27.75,0.75,06:21:00,19:18:00,America/Tijuana, GMT-07
2008-08-29,22.167916666666667,18.63,29.04,0.74,06:22:00,19:17:00,America/Tijuana, GMT-07
2008-08-30,23.130416666666672,20.14,30.23,0.76,06:23:00,19:16:00,America/Tijuana, GMT-07
2008-08-31,22.56083333333334,19.85,27.53,0.76,06:23:00,19:14:00,America/Tijuana, GMT-07
2008-09-01,21.770416666666666,19.07,26.22,0.75,06:24:00,19:13:00,America/Tijuana, GMT-07
2008-09-02,21.91416666666667,17.55,27.59,0.75,06:24:00,19:12:00,America/Tijuana, GMT-07
2008-09-03,23.298333333333336,18.33,30.69,0.71,06:25:00,19:11:00,America/Tijuana, GMT-07
2008-09-04,23.908333333333335,18.48,30.54,0.64,06:26:00,19:09:00,America/Tijuana, GMT-07
2008-09-05,23.13333333333333,18.23,29.64,0.68,06:26:00,19:08:00,America/Tijuana, GMT-07
2008-09-06,23.63208333333333,18.34,33.43,0.65,06:27:00,19:07:00,America/Tijuana, GMT-07
2008-09-07,22.022499999999997,18.45,29.35,0.72,06:28:00,19:05:00,America/Tijuana, GMT-07
2008-09-08,21.23833333333333,18.07,26.0,0.72,06:28:00,19:04:00,America/Tijuana, GMT-07
2008-09-09,20.85083333333333,16.38,27.43,0.68,06:29:00,19:03:00,America/Tijuana, GMT-07
2008-09-10,20.116666666666667,17.38,24.2,0.69,06:29:00,19:01:00,America/Tijuana, GMT-07
2008-09-11,19.541249999999998,17.37,23.43,0.71,06:30:00,19:00:00,America/Tijuana, GMT-07
2008-09-12,19.272916666666664,17.72,21.49,0.77,06:31:00,18:59:00,America/Tijuana, GMT-07
2008-09-13,20.45625,18.02,25.09,0.73,06:31:00,18:57:00,America/Tijuana, GMT-07
2008-09-14,20.389583333333334,16.06,26.16,0.75,06:32:00,18:56:00,America/Tijuana, GMT-07
2008-09-15,21.9325,16.84,29.38,0.7,06:33:00,18:55:00,America/Tijuana, GMT-07
2008-09-16,21.135833333333338,17.48,26.29,0.74,06:33:00,18:53:00,America/Tijuana, GMT-07
2008-09-17,21.14458333333333,17.83,26.61,0.76,06:34:00,18:52:00,America/Tijuana, GMT-07
2008-09-18,21.8225,18.39,27.52,0.75,06:34:00,18:51:00,America/Tijuana, GMT-07
2008-09-19,21.88208333333333,17.74,28.43,0.71,06:35:00,18:49:00,America/Tijuana, GMT-07
2008-09-20,19.067083333333333,16.73,23.09,0.72,06:36:00,18:48:00,America/Tijuana, GMT-07
2008-09-21,18.543749999999992,15.82,22.56,0.7,06:36:00,18:46:00,America/Tijuana, GMT-07
2008-09-22,18.942500000000003,15.85,23.77,0.7,06:37:00,18:45:00,America/Tijuana, GMT-07
2008-09-23,19.761666666666663,14.74,25.55,0.71,06:37:00,18:44:00,America/Tijuana, GMT-07
2008-09-24,22.541666666666668,16.37,30.7,0.65,06:38:00,18:42:00,America/Tijuana, GMT-07
2008-09-25,22.755416666666665,17.5,30.76,0.66,06:39:00,18:41:00,America/Tijuana, GMT-07
2008-09-26,21.770416666666666,17.41,29.67,0.71,06:39:00,18:40:00,America/Tijuana, GMT-07
2008-09-27,21.07375,17.17,27.97,0.74,06:40:00,18:38:00,America/Tijuana, GMT-07
2008-09-28,20.64208333333333,16.57,26.54,0.73,06:41:00,18:37:00,America/Tijuana, GMT-07
2008-09-29,22.21291666666667,16.88,30.67,0.66,06:41:00,18:36:00,America/Tijuana, GMT-07
2008-09-30,26.37666666666667,19.16,34.55,0.47,06:42:00,18:34:00,America/Tijuana, GMT-07
2008-10-01,27.854583333333334,22.5,34.99,0.4,06:43:00,18:33:00,America/Tijuana, GMT-07
2008-10-02,23.768749999999997,19.07,30.27,0.56,06:43:00,18:32:00,America/Tijuana, GMT-07
2008-10-03,19.8,17.3,24.17,0.76,06:44:00,18:30:00,America/Tijuana, GMT-07
2008-10-04,18.309166666666663,16.44,21.03,0.72,06:45:00,18:29:00,America/Tijuana, GMT-07
2008-10-05,18.0725,15.01,21.77,0.77,06:45:00,18:28:00,America/Tijuana, GMT-07
2008-10-06,20.263333333333332,14.08,28.19,0.67,06:46:00,18:27:00,America/Tijuana, GMT-07
2008-10-07,25.064166666666665,16.64,35.29,0.39,06:47:00,18:25:00,America/Tijuana, GMT-07
2008-10-08,25.822083333333335,18.93,35.7,0.3,06:47:00,18:24:00,America/Tijuana, GMT-07
2008-10-09,19.777916666666666,15.95,24.66,0.66,06:48:00,18:23:00,America/Tijuana, GMT-07
2008-10-10,18.369166666666665,16.14,21.98,0.68,06:49:00,18:22:00,America/Tijuana, GMT-07
2008-10-11,15.602916666666667,12.05,19.37,0.5,06:49:00,18:20:00,America/Tijuana, GMT-07
2008-10-12,15.17666666666667,9.21,21.75,0.38,06:50:00,18:19:00,America/Tijuana, GMT-07
2008-10-13,18.02625,11.7,23.93,0.22,06:51:00,18:18:00,America/Tijuana, GMT-07
2008-10-14,21.03375,15.55,28.68,0.19,06:52:00,18:17:00,America/Tijuana, GMT-07
2008-10-15,22.072083333333335,15.18,30.42,0.23,06:52:00,18:15:00,America/Tijuana, GMT-07
2008-10-16,20.89875,14.32,28.84,0.29,06:53:00,18:14:00,America/Tijuana, GMT-07
2008-10-17,21.790000000000003,16.11,28.12,0.34,06:54:00,18:13:00,America/Tijuana, GMT-07
2008-10-18,19.177083333333332,14.12,25.29,0.59,06:54:00,18:12:00,America/Tijuana, GMT-07
2008-10-19,16.971666666666664,13.91,21.62,0.75,06:55:00,18:11:00,America/Tijuana, GMT-07
2008-10-20,17.087083333333336,14.01,23.07,0.75,06:56:00,18:10:00,America/Tijuana, GMT-07
2008-10-21,16.795416666666668,11.77,23.34,0.73,06:57:00,18:09:00,America/Tijuana, GMT-07
2008-10-22,23.456666666666663,13.83,34.64,0.37,06:58:00,18:08:00,America/Tijuana, GMT-07
2008-10-23,24.321666666666673,18.06,33.54,0.12,06:58:00,18:07:00,America/Tijuana, GMT-07
2008-10-24,20.781666666666666,14.11,29.43,0.22,06:59:00,18:06:00,America/Tijuana, GMT-07
2008-10-25,19.641666666666666,13.62,29.03,0.37,07:00:00,18:05:00,America/Tijuana, GMT-07
2008-10-26,18.7436,11.8,29.72,0.53,07:01:00,17:04:00,America/Tijuana, GMT-08
2008-10-27,19.92916666666667,12.31,32.84,0.46,06:02:00,17:03:00,America/Tijuana, GMT-08
2008-10-28,23.12291666666667,15.73,32.77,0.37,06:02:00,17:02:00,America/Tijuana, GMT-08
2008-10-29,21.288333333333334,15.29,31.0,0.45,06:03:00,17:01:00,America/Tijuana, GMT-08
2008-10-30,20.985,14.31,28.47,0.51,06:04:00,17:00:00,America/Tijuana, GMT-08
2008-10-31,21.213749999999997,16.15,28.09,0.63,06:05:00,16:59:00,America/Tijuana, GMT-08
2008-11-01,21.823750000000004,17.08,29.13,0.5,06:06:00,16:58:00,America/Tijuana, GMT-08
2008-11-02,17.802916666666665,14.34,20.37,0.78,06:07:00,16:57:00,America/Tijuana, GMT-08
2008-11-03,15.61583333333333,12.39,19.35,0.76,06:08:00,16:56:00,America/Tijuana, GMT-08
2008-11-04,14.841666666666669,11.68,17.71,0.79,06:08:00,16:55:00,America/Tijuana, GMT-08
2008-11-05,14.41833333333333,9.23,20.7,0.68,06:09:00,16:55:00,America/Tijuana, GMT-08
2008-11-06,18.448749999999997,12.24,25.72,0.29,06:10:00,16:54:00,America/Tijuana, GMT-08
2008-11-07,20.104583333333334,13.64,28.25,0.3,06:11:00,16:53:00,America/Tijuana, GMT-08
2008-11-08,19.316666666666666,14.36,26.71,0.43,06:12:00,16:52:00,America/Tijuana, GMT-08
2008-11-09,14.747916666666669,12.19,16.34,0.76,06:13:00,16:52:00,America/Tijuana, GMT-08
2008-11-10,14.04916666666667,10.4,18.43,0.77,06:14:00,16:51:00,America/Tijuana, GMT-08
2008-11-11,14.382916666666672,9.15,20.93,0.75,06:15:00,16:50:00,America/Tijuana, GMT-08
2008-11-12,16.59,10.39,25.52,0.61,06:16:00,16:50:00,America/Tijuana, GMT-08
2008-11-13,18.706666666666667,12.94,26.57,0.54,06:17:00,16:49:00,America/Tijuana, GMT-08
2008-11-14,21.931250000000006,13.7,31.51,0.42,06:17:00,16:49:00,America/Tijuana, GMT-08
2008-11-15,23.660416666666666,16.56,31.55,0.17,06:18:00,16:48:00,America/Tijuana, GMT-08
2008-11-16,24.424166666666675,18.67,31.73,0.12,06:19:00,16:48:00,America/Tijuana, GMT-08
2008-11-17,22.26958333333333,16.97,31.18,0.19,06:20:00,16:47:00,America/Tijuana, GMT-08
2008-11-18,21.302083333333332,15.32,30.56,0.26,06:21:00,16:47:00,America/Tijuana, GMT-08
2008-11-19,18.530416666666667,12.89,27.17,0.52,06:22:00,16:46:00,America/Tijuana, GMT-08
2008-11-20,15.969583333333334,11.21,23.18,0.67,06:23:00,16:46:00,America/Tijuana, GMT-08
2008-11-21,18.74291666666667,13.08,27.02,0.47,06:24:00,16:46:00,America/Tijuana, GMT-08
2008-11-22,16.202916666666663,12.6,22.01,0.64,06:25:00,16:45:00,America/Tijuana, GMT-08
2008-11-23,14.697916666666666,11.76,19.41,0.78,06:26:00,16:45:00,America/Tijuana, GMT-08
2008-11-24,14.907916666666665,10.49,20.5,0.75,06:26:00,16:45:00,America/Tijuana, GMT-08
2008-11-25,18.2625,14.22,25.32,0.68,06:27:00,16:44:00,America/Tijuana, GMT-08
2008-11-26,16.320833333333336,14.0,20.02,0.84,06:28:00,16:44:00,America/Tijuana, GMT-08
2008-11-27,14.795833333333329,13.49,17.05,0.87,06:29:00,16:44:00,America/Tijuana, GMT-08
2008-11-28,14.75125,11.78,18.68,0.83,06:30:00,16:44:00,America/Tijuana, GMT-08
2008-11-29,14.426666666666664,9.83,20.5,0.81,06:31:00,16:44:00,America/Tijuana, GMT-08
2008-11-30,15.870833333333335,10.4,23.72,0.75,06:32:00,16:43:00,America/Tijuana, GMT-08
2008-12-01,15.121249999999998,11.11,21.31,0.77,06:33:00,16:43:00,America/Tijuana, GMT-08
2008-12-02,14.006250000000003,11.58,17.87,0.81,06:33:00,16:43:00,America/Tijuana, GMT-08
2008-12-03,14.667083333333332,12.15,19.3,0.74,06:34:00,16:43:00,America/Tijuana, GMT-08
2008-12-04,14.517083333333332,11.56,18.86,0.75,06:35:00,16:43:00,America/Tijuana, GMT-08
2008-12-05,15.722499999999998,10.63,24.13,0.64,06:36:00,16:43:00,America/Tijuana, GMT-08
2008-12-06,17.510416666666668,12.05,24.13,0.42,06:37:00,16:43:00,America/Tijuana, GMT-08
2008-12-07,15.680833333333334,13.65,17.39,0.78,06:37:00,16:44:00,America/Tijuana, GMT-08
2008-12-08,13.679583333333333,11.42,15.63,0.77,06:38:00,16:44:00,America/Tijuana, GMT-08
2008-12-09,14.95791666666667,9.63,21.42,0.42,06:39:00,16:44:00,America/Tijuana, GMT-08
2008-12-10,15.589999999999998,10.15,21.77,0.25,06:40:00,16:44:00,America/Tijuana, GMT-08
2008-12-11,15.226666666666665,9.79,22.76,0.44,06:40:00,16:44:00,America/Tijuana, GMT-08
2008-12-12,14.345833333333337,11.82,18.85,0.69,06:41:00,16:44:00,America/Tijuana, GMT-08
2008-12-13,12.987916666666669,11.28,14.4,0.75,06:42:00,16:45:00,America/Tijuana, GMT-08
2008-12-14,10.931666666666667,7.56,13.33,0.62,06:42:00,16:45:00,America/Tijuana, GMT-08
2008-12-15,10.625833333333333,7.69,12.64,0.84,06:43:00,16:45:00,America/Tijuana, GMT-08
2008-12-16,11.653333333333334,9.63,14.5,0.78,06:44:00,16:46:00,America/Tijuana, GMT-08
2008-12-17,10.302083333333334,9.37,11.61,0.88,06:44:00,16:46:00,America/Tijuana, GMT-08
2008-12-18,10.077916666666667,6.45,13.44,0.72,06:45:00,16:46:00,America/Tijuana, GMT-08
2008-12-19,8.595416666666667,4.39,14.15,0.71,06:45:00,16:47:00,America/Tijuana, GMT-08
2008-12-20,9.405833333333334,3.89,15.85,0.7,06:46:00,16:47:00,America/Tijuana, GMT-08
2008-12-21,10.617499999999998,5.58,16.76,0.66,06:46:00,16:48:00,America/Tijuana, GMT-08
2008-12-22,10.462916666666667,7.17,13.3,0.85,06:47:00,16:48:00,America/Tijuana, GMT-08
2008-12-23,10.481250000000001,7.39,13.38,0.73,06:47:00,16:49:00,America/Tijuana, GMT-08
2008-12-24,10.128333333333332,6.49,14.35,0.74,06:48:00,16:49:00,America/Tijuana, GMT-08
2008-12-25,12.122500000000002,9.18,14.87,0.84,06:48:00,16:50:00,America/Tijuana, GMT-08
2008-12-26,9.250416666666666,4.8,12.33,0.6,06:49:00,16:51:00,America/Tijuana, GMT-08
2008-12-27,8.680000000000001,3.86,14.67,0.46,06:49:00,16:51:00,America/Tijuana, GMT-08
2008-12-28,10.735,4.23,18.09,0.46,06:49:00,16:52:00,America/Tijuana, GMT-08
2008-12-29,13.70541666666667,8.12,21.68,0.49,06:50:00,16:52:00,America/Tijuana, GMT-08
2008-12-30,12.865,7.34,21.91,0.59,06:50:00,16:53:00,America/Tijuana, GMT-08
2008-12-31,11.704583333333332,6.51,19.36,0.69,06:50:00,16:54:00,America/Tijuana, GMT-08
