date,avg_temperature,min_temperature,max_temperature,humidity,sunrise_time,sunset_time,time_zone,gmt_zone
2010-01-01,23.39916666666667,19.7,28.83,0.87,06:37:00,17:30:00,America/Merida, GMT-06
2010-01-02,21.13458333333333,18.62,24.15,0.75,06:37:00,17:30:00,America/Merida, GMT-06
2010-01-03,20.92208333333333,18.58,23.92,0.77,06:37:00,17:31:00,America/Merida, GMT-06
2010-01-04,20.823333333333334,17.92,24.89,0.84,06:37:00,17:32:00,America/Merida, GMT-06
2010-01-05,19.258333333333333,16.86,21.72,0.72,06:38:00,17:32:00,America/Merida, GMT-06
2010-01-06,18.27583333333333,14.03,23.22,0.7,06:38:00,17:33:00,America/Merida, GMT-06
2010-01-07,21.053749999999994,16.36,26.99,0.67,06:38:00,17:34:00,America/Merida, GMT-06
2010-01-08,21.322499999999994,17.73,24.23,0.8,06:38:00,17:34:00,America/Merida, GMT-06
2010-01-09,17.142083333333336,15.36,20.81,0.96,06:38:00,17:35:00,America/Merida, GMT-06
2010-01-10,16.73625,15.06,18.83,0.68,06:39:00,17:36:00,America/Merida, GMT-06
2010-01-11,17.54666666666667,13.35,21.39,0.71,06:39:00,17:36:00,America/Merida, GMT-06
2010-01-12,17.735416666666666,13.25,21.69,0.79,06:39:00,17:37:00,America/Merida, GMT-06
2010-01-13,18.79833333333333,14.38,23.52,0.81,06:39:00,17:38:00,America/Merida, GMT-06
2010-01-14,20.119999999999994,16.11,24.27,0.75,06:39:00,17:38:00,America/Merida, GMT-06
2010-01-15,23.039583333333336,16.86,28.59,0.86,06:39:00,17:39:00,America/Merida, GMT-06
2010-01-16,21.73166666666666,17.28,24.33,0.93,06:39:00,17:40:00,America/Merida, GMT-06
2010-01-17,20.39625,15.34,25.6,0.81,06:39:00,17:40:00,America/Merida, GMT-06
2010-01-18,23.028333333333332,19.65,29.18,0.79,06:39:00,17:41:00,America/Merida, GMT-06
2010-01-19,25.2025,20.67,31.66,0.8,06:39:00,17:42:00,America/Merida, GMT-06
2010-01-20,25.891666666666666,21.05,32.38,0.8,06:39:00,17:42:00,America/Merida, GMT-06
2010-01-21,27.047083333333333,22.52,35.48,0.81,06:39:00,17:43:00,America/Merida, GMT-06
2010-01-22,26.210833333333337,21.86,35.22,0.81,06:39:00,17:44:00,America/Merida, GMT-06
2010-01-23,26.44333333333333,19.74,36.31,0.74,06:39:00,17:44:00,America/Merida, GMT-06
2010-01-24,27.08833333333334,20.72,37.26,0.74,06:39:00,17:45:00,America/Merida, GMT-06
2010-01-25,21.958750000000006,17.61,26.29,0.71,06:39:00,17:46:00,America/Merida, GMT-06
2010-01-26,20.855833333333333,15.78,28.14,0.72,06:38:00,17:46:00,America/Merida, GMT-06
2010-01-27,21.866250000000004,15.56,27.24,0.79,06:38:00,17:47:00,America/Merida, GMT-06
2010-01-28,24.754166666666674,19.14,31.13,0.75,06:38:00,17:48:00,America/Merida, GMT-06
2010-01-29,26.202916666666663,19.72,32.42,0.76,06:38:00,17:48:00,America/Merida, GMT-06
2010-01-30,24.925833333333333,21.11,31.29,0.88,06:37:00,17:49:00,America/Merida, GMT-06
2010-01-31,21.07625,19.15,22.74,0.93,06:37:00,17:50:00,America/Merida, GMT-06
2010-02-01,23.01125,20.04,26.34,0.92,06:37:00,17:50:00,America/Merida, GMT-06
2010-02-02,23.865416666666672,20.76,28.2,0.88,06:37:00,17:51:00,America/Merida, GMT-06
2010-02-03,25.87375,21.86,32.03,0.77,06:36:00,17:51:00,America/Merida, GMT-06
2010-02-04,26.717916666666657,20.73,33.44,0.76,06:36:00,17:52:00,America/Merida, GMT-06
2010-02-05,23.005416666666665,20.08,26.29,0.91,06:35:00,17:53:00,America/Merida, GMT-06
2010-02-06,21.35041666666667,17.56,26.29,0.76,06:35:00,17:53:00,America/Merida, GMT-06
2010-02-07,20.602916666666673,14.14,28.28,0.66,06:35:00,17:54:00,America/Merida, GMT-06
2010-02-08,23.548333333333332,16.56,31.36,0.73,06:34:00,17:54:00,America/Merida, GMT-06
2010-02-09,24.629166666666666,18.73,32.43,0.84,06:34:00,17:55:00,America/Merida, GMT-06
2010-02-10,22.382916666666663,20.79,24.16,0.77,06:33:00,17:55:00,America/Merida, GMT-06
2010-02-11,22.879166666666666,17.93,27.74,0.73,06:33:00,17:56:00,America/Merida, GMT-06
2010-02-12,22.145,18.67,25.92,0.8,06:32:00,17:57:00,America/Merida, GMT-06
2010-02-13,19.35875,13.86,23.4,0.6,06:32:00,17:57:00,America/Merida, GMT-06
2010-02-14,19.730000000000004,12.55,26.29,0.66,06:31:00,17:58:00,America/Merida, GMT-06
2010-02-15,20.319166666666664,16.11,24.34,0.84,06:31:00,17:58:00,America/Merida, GMT-06
2010-02-16,18.671666666666663,15.69,22.79,0.78,06:30:00,17:59:00,America/Merida, GMT-06
2010-02-17,18.030416666666664,14.05,21.68,0.78,06:29:00,17:59:00,America/Merida, GMT-06
2010-02-18,18.472916666666666,16.45,21.73,0.76,06:29:00,18:00:00,America/Merida, GMT-06
2010-02-19,19.707083333333326,16.39,24.21,0.9,06:28:00,18:00:00,America/Merida, GMT-06
2010-02-20,24.305416666666662,18.03,31.68,0.79,06:27:00,18:01:00,America/Merida, GMT-06
2010-02-21,27.160833333333333,20.69,33.43,0.75,06:27:00,18:01:00,America/Merida, GMT-06
2010-02-22,26.528333333333336,22.5,33.18,0.85,06:26:00,18:01:00,America/Merida, GMT-06
2010-02-23,25.044583333333335,22.19,31.67,0.83,06:25:00,18:02:00,America/Merida, GMT-06
2010-02-24,20.77380952380952,16.73,26.29,0.89,06:25:00,18:02:00,America/Merida, GMT-06
2010-02-25,18.855833333333326,15.41,22.75,0.58,06:24:00,18:03:00,America/Merida, GMT-06
2010-02-26,19.871249999999996,10.72,28.23,0.73,06:23:00,18:03:00,America/Merida, GMT-06
2010-02-27,21.23708333333333,16.58,25.91,0.73,06:22:00,18:04:00,America/Merida, GMT-06
2010-02-28,19.30958333333333,13.34,26.41,0.66,06:22:00,18:04:00,America/Merida, GMT-06
2010-03-01,24.216250000000002,14.49,34.18,0.65,06:21:00,18:04:00,America/Merida, GMT-06
2010-03-02,21.455000000000002,17.23,24.89,0.77,06:20:00,18:05:00,America/Merida, GMT-06
2010-03-03,18.74416666666666,14.43,24.11,0.62,06:19:00,18:05:00,America/Merida, GMT-06
2010-03-04,19.063750000000002,12.67,25.32,0.65,06:18:00,18:06:00,America/Merida, GMT-06
2010-03-05,20.843749999999996,15.17,27.78,0.68,06:18:00,18:06:00,America/Merida, GMT-06
2010-03-06,22.14791666666666,17.8,27.42,0.69,06:17:00,18:06:00,America/Merida, GMT-06
2010-03-07,22.25708333333333,17.55,29.33,0.62,06:16:00,18:07:00,America/Merida, GMT-06
2010-03-08,22.89625,15.73,30.61,0.65,06:15:00,18:07:00,America/Merida, GMT-06
2010-03-09,25.899166666666662,19.54,33.8,0.59,06:14:00,18:07:00,America/Merida, GMT-06
2010-03-10,27.105833333333333,21.04,37.37,0.68,06:13:00,18:08:00,America/Merida, GMT-06
2010-03-11,27.952083333333334,22.05,37.51,0.74,06:13:00,18:08:00,America/Merida, GMT-06
2010-03-12,24.312499999999996,19.76,28.18,0.78,06:12:00,18:08:00,America/Merida, GMT-06
2010-03-13,21.08791666666667,16.85,26.29,0.6,06:11:00,18:09:00,America/Merida, GMT-06
2010-03-14,21.86708333333333,12.73,31.31,0.58,06:10:00,18:09:00,America/Merida, GMT-06
2010-03-15,24.13625,18.03,32.35,0.68,06:09:00,18:09:00,America/Merida, GMT-06
2010-03-16,24.457083333333333,19.99,32.65,0.7,06:08:00,18:10:00,America/Merida, GMT-06
2010-03-17,20.30458333333333,17.28,24.14,0.82,06:07:00,18:10:00,America/Merida, GMT-06
2010-03-18,19.902083333333337,14.33,26.29,0.69,06:06:00,18:10:00,America/Merida, GMT-06
2010-03-19,20.84583333333333,13.43,30.1,0.61,06:05:00,18:10:00,America/Merida, GMT-06
2010-03-20,26.51333333333334,17.72,35.26,0.66,06:04:00,18:11:00,America/Merida, GMT-06
2010-03-21,21.81083333333333,17.23,26.01,0.75,06:04:00,18:11:00,America/Merida, GMT-06
2010-03-22,19.606666666666662,16.51,24.15,0.62,06:03:00,18:11:00,America/Merida, GMT-06
2010-03-23,21.272499999999997,14.09,30.3,0.62,06:02:00,18:12:00,America/Merida, GMT-06
2010-03-24,26.143749999999997,17.6,35.23,0.66,06:01:00,18:12:00,America/Merida, GMT-06
2010-03-25,28.29125,23.59,36.94,0.74,06:00:00,18:12:00,America/Merida, GMT-06
2010-03-26,24.627916666666668,22.17,28.44,0.87,05:59:00,18:12:00,America/Merida, GMT-06
2010-03-27,28.124999999999996,21.66,36.52,0.73,05:58:00,18:13:00,America/Merida, GMT-06
2010-03-28,27.396666666666672,22.72,35.31,0.77,05:57:00,18:13:00,America/Merida, GMT-06
2010-03-29,21.925416666666667,18.31,24.93,0.67,05:56:00,18:13:00,America/Merida, GMT-06
2010-03-30,21.287499999999998,15.5,28.82,0.65,05:55:00,18:14:00,America/Merida, GMT-06
2010-03-31,24.42958333333333,17.93,32.55,0.66,05:54:00,18:14:00,America/Merida, GMT-06
2010-04-01,25.92124999999999,18.58,34.54,0.64,05:53:00,18:14:00,America/Merida, GMT-06
2010-04-02,28.722916666666666,21.86,36.66,0.69,05:53:00,18:15:00,America/Merida, GMT-06
2010-04-03,27.79541666666667,24.34,35.67,0.75,05:52:00,18:15:00,America/Merida, GMT-06
2010-04-04,27.57608695652174,21.94,35.6,0.69,05:51:00,19:15:00,America/Merida, GMT-05
2010-04-05,26.33749999999999,21.07,32.75,0.69,06:50:00,19:15:00,America/Merida, GMT-05
2010-04-06,27.29583333333333,19.69,35.61,0.63,06:49:00,19:16:00,America/Merida, GMT-05
2010-04-07,28.794999999999998,21.53,36.7,0.64,06:48:00,19:16:00,America/Merida, GMT-05
2010-04-08,29.206666666666667,25.04,36.3,0.72,06:47:00,19:16:00,America/Merida, GMT-05
2010-04-09,28.427500000000006,24.63,34.54,0.77,06:46:00,19:17:00,America/Merida, GMT-05
2010-04-10,28.54125,24.7,35.25,0.71,06:46:00,19:17:00,America/Merida, GMT-05
2010-04-11,26.92874999999999,22.54,34.18,0.73,06:45:00,19:17:00,America/Merida, GMT-05
2010-04-12,26.33583333333333,23.23,32.05,0.8,06:44:00,19:18:00,America/Merida, GMT-05
2010-04-13,23.967499999999998,20.73,27.09,0.9,06:43:00,19:18:00,America/Merida, GMT-05
2010-04-14,24.157083333333336,20.73,31.35,0.88,06:42:00,19:18:00,America/Merida, GMT-05
2010-04-15,26.11916666666667,20.3,34.17,0.8,06:41:00,19:19:00,America/Merida, GMT-05
2010-04-16,24.989583333333332,21.49,32.12,0.86,06:41:00,19:19:00,America/Merida, GMT-05
2010-04-17,23.498333333333335,19.01,29.91,0.88,06:40:00,19:19:00,America/Merida, GMT-05
2010-04-18,24.134166666666662,19.67,29.52,0.83,06:39:00,19:20:00,America/Merida, GMT-05
2010-04-19,24.757499999999997,20.79,31.28,0.77,06:38:00,19:20:00,America/Merida, GMT-05
2010-04-20,25.141666666666662,20.38,31.69,0.8,06:37:00,19:20:00,America/Merida, GMT-05
2010-04-21,25.885000000000005,22.47,31.87,0.84,06:37:00,19:21:00,America/Merida, GMT-05
2010-04-22,29.127083333333342,22.92,36.35,0.74,06:36:00,19:21:00,America/Merida, GMT-05
2010-04-23,30.726249999999997,25.74,37.76,0.67,06:35:00,19:21:00,America/Merida, GMT-05
2010-04-24,31.159166666666664,23.9,39.72,0.65,06:34:00,19:22:00,America/Merida, GMT-05
2010-04-25,31.558749999999993,26.53,39.16,0.65,06:34:00,19:22:00,America/Merida, GMT-05
2010-04-26,27.04565217391304,23.6,32.28,0.76,06:33:00,19:22:00,America/Merida, GMT-05
2010-04-27,26.442083333333333,20.61,34.92,0.75,06:32:00,19:23:00,America/Merida, GMT-05
2010-04-28,26.472916666666663,23.21,31.36,0.81,06:32:00,19:23:00,America/Merida, GMT-05
2010-04-29,30.26166666666666,24.61,37.38,0.76,06:31:00,19:24:00,America/Merida, GMT-05
2010-04-30,31.080416666666668,26.81,36.39,0.74,06:30:00,19:24:00,America/Merida, GMT-05
2010-05-01,32.19583333333333,26.52,39.51,0.69,06:30:00,19:24:00,America/Merida, GMT-05
2010-05-02,32.05772727272727,28.27,39.26,0.67,06:29:00,19:25:00,America/Merida, GMT-05
2010-05-03,30.700833333333332,27.89,35.82,0.77,06:29:00,19:25:00,America/Merida, GMT-05
2010-05-04,30.183913043478263,26.09,36.96,0.75,06:28:00,19:26:00,America/Merida, GMT-05
2010-05-05,30.07190476190476,25.74,37.95,0.72,06:27:00,19:26:00,America/Merida, GMT-05
2010-05-06,30.767083333333336,24.67,38.17,0.7,06:27:00,19:26:00,America/Merida, GMT-05
2010-05-07,31.096666666666675,24.35,38.13,0.65,06:26:00,19:27:00,America/Merida, GMT-05
2010-05-08,30.300416666666663,23.69,37.9,0.7,06:26:00,19:27:00,America/Merida, GMT-05
2010-05-09,29.214166666666667,23.81,36.35,0.71,06:25:00,19:28:00,America/Merida, GMT-05
2010-05-10,29.572083333333335,23.49,37.72,0.67,06:25:00,19:28:00,America/Merida, GMT-05
2010-05-11,30.544999999999998,23.53,38.46,0.58,06:24:00,19:29:00,America/Merida, GMT-05
2010-05-12,30.263333333333332,22.99,37.38,0.61,06:24:00,19:29:00,America/Merida, GMT-05
2010-05-13,30.027083333333334,23.57,36.35,0.63,06:23:00,19:29:00,America/Merida, GMT-05
2010-05-14,30.286666666666672,24.62,36.29,0.66,06:23:00,19:30:00,America/Merida, GMT-05
2010-05-15,30.635000000000005,24.29,37.7,0.67,06:23:00,19:30:00,America/Merida, GMT-05
2010-05-16,28.671666666666663,24.58,37.02,0.8,06:22:00,19:31:00,America/Merida, GMT-05
2010-05-17,26.544583333333332,22.22,34.03,0.86,06:22:00,19:31:00,America/Merida, GMT-05
2010-05-18,26.161249999999995,23.32,31.77,0.9,06:21:00,19:32:00,America/Merida, GMT-05
2010-05-19,26.150416666666672,22.71,30.75,0.89,06:21:00,19:32:00,America/Merida, GMT-05
2010-05-20,27.907916666666665,23.72,34.25,0.84,06:21:00,19:33:00,America/Merida, GMT-05
2010-05-21,28.69916666666666,24.68,33.19,0.87,06:20:00,19:33:00,America/Merida, GMT-05
2010-05-22,27.987083333333334,25.27,35.6,0.89,06:20:00,19:33:00,America/Merida, GMT-05
2010-05-23,28.467916666666667,24.06,34.24,0.8,06:20:00,19:34:00,America/Merida, GMT-05
2010-05-24,28.829130434782616,23.64,35.93,0.75,06:20:00,19:34:00,America/Merida, GMT-05
2010-05-25,28.386666666666667,24.12,34.35,0.78,06:19:00,19:35:00,America/Merida, GMT-05
2010-05-26,27.878749999999993,23.89,33.97,0.79,06:19:00,19:35:00,America/Merida, GMT-05
2010-05-27,27.665000000000003,22.83,34.17,0.76,06:19:00,19:36:00,America/Merida, GMT-05
2010-05-28,27.926666666666673,22.67,33.59,0.76,06:19:00,19:36:00,America/Merida, GMT-05
2010-05-29,28.345,22.7,35.05,0.74,06:19:00,19:36:00,America/Merida, GMT-05
2010-05-30,27.944999999999997,23.71,36,0.83,06:18:00,19:37:00,America/Merida, GMT-05
2010-05-31,29.07875,24.38,35.26,0.8,06:18:00,19:37:00,America/Merida, GMT-05
2010-06-01,29.450416666666666,23.71,35.97,0.82,06:18:00,19:38:00,America/Merida, GMT-05
2010-06-02,30.578695652173916,25.42,37.29,0.77,06:18:00,19:38:00,America/Merida, GMT-05
2010-06-03,31.192083333333333,25.6,38.05,0.76,06:18:00,19:38:00,America/Merida, GMT-05
2010-06-04,31.95125,27.19,37.13,0.74,06:18:00,19:39:00,America/Merida, GMT-05
2010-06-05,30.993333333333336,26.85,37.81,0.79,06:18:00,19:39:00,America/Merida, GMT-05
2010-06-06,31.828749999999996,27.56,38.95,0.7,06:18:00,19:40:00,America/Merida, GMT-05
2010-06-07,31.05,24.73,38.62,0.72,06:18:00,19:40:00,America/Merida, GMT-05
2010-06-08,30.91791666666667,25.65,38.14,0.71,06:18:00,19:40:00,America/Merida, GMT-05
2010-06-09,30.302083333333332,25.67,37.84,0.74,06:18:00,19:41:00,America/Merida, GMT-05
2010-06-10,29.202500000000004,24.65,37.26,0.81,06:18:00,19:41:00,America/Merida, GMT-05
2010-06-11,30.75541666666666,25.67,36.65,0.73,06:18:00,19:41:00,America/Merida, GMT-05
2010-06-12,29.65958333333334,25.63,36.44,0.78,06:18:00,19:42:00,America/Merida, GMT-05
2010-06-13,28.633750000000003,25.12,36,0.83,06:18:00,19:42:00,America/Merida, GMT-05
2010-06-14,28.034782608695654,25.26,36.7,0.87,06:18:00,19:42:00,America/Merida, GMT-05
2010-06-15,28.846818181818183,25.63,33.4,0.88,06:18:00,19:42:00,America/Merida, GMT-05
2010-06-16,28.991304347826084,25.66,33.03,0.84,06:18:00,19:43:00,America/Merida, GMT-05
2010-06-17,29.74875,25.19,37.05,0.8,06:19:00,19:43:00,America/Merida, GMT-05
2010-06-18,29.756249999999994,24.29,36,0.76,06:19:00,19:43:00,America/Merida, GMT-05
2010-06-19,29.594166666666666,25.18,35.83,0.79,06:19:00,19:43:00,America/Merida, GMT-05
2010-06-20,29.04666666666667,25.42,35.66,0.8,06:19:00,19:44:00,America/Merida, GMT-05
2010-06-21,29.699583333333333,25.42,36.1,0.8,06:19:00,19:44:00,America/Merida, GMT-05
2010-06-22,28.38708333333334,25.31,34.42,0.85,06:19:00,19:44:00,America/Merida, GMT-05
2010-06-23,28.815217391304348,25.38,34.59,0.87,06:20:00,19:44:00,America/Merida, GMT-05
2010-06-24,29.018333333333334,25.27,34.76,0.84,06:20:00,19:44:00,America/Merida, GMT-05
2010-06-25,28.595909090909092,26.1,33.01,0.88,06:20:00,19:45:00,America/Merida, GMT-05
2010-06-26,28.03208333333333,25.7,32,0.92,06:20:00,19:45:00,America/Merida, GMT-05
2010-06-27,27.04625,25.25,30.31,0.93,06:21:00,19:45:00,America/Merida, GMT-05
2010-06-28,25.834583333333338,24.02,27.16,0.99,06:21:00,19:45:00,America/Merida, GMT-05
2010-06-29,26.68958333333333,23.01,33.43,0.96,06:21:00,19:45:00,America/Merida, GMT-05
2010-06-30,27.719999999999995,23.63,34.66,0.9,06:21:00,19:45:00,America/Merida, GMT-05
2010-07-01,30.165833333333328,25.78,35.73,0.76,06:22:00,19:45:00,America/Merida, GMT-05
2010-07-02,29.61791666666667,26.1,34.05,0.83,06:22:00,19:45:00,America/Merida, GMT-05
2010-07-03,28.211249999999996,24.37,34.71,0.83,06:22:00,19:45:00,America/Merida, GMT-05
2010-07-04,27.520476190476188,23.93,34.28,0.87,06:23:00,19:45:00,America/Merida, GMT-05
2010-07-05,28.405714285714286,23.64,33.15,0.84,06:23:00,19:45:00,America/Merida, GMT-05
2010-07-06,26.492083333333326,24.01,28.68,0.94,06:23:00,19:45:00,America/Merida, GMT-05
2010-07-07,25.181249999999995,22.26,29.42,0.98,06:24:00,19:45:00,America/Merida, GMT-05
2010-07-08,27.88333333333333,22.72,32.78,0.87,06:24:00,19:45:00,America/Merida, GMT-05
2010-07-09,26.617083333333326,23.55,33.15,0.92,06:24:00,19:45:00,America/Merida, GMT-05
2010-07-10,26.912500000000005,23.27,34.3,0.9,06:25:00,19:45:00,America/Merida, GMT-05
2010-07-11,28.223750000000006,23.7,34.25,0.81,06:25:00,19:45:00,America/Merida, GMT-05
2010-07-12,28.21208333333333,23.64,34.29,0.85,06:25:00,19:45:00,America/Merida, GMT-05
2010-07-13,28.634583333333335,25.08,34.56,0.85,06:26:00,19:45:00,America/Merida, GMT-05
2010-07-14,28.870833333333326,24.7,34.6,0.82,06:26:00,19:44:00,America/Merida, GMT-05
2010-07-15,28.357083333333332,24.34,32.87,0.8,06:27:00,19:44:00,America/Merida, GMT-05
2010-07-16,27.388333333333325,24.38,32.31,0.86,06:27:00,19:44:00,America/Merida, GMT-05
2010-07-17,26.663750000000004,23.56,32.24,0.91,06:27:00,19:44:00,America/Merida, GMT-05
2010-07-18,26.6875,23.56,31.94,0.91,06:28:00,19:44:00,America/Merida, GMT-05
2010-07-19,26.867916666666673,23.23,33.17,0.89,06:28:00,19:43:00,America/Merida, GMT-05
2010-07-20,27.140416666666663,24.65,32.16,0.91,06:29:00,19:43:00,America/Merida, GMT-05
2010-07-21,26.022499999999997,24.65,28.6,0.96,06:29:00,19:43:00,America/Merida, GMT-05
2010-07-22,27.89208333333333,24.67,32.45,0.89,06:29:00,19:42:00,America/Merida, GMT-05
2010-07-23,28.029583333333335,25.02,32.75,0.87,06:30:00,19:42:00,America/Merida, GMT-05
2010-07-24,28.59875,25,34.19,0.85,06:30:00,19:42:00,America/Merida, GMT-05
2010-07-25,27.62333333333333,25.06,34.03,0.87,06:31:00,19:41:00,America/Merida, GMT-05
2010-07-26,26.124583333333337,23.6,29.2,0.89,06:31:00,19:41:00,America/Merida, GMT-05
2010-07-27,28.772916666666664,24.38,34.14,0.82,06:31:00,19:41:00,America/Merida, GMT-05
2010-07-28,28.89458333333333,24.6,34.64,0.82,06:32:00,19:40:00,America/Merida, GMT-05
2010-07-29,28.290833333333335,24.7,33.21,0.84,06:32:00,19:40:00,America/Merida, GMT-05
2010-07-30,28.546249999999997,24.7,33.57,0.82,06:33:00,19:39:00,America/Merida, GMT-05
2010-07-31,28.613043478260867,24.27,33.65,0.79,06:33:00,19:39:00,America/Merida, GMT-05
2010-08-01,28.840833333333332,24.58,33.54,0.81,06:33:00,19:38:00,America/Merida, GMT-05
2010-08-02,27.75916666666667,24.25,33.14,0.86,06:34:00,19:38:00,America/Merida, GMT-05
2010-08-03,28.41416666666666,24.11,33.49,0.83,06:34:00,19:37:00,America/Merida, GMT-05
2010-08-04,28.377916666666668,23.62,33.16,0.81,06:35:00,19:37:00,America/Merida, GMT-05
2010-08-05,28.52958333333334,24.64,33.86,0.82,06:35:00,19:36:00,America/Merida, GMT-05
2010-08-06,28.90416666666667,24.34,34.66,0.81,06:35:00,19:36:00,America/Merida, GMT-05
2010-08-07,27.752500000000012,24.66,33.57,0.87,06:36:00,19:35:00,America/Merida, GMT-05
2010-08-08,28.5275,24.34,34.73,0.86,06:36:00,19:34:00,America/Merida, GMT-05
2010-08-09,28.475000000000005,25.4,34.28,0.87,06:36:00,19:34:00,America/Merida, GMT-05
2010-08-10,28.45909090909091,23.32,33.33,0.82,06:37:00,19:33:00,America/Merida, GMT-05
2010-08-11,28.64125,24.07,34.95,0.8,06:37:00,19:33:00,America/Merida, GMT-05
2010-08-12,29.312916666666666,24.68,35.51,0.82,06:37:00,19:32:00,America/Merida, GMT-05
2010-08-13,30.13,24.72,36.68,0.79,06:38:00,19:31:00,America/Merida, GMT-05
2010-08-14,29.644166666666674,25.26,36.65,0.81,06:38:00,19:31:00,America/Merida, GMT-05
2010-08-15,28.10916666666667,23.2,36.82,0.88,06:39:00,19:30:00,America/Merida, GMT-05
2010-08-16,27.2475,23.01,35.16,0.89,06:39:00,19:29:00,America/Merida, GMT-05
2010-08-17,26.880416666666665,23.3,33.49,0.88,06:39:00,19:28:00,America/Merida, GMT-05
2010-08-18,27.44291666666666,23.03,34.59,0.85,06:39:00,19:28:00,America/Merida, GMT-05
2010-08-19,27.618749999999995,24.61,34.25,0.87,06:40:00,19:27:00,America/Merida, GMT-05
2010-08-20,26.4075,24.01,31.69,0.89,06:40:00,19:26:00,America/Merida, GMT-05
2010-08-21,28.337500000000006,24,34.85,0.84,06:40:00,19:25:00,America/Merida, GMT-05
2010-08-22,28.616666666666667,24.38,34.16,0.83,06:41:00,19:25:00,America/Merida, GMT-05
2010-08-23,28.11363636363636,22.48,34.2,0.8,06:41:00,19:24:00,America/Merida, GMT-05
2010-08-24,26.307391304347835,23.72,30.99,0.9,06:41:00,19:23:00,America/Merida, GMT-05
2010-08-25,26.71416666666666,24.35,32.54,0.92,06:42:00,19:22:00,America/Merida, GMT-05
2010-08-26,27.139583333333334,24.38,33.15,0.91,06:42:00,19:21:00,America/Merida, GMT-05
2010-08-27,27.7525,24.02,33.85,0.87,06:42:00,19:20:00,America/Merida, GMT-05
2010-08-28,26.9725,24.34,32.57,0.91,06:42:00,19:20:00,America/Merida, GMT-05
2010-08-29,27.50375,24.02,34.3,0.9,06:43:00,19:19:00,America/Merida, GMT-05
2010-08-30,28.079583333333332,24.64,34.26,0.9,06:43:00,19:18:00,America/Merida, GMT-05
2010-08-31,28.45782608695652,24.66,34.34,0.88,06:43:00,19:17:00,America/Merida, GMT-05
2010-09-01,27.11791666666667,23.57,32.49,0.87,06:43:00,19:16:00,America/Merida, GMT-05
2010-09-02,27.498749999999998,23.2,34.32,0.84,06:44:00,19:15:00,America/Merida, GMT-05
2010-09-03,28.14272727272727,24.34,34,0.88,06:44:00,19:14:00,America/Merida, GMT-05
2010-09-04,29.805714285714284,25.66,34.49,0.81,06:44:00,19:13:00,America/Merida, GMT-05
2010-09-05,28.410526315789472,24.71,33.31,0.86,06:44:00,19:12:00,America/Merida, GMT-05
2010-09-06,29.123333333333342,24.64,34.25,0.79,06:45:00,19:12:00,America/Merida, GMT-05
2010-09-07,29.5675,25.25,35.26,0.79,06:45:00,19:11:00,America/Merida, GMT-05
2010-09-08,28.188750000000002,24.37,34.31,0.83,06:45:00,19:10:00,America/Merida, GMT-05
2010-09-09,27.305833333333336,22.41,34.22,0.85,06:45:00,19:09:00,America/Merida, GMT-05
2010-09-10,27.347727272727276,22.67,33.86,0.83,06:46:00,19:08:00,America/Merida, GMT-05
2010-09-11,27.86952380952381,23.57,33.28,0.84,06:46:00,19:07:00,America/Merida, GMT-05
2010-09-12,28.692499999999995,25.26,33.42,0.85,06:46:00,19:06:00,America/Merida, GMT-05
2010-09-13,28.580833333333334,26.05,32.77,0.86,06:46:00,19:05:00,America/Merida, GMT-05
2010-09-14,27.739166666666662,23.78,31.36,0.86,06:47:00,19:04:00,America/Merida, GMT-05
2010-09-15,27.424166666666675,25.45,32.41,0.92,06:47:00,19:03:00,America/Merida, GMT-05
2010-09-16,26.572916666666668,24.71,31.33,0.94,06:47:00,19:02:00,America/Merida, GMT-05
2010-09-17,28.089583333333326,24.72,33.11,0.87,06:47:00,19:01:00,America/Merida, GMT-05
2010-09-18,27.509047619047617,23.71,34.07,0.86,06:47:00,19:00:00,America/Merida, GMT-05
2010-09-19,25.988095238095237,23.65,32.24,0.89,06:48:00,18:59:00,America/Merida, GMT-05
2010-09-20,27.146249999999995,23.69,31.35,0.89,06:48:00,18:58:00,America/Merida, GMT-05
2010-09-21,26.59541666666667,23.25,31.73,0.87,06:48:00,18:57:00,America/Merida, GMT-05
2010-09-22,26.479583333333323,23.96,31.42,0.91,06:48:00,18:56:00,America/Merida, GMT-05
2010-09-23,26.67083333333333,22.87,33.51,0.9,06:49:00,18:55:00,America/Merida, GMT-05
2010-09-24,27.515454545454542,24,32.52,0.88,06:49:00,18:54:00,America/Merida, GMT-05
2010-09-25,26.256249999999998,24.19,31.31,0.94,06:49:00,18:53:00,America/Merida, GMT-05
2010-09-26,26.72916666666666,24.33,29.99,0.92,06:49:00,18:52:00,America/Merida, GMT-05
2010-09-27,27.35291666666667,24.49,31.72,0.85,06:50:00,18:51:00,America/Merida, GMT-05
2010-09-28,27.964999999999993,25.09,32.09,0.87,06:50:00,18:51:00,America/Merida, GMT-05
2010-09-29,27.507500000000004,23.81,30.86,0.8,06:50:00,18:50:00,America/Merida, GMT-05
2010-09-30,26.812083333333337,22.52,30.96,0.77,06:50:00,18:49:00,America/Merida, GMT-05
2010-10-01,26.273749999999996,21.89,29.93,0.74,06:51:00,18:48:00,America/Merida, GMT-05
2010-10-02,25.734583333333344,20.89,30.34,0.75,06:51:00,18:47:00,America/Merida, GMT-05
2010-10-03,26.010000000000005,21.21,29.74,0.76,06:51:00,18:46:00,America/Merida, GMT-05
2010-10-04,25.78333333333333,22.28,29.15,0.79,06:51:00,18:45:00,America/Merida, GMT-05
2010-10-05,24.976086956521737,21.8,28.58,0.79,06:52:00,18:44:00,America/Merida, GMT-05
2010-10-06,24.48913043478261,20.45,28.66,0.73,06:52:00,18:43:00,America/Merida, GMT-05
2010-10-07,24.492500000000003,20.18,29.45,0.76,06:52:00,18:42:00,America/Merida, GMT-05
2010-10-08,24.85304347826087,19.09,29.35,0.73,06:52:00,18:41:00,America/Merida, GMT-05
2010-10-09,22.96789473684211,16.71,29.26,0.79,06:53:00,18:41:00,America/Merida, GMT-05
2010-10-10,24.720416666666665,18.98,30.38,0.72,06:53:00,18:40:00,America/Merida, GMT-05
2010-10-11,24.96416666666666,19.69,31.73,0.69,06:53:00,18:39:00,America/Merida, GMT-05
2010-10-12,24.849166666666665,19.87,30.62,0.75,06:54:00,18:38:00,America/Merida, GMT-05
2010-10-13,25.56590909090909,22.72,29.29,0.85,06:54:00,18:37:00,America/Merida, GMT-05
2010-10-14,25.150000000000006,21.72,29.28,0.79,06:54:00,18:36:00,America/Merida, GMT-05
2010-10-15,24.667142857142863,18.7,29.93,0.74,06:55:00,18:36:00,America/Merida, GMT-05
2010-10-16,24.543333333333337,20.14,29.21,0.72,06:55:00,18:35:00,America/Merida, GMT-05
2010-10-17,24.120416666666667,19.14,28.91,0.75,06:55:00,18:34:00,America/Merida, GMT-05
2010-10-18,24.94333333333333,19.4,30.69,0.73,06:56:00,18:33:00,America/Merida, GMT-05
2010-10-19,25.020434782608692,20.64,30.59,0.79,06:56:00,18:32:00,America/Merida, GMT-05
2010-10-20,25.541250000000005,21.24,31.37,0.78,06:57:00,18:32:00,America/Merida, GMT-05
2010-10-21,25.50458333333334,21.52,30.28,0.74,06:57:00,18:31:00,America/Merida, GMT-05
2010-10-22,24.888260869565215,17.86,32.28,0.72,06:57:00,18:30:00,America/Merida, GMT-05
2010-10-23,26.189411764705877,19.72,33.33,0.71,06:58:00,18:30:00,America/Merida, GMT-05
2010-10-24,26.40875,22.72,33.48,0.81,06:58:00,18:29:00,America/Merida, GMT-05
2010-10-25,25.8004347826087,22.65,31.76,0.85,06:59:00,18:28:00,America/Merida, GMT-05
2010-10-26,26.78,23.71,31.28,0.83,06:59:00,18:28:00,America/Merida, GMT-05
2010-10-27,28.60347826086957,24.65,34.41,0.75,07:00:00,18:27:00,America/Merida, GMT-05
2010-10-28,27.4235,23.72,34.27,0.78,07:00:00,18:26:00,America/Merida, GMT-05
2010-10-29,26.755714285714287,23.64,31.28,0.81,07:00:00,18:26:00,America/Merida, GMT-05
2010-10-30,25.68571428571429,22.83,32.12,0.85,07:01:00,18:25:00,America/Merida, GMT-05
2010-10-31,25.7805,21.77,32.16,0.84,07:01:00,17:25:00,America/Merida, GMT-06
2010-11-01,26.404000000000003,,,,06:02:00,17:24:00,America/Merida, GMT-06
2010-11-02,26.197647058823527,21.72,31.42,0.79,06:02:00,17:24:00,America/Merida, GMT-06
2010-11-03,25.992380952380948,20.58,32.28,0.76,06:03:00,17:23:00,America/Merida, GMT-06
2010-11-04,23.651428571428575,20.71,28.29,0.7,06:04:00,17:23:00,America/Merida, GMT-06
2010-11-05,21.573478260869567,16.71,25.4,0.69,06:04:00,17:22:00,America/Merida, GMT-06
2010-11-06,20.717826086956524,16.67,26.3,0.69,06:05:00,17:22:00,America/Merida, GMT-06
2010-11-07,21.74636363636364,13.94,26.35,0.64,06:05:00,17:21:00,America/Merida, GMT-06
2010-11-08,21.5204347826087,14.58,28.28,0.67,06:06:00,17:21:00,America/Merida, GMT-06
2010-11-09,22.282608695652176,15.7,28.37,0.62,06:06:00,17:21:00,America/Merida, GMT-06
2010-11-10,22.946086956521743,16.66,31.28,0.71,06:07:00,17:20:00,America/Merida, GMT-06
2010-11-11,24.32260869565218,18.6,30.35,0.67,06:07:00,17:20:00,America/Merida, GMT-06
2010-11-12,25.01347826086957,20.72,31.38,0.6,06:08:00,17:20:00,America/Merida, GMT-06
2010-11-13,23.16666666666667,17.73,29.27,0.75,06:09:00,17:19:00,America/Merida, GMT-06
2010-11-14,23.50904761904762,16.75,31.28,0.74,06:09:00,17:19:00,America/Merida, GMT-06
2010-11-15,23.62222222222222,17.57,30.29,0.75,06:10:00,17:19:00,America/Merida, GMT-06
2010-11-16,25.523478260869563,19.58,33.43,0.71,06:10:00,17:18:00,America/Merida, GMT-06
2010-11-17,25.184500000000003,19.66,32.27,0.75,06:11:00,17:18:00,America/Merida, GMT-06
2010-11-18,26.126500000000004,22.51,30.27,0.81,06:12:00,17:18:00,America/Merida, GMT-06
2010-11-19,24.84,22.65,28.28,0.71,06:12:00,17:18:00,America/Merida, GMT-06
2010-11-20,24.999444444444446,21.5,31.28,0.66,06:13:00,17:18:00,America/Merida, GMT-06
2010-11-21,24.62777777777778,20.64,32.27,0.78,06:14:00,17:18:00,America/Merida, GMT-06
2010-11-22,24.781000000000002,21.58,30.27,0.79,06:14:00,17:18:00,America/Merida, GMT-06
2010-11-23,25.552000000000003,21.7,32.52,0.77,06:15:00,17:17:00,America/Merida, GMT-06
2010-11-24,24.978500000000004,20.65,31,0.75,06:15:00,17:17:00,America/Merida, GMT-06
2010-11-25,24.74625,19.57,32.27,0.78,06:16:00,17:17:00,America/Merida, GMT-06
2010-11-26,25.26,20.65,33.22,0.77,06:17:00,17:17:00,America/Merida, GMT-06
2010-11-27,24.196842105263162,20.53,31.17,0.84,06:17:00,17:17:00,America/Merida, GMT-06
2010-11-28,24.574500000000008,20.65,29.49,0.8,06:18:00,17:17:00,America/Merida, GMT-06
2010-11-29,25.53888888888889,20.66,32.28,0.77,06:19:00,17:17:00,America/Merida, GMT-06
2010-11-30,25.1495,20.65,32.28,0.76,06:19:00,17:18:00,America/Merida, GMT-06
2010-12-01,22.817619047619047,20.65,25.26,0.72,06:20:00,17:18:00,America/Merida, GMT-06
2010-12-02,21.90368421052632,18.72,26.23,0.66,06:21:00,17:18:00,America/Merida, GMT-06
2010-12-03,20.995263157894737,13.73,27.29,0.61,06:21:00,17:18:00,America/Merida, GMT-06
2010-12-04,20.082500000000003,12.44,27.26,0.68,06:22:00,17:18:00,America/Merida, GMT-06
2010-12-05,20.983333333333334,14.13,27.33,0.63,06:23:00,17:18:00,America/Merida, GMT-06
2010-12-06,18.534736842105264,12.79,23.32,0.84,06:23:00,17:18:00,America/Merida, GMT-06
2010-12-07,20.129000000000005,15.68,25.37,0.71,06:24:00,17:19:00,America/Merida, GMT-06
2010-12-08,19.70611111111111,12.64,28.28,0.68,06:24:00,17:19:00,America/Merida, GMT-06
2010-12-09,20.8305,15.59,26.27,0.71,06:25:00,17:19:00,America/Merida, GMT-06
2010-12-10,18.659999999999997,11.81,26.19,0.72,06:26:00,17:19:00,America/Merida, GMT-06
2010-12-11,20.761000000000003,12.5,28.34,0.59,06:26:00,17:20:00,America/Merida, GMT-06
2010-12-12,19.94,12.36,28.08,0.74,06:27:00,17:20:00,America/Merida, GMT-06
2010-12-13,18.986666666666668,13.67,22.51,0.62,06:27:00,17:20:00,America/Merida, GMT-06
2010-12-14,18.236818181818183,14.72,23.24,0.66,06:28:00,17:21:00,America/Merida, GMT-06
2010-12-15,17.89619047619048,9.68,25.26,0.69,06:29:00,17:21:00,America/Merida, GMT-06
2010-12-16,20.365555555555556,12.73,29.27,0.71,06:29:00,17:21:00,America/Merida, GMT-06
2010-12-17,22.091363636363635,14.72,30.54,0.68,06:30:00,17:22:00,America/Merida, GMT-06
2010-12-18,21.964285714285715,14.72,29.27,0.74,06:30:00,17:22:00,America/Merida, GMT-06
2010-12-19,20.055555555555554,14.53,27.37,0.8,06:31:00,17:23:00,America/Merida, GMT-06
2010-12-20,18.984210526315785,9.68,29.27,0.77,06:31:00,17:23:00,America/Merida, GMT-06
2010-12-21,21.20789473684211,14.72,30.63,0.69,06:32:00,17:24:00,America/Merida, GMT-06
2010-12-22,22.062500000000007,16.55,30.16,0.7,06:32:00,17:24:00,America/Merida, GMT-06
2010-12-23,21.75111111111111,17.72,27.27,0.76,06:33:00,17:25:00,America/Merida, GMT-06
2010-12-24,21.876875,19.65,23.27,0.84,06:33:00,17:25:00,America/Merida, GMT-06
2010-12-25,20.97625,18.59,21.32,0.86,06:34:00,17:26:00,America/Merida, GMT-06
2010-12-26,19.549545454545456,17.6,22.29,0.73,06:34:00,17:26:00,America/Merida, GMT-06
2010-12-27,18.44875,14.72,21.34,0.58,06:35:00,17:27:00,America/Merida, GMT-06
2010-12-28,18.790000000000003,13.62,26.39,0.59,06:35:00,17:27:00,America/Merida, GMT-06
2010-12-29,20.45142857142857,13.6,28.17,0.64,06:35:00,17:28:00,America/Merida, GMT-06
2010-12-30,23.423181818181817,15.62,32.36,0.72,06:36:00,17:28:00,America/Merida, GMT-06
2010-12-31,26.982000000000006,23.64,34.21,0.73,06:36:00,17:29:00,America/Merida, GMT-06
