date,avg_temperature,min_temperature,max_temperature,humidity,sunrise_time,sunset_time,time_zone,gmt_zone
2012-01-01,24.500833333333333,20.66,30.28,0.74,06:36:00,17:30:00,America/Merida, GMT-06
2012-01-02,23.54125,20.54,27.34,0.71,06:37:00,17:30:00,America/Merida, GMT-06
2012-01-03,20.922500000000003,16.73,25.25,0.54,06:37:00,17:31:00,America/Merida, GMT-06
2012-01-04,18.879583333333333,12.52,25.44,0.59,06:37:00,17:31:00,America/Merida, GMT-06
2012-01-05,19.663333333333334,13.73,25.29,0.58,06:38:00,17:32:00,America/Merida, GMT-06
2012-01-06,20.701666666666668,13.49,29.39,0.59,06:38:00,17:33:00,America/Merida, GMT-06
2012-01-07,21.580833333333334,14.65,28.52,0.67,06:38:00,17:33:00,America/Merida, GMT-06
2012-01-08,23.285416666666663,18.61,29.36,0.63,06:38:00,17:34:00,America/Merida, GMT-06
2012-01-09,24.168750000000003,18.59,30.39,0.72,06:38:00,17:35:00,America/Merida, GMT-06
2012-01-10,23.509166666666662,18.73,31.62,0.81,06:39:00,17:35:00,America/Merida, GMT-06
2012-01-11,22.95875,20.67,27.19,0.78,06:39:00,17:36:00,America/Merida, GMT-06
2012-01-12,23.655416666666667,18.73,31.3,0.75,06:39:00,17:37:00,America/Merida, GMT-06
2012-01-13,23.419166666666666,20.66,27.29,0.72,06:39:00,17:37:00,America/Merida, GMT-06
2012-01-14,23.289583333333336,20.73,26.37,0.76,06:39:00,17:38:00,America/Merida, GMT-06
2012-01-15,23.502916666666668,20.54,27.34,0.66,06:39:00,17:39:00,America/Merida, GMT-06
2012-01-16,23.90708333333333,19.66,30.34,0.66,06:39:00,17:39:00,America/Merida, GMT-06
2012-01-17,24.1575,18.6,30.47,0.68,06:39:00,17:40:00,America/Merida, GMT-06
2012-01-18,23.609166666666667,18.71,30.41,0.73,06:39:00,17:41:00,America/Merida, GMT-06
2012-01-19,22.947916666666668,17.58,30.39,0.72,06:39:00,17:41:00,America/Merida, GMT-06
2012-01-20,24.325833333333332,17.75,31.43,0.67,06:39:00,17:42:00,America/Merida, GMT-06
2012-01-21,24.784583333333334,18.66,31.44,0.66,06:39:00,17:43:00,America/Merida, GMT-06
2012-01-22,24.95875,20.49,31.29,0.72,06:39:00,17:43:00,America/Merida, GMT-06
2012-01-23,25.655416666666667,19.71,32.34,0.7,06:39:00,17:44:00,America/Merida, GMT-06
2012-01-24,25.3625,20.66,31.33,0.68,06:39:00,17:45:00,America/Merida, GMT-06
2012-01-25,25.297916666666666,18.55,32.4,0.66,06:39:00,17:45:00,America/Merida, GMT-06
2012-01-26,24.45625,20.66,31.84,0.8,06:38:00,17:46:00,America/Merida, GMT-06
2012-01-27,22.37666666666667,19.61,24.39,0.8,06:38:00,17:47:00,America/Merida, GMT-06
2012-01-28,23.568695652173915,19.65,30.16,0.78,06:38:00,17:47:00,America/Merida, GMT-06
2012-01-29,23.383333333333336,20.68,27.34,0.8,06:38:00,17:48:00,America/Merida, GMT-06
2012-01-30,22.760416666666668,19.73,26.42,0.79,06:38:00,17:49:00,America/Merida, GMT-06
2012-01-31,23.995,18.61,30.43,0.71,06:37:00,17:49:00,America/Merida, GMT-06
2012-02-01,24.162499999999998,20.67,28.37,0.74,06:37:00,17:50:00,America/Merida, GMT-06
2012-02-02,24.86708333333333,21.67,29.41,0.71,06:37:00,17:51:00,America/Merida, GMT-06
2012-02-03,24.132499999999997,21.66,28.31,0.74,06:36:00,17:51:00,America/Merida, GMT-06
2012-02-04,23.719583333333333,18.63,30.19,0.75,06:36:00,17:52:00,America/Merida, GMT-06
2012-02-05,23.499166666666667,17.71,30.28,0.75,06:36:00,17:52:00,America/Merida, GMT-06
2012-02-06,22.977083333333336,18.62,29.35,0.76,06:35:00,17:53:00,America/Merida, GMT-06
2012-02-07,22.473333333333333,15.83,30.28,0.76,06:35:00,17:54:00,America/Merida, GMT-06
2012-02-08,23.01125,18.59,27.39,0.78,06:34:00,17:54:00,America/Merida, GMT-06
2012-02-09,23.802083333333332,19.49,29.42,0.75,06:34:00,17:55:00,America/Merida, GMT-06
2012-02-10,24.58,19.49,30.36,0.74,06:33:00,17:55:00,America/Merida, GMT-06
2012-02-11,23.507916666666663,20.73,27.4,0.73,06:33:00,17:56:00,America/Merida, GMT-06
2012-02-12,21.4175,18.66,25.38,0.58,06:32:00,17:56:00,America/Merida, GMT-06
2012-02-13,22.25583333333333,17.63,28.29,0.6,06:32:00,17:57:00,America/Merida, GMT-06
2012-02-14,24.11708333333333,17.58,31.15,0.66,06:31:00,17:57:00,America/Merida, GMT-06
2012-02-15,25.410416666666666,18.59,32.28,0.68,06:31:00,17:58:00,America/Merida, GMT-06
2012-02-16,25.987083333333334,21.65,31.38,0.71,06:30:00,17:58:00,America/Merida, GMT-06
2012-02-17,26.280833333333334,21.65,32.41,0.69,06:30:00,17:59:00,America/Merida, GMT-06
2012-02-18,26.418333333333326,20.66,33.29,0.64,06:29:00,17:59:00,America/Merida, GMT-06
2012-02-19,24.997916666666665,20.63,30.16,0.7,06:28:00,18:00:00,America/Merida, GMT-06
2012-02-20,25.57625,21.66,31.52,0.7,06:28:00,18:00:00,America/Merida, GMT-06
2012-02-21,25.715,19.66,33.42,0.66,06:27:00,18:01:00,America/Merida, GMT-06
2012-02-22,25.75208333333333,18.61,33.44,0.63,06:26:00,18:01:00,America/Merida, GMT-06
2012-02-23,26.338333333333328,18.72,33.37,0.62,06:26:00,18:02:00,America/Merida, GMT-06
2012-02-24,26.999166666666667,19.73,34.41,0.63,06:25:00,18:02:00,America/Merida, GMT-06
2012-02-25,26.657916666666665,21.66,34.49,0.65,06:24:00,18:03:00,America/Merida, GMT-06
2012-02-26,26.49625,22.6,32.48,0.69,06:24:00,18:03:00,America/Merida, GMT-06
2012-02-27,26.324583333333333,20.42,33.29,0.64,06:23:00,18:03:00,America/Merida, GMT-06
2012-02-28,26.291249999999994,20.61,33.59,0.65,06:22:00,18:04:00,America/Merida, GMT-06
2012-02-29,26.746249999999993,20.73,33.34,0.6,06:21:00,18:04:00,America/Merida, GMT-06
2012-03-01,26.533749999999998,19.66,33.44,0.62,06:20:00,18:05:00,America/Merida, GMT-06
2012-03-02,26.584166666666665,19.62,33.36,0.59,06:20:00,18:05:00,America/Merida, GMT-06
2012-03-03,28.034166666666664,21.38,36.68,0.62,06:19:00,18:05:00,America/Merida, GMT-06
2012-03-04,23.74416666666667,20.66,26.45,0.6,06:18:00,18:06:00,America/Merida, GMT-06
2012-03-05,22.38625,18.65,26.31,0.53,06:17:00,18:06:00,America/Merida, GMT-06
2012-03-06,24.03708333333333,18.61,31.29,0.55,06:16:00,18:06:00,America/Merida, GMT-06
2012-03-07,26.73375,20.59,34.11,0.6,06:16:00,18:07:00,America/Merida, GMT-06
2012-03-08,27.314166666666665,21.59,34.27,0.6,06:15:00,18:07:00,America/Merida, GMT-06
2012-03-09,26.49208333333333,21.59,33.55,0.63,06:14:00,18:07:00,America/Merida, GMT-06
2012-03-10,26.572083333333328,21.76,32.43,0.63,06:13:00,18:08:00,America/Merida, GMT-06
2012-03-11,26.69416666666667,20.59,33.35,0.6,06:12:00,18:08:00,America/Merida, GMT-06
2012-03-12,26.898750000000003,21.66,32.35,0.59,06:11:00,18:08:00,America/Merida, GMT-06
2012-03-13,26.448333333333334,21.57,33.4,0.6,06:10:00,18:09:00,America/Merida, GMT-06
2012-03-14,26.489166666666662,20.72,33.43,0.58,06:09:00,18:09:00,America/Merida, GMT-06
2012-03-15,26.1975,20.73,32.4,0.57,06:09:00,18:09:00,America/Merida, GMT-06
2012-03-16,25.742500000000003,19.72,33.32,0.58,06:08:00,18:10:00,America/Merida, GMT-06
2012-03-17,26.602083333333336,20.49,34.43,0.53,06:07:00,18:10:00,America/Merida, GMT-06
2012-03-18,27.061666666666667,19.5,34.31,0.53,06:06:00,18:10:00,America/Merida, GMT-06
2012-03-19,26.943750000000005,19.76,34.32,0.54,06:05:00,18:11:00,America/Merida, GMT-06
2012-03-20,27.734166666666667,19.5,35.3,0.52,06:04:00,18:11:00,America/Merida, GMT-06
2012-03-21,28.66333333333333,20.78,37.24,0.55,06:03:00,18:11:00,America/Merida, GMT-06
2012-03-22,28.269999999999996,22.56,34.5,0.55,06:02:00,18:11:00,America/Merida, GMT-06
2012-03-23,27.648749999999996,20.59,36.08,0.58,06:01:00,18:12:00,America/Merida, GMT-06
2012-03-24,27.522499999999997,21.58,36.34,0.61,06:00:00,18:12:00,America/Merida, GMT-06
2012-03-25,26.741249999999997,21.64,34.61,0.61,05:59:00,18:12:00,America/Merida, GMT-06
2012-03-26,26.6975,20.63,35.28,0.59,05:59:00,18:13:00,America/Merida, GMT-06
2012-03-27,27.15125,21.71,35.11,0.55,05:58:00,18:13:00,America/Merida, GMT-06
2012-03-28,27.186666666666667,21.66,34.37,0.48,05:57:00,18:13:00,America/Merida, GMT-06
2012-03-29,26.898333333333337,19.53,34.36,0.57,05:56:00,18:13:00,America/Merida, GMT-06
2012-03-30,28.001666666666665,20.73,36.3,0.59,05:55:00,18:14:00,America/Merida, GMT-06
2012-03-31,28.9975,22.54,36.6,0.62,05:54:00,18:14:00,America/Merida, GMT-06
2012-04-01,26.94173913043478,22.6,33.57,0.74,05:53:00,19:14:00,America/Merida, GMT-05
2012-04-02,26.366249999999997,22.64,37.34,0.69,06:52:00,19:15:00,America/Merida, GMT-05
2012-04-03,29.017083333333332,22.65,34.35,0.6,06:51:00,19:15:00,America/Merida, GMT-05
2012-04-04,31.277083333333334,24.25,37.82,0.58,06:50:00,19:15:00,America/Merida, GMT-05
2012-04-05,28.154166666666665,21.61,37.47,0.67,06:49:00,19:16:00,America/Merida, GMT-05
2012-04-06,28.73,22.6,37.27,0.66,06:49:00,19:16:00,America/Merida, GMT-05
2012-04-07,28.735416666666662,24.73,35.28,0.66,06:48:00,19:16:00,America/Merida, GMT-05
2012-04-08,26.822083333333335,22.65,34.29,0.63,06:47:00,19:16:00,America/Merida, GMT-05
2012-04-09,26.62041666666666,21.74,33.29,0.63,06:46:00,19:17:00,America/Merida, GMT-05
2012-04-10,26.53333333333333,22.6,32.2,0.66,06:45:00,19:17:00,America/Merida, GMT-05
2012-04-11,26.169999999999998,21.73,33.4,0.67,06:44:00,19:17:00,America/Merida, GMT-05
2012-04-12,27.279166666666665,22.61,33.45,0.57,06:43:00,19:18:00,America/Merida, GMT-05
2012-04-13,27.192916666666665,21.61,34.27,0.56,06:43:00,19:18:00,America/Merida, GMT-05
2012-04-14,28.49416666666666,22.64,35.48,0.55,06:42:00,19:18:00,America/Merida, GMT-05
2012-04-15,28.73125,20.73,36.03,0.51,06:41:00,19:19:00,America/Merida, GMT-05
2012-04-16,28.364166666666666,22.6,35.28,0.62,06:40:00,19:19:00,America/Merida, GMT-05
2012-04-17,25.505,21.72,33.35,0.77,06:39:00,19:19:00,America/Merida, GMT-05
2012-04-18,24.092916666666664,20.66,31.77,0.82,06:39:00,19:20:00,America/Merida, GMT-05
2012-04-19,24.309583333333332,19.56,32.32,0.79,06:38:00,19:20:00,America/Merida, GMT-05
2012-04-20,26.701249999999998,21.67,35.28,0.67,06:37:00,19:20:00,America/Merida, GMT-05
2012-04-21,25.713333333333335,20.73,32.3,0.61,06:36:00,19:21:00,America/Merida, GMT-05
2012-04-22,23.479583333333334,18.6,29.29,0.61,06:36:00,19:21:00,America/Merida, GMT-05
2012-04-23,23.16875,15.73,29.42,0.54,06:35:00,19:22:00,America/Merida, GMT-05
2012-04-24,23.254999999999995,17.73,28.35,0.54,06:34:00,19:22:00,America/Merida, GMT-05
2012-04-25,24.460416666666664,18.66,32.21,0.52,06:33:00,19:22:00,America/Merida, GMT-05
2012-04-26,25.364166666666666,19.62,33.14,0.52,06:33:00,19:23:00,America/Merida, GMT-05
2012-04-27,26.449583333333333,19.53,34.1,0.54,06:32:00,19:23:00,America/Merida, GMT-05
2012-04-28,27.163333333333338,21.64,35.28,0.6,06:31:00,19:23:00,America/Merida, GMT-05
2012-04-29,27.415000000000003,21.54,34.46,0.64,06:31:00,19:24:00,America/Merida, GMT-05
2012-04-30,27.40583333333333,22.59,34.27,0.66,06:30:00,19:24:00,America/Merida, GMT-05
2012-05-01,27.359583333333333,22.59,34.45,0.69,06:29:00,19:25:00,America/Merida, GMT-05
2012-05-02,29.16125,22.55,36.12,0.61,06:29:00,19:25:00,America/Merida, GMT-05
2012-05-03,29.242916666666662,22.65,36.38,0.59,06:28:00,19:25:00,America/Merida, GMT-05
2012-05-04,28.734583333333333,23.65,37.06,0.65,06:28:00,19:26:00,America/Merida, GMT-05
2012-05-05,28.700833333333332,22.72,36.58,0.64,06:27:00,19:26:00,America/Merida, GMT-05
2012-05-06,28.703333333333333,22.72,36.56,0.63,06:27:00,19:27:00,America/Merida, GMT-05
2012-05-07,29.277083333333337,23.64,37.41,0.61,06:26:00,19:27:00,America/Merida, GMT-05
2012-05-08,29.657499999999995,23.65,38.48,0.6,06:26:00,19:28:00,America/Merida, GMT-05
2012-05-09,29.028333333333336,23.65,37.19,0.63,06:25:00,19:28:00,America/Merida, GMT-05
2012-05-10,29.938333333333333,23.52,37.44,0.59,06:25:00,19:28:00,America/Merida, GMT-05
2012-05-11,30.06791666666666,22.54,37.31,0.54,06:24:00,19:29:00,America/Merida, GMT-05
2012-05-12,29.897916666666664,23.64,37.5,0.59,06:24:00,19:29:00,America/Merida, GMT-05
2012-05-13,29.8175,24.63,36.3,0.58,06:23:00,19:30:00,America/Merida, GMT-05
2012-05-14,28.865416666666665,25.66,32.41,0.58,06:23:00,19:30:00,America/Merida, GMT-05
2012-05-15,27.41291666666667,23.65,33.39,0.7,06:22:00,19:31:00,America/Merida, GMT-05
2012-05-16,27.246250000000003,22.6,34.3,0.7,06:22:00,19:31:00,America/Merida, GMT-05
2012-05-17,27.12291666666667,22.65,34.33,0.69,06:22:00,19:31:00,America/Merida, GMT-05
2012-05-18,27.329166666666666,22.59,35.28,0.69,06:21:00,19:32:00,America/Merida, GMT-05
2012-05-19,27.992916666666662,23.65,33.43,0.66,06:21:00,19:32:00,America/Merida, GMT-05
2012-05-20,27.612173913043474,23.72,32.42,0.68,06:21:00,19:33:00,America/Merida, GMT-05
2012-05-21,27.66333333333333,23.58,32.73,0.68,06:20:00,19:33:00,America/Merida, GMT-05
2012-05-22,27.91125,23.72,33.42,0.67,06:20:00,19:34:00,America/Merida, GMT-05
2012-05-23,28.004583333333333,21.74,34.99,0.64,06:20:00,19:34:00,America/Merida, GMT-05
2012-05-24,29.082916666666666,22.72,36.49,0.63,06:20:00,19:35:00,America/Merida, GMT-05
2012-05-25,29.89708333333333,23.58,37.39,0.6,06:19:00,19:35:00,America/Merida, GMT-05
2012-05-26,27.668333333333333,23.61,36.3,0.72,06:19:00,19:35:00,America/Merida, GMT-05
2012-05-27,26.24666666666667,22.65,33.59,0.76,06:19:00,19:36:00,America/Merida, GMT-05
2012-05-28,28.235833333333332,22.58,35.38,0.65,06:19:00,19:36:00,America/Merida, GMT-05
2012-05-29,28.196249999999996,23.56,35.39,0.66,06:19:00,19:37:00,America/Merida, GMT-05
2012-05-30,25.79875,21.69,32.34,0.72,06:18:00,19:37:00,America/Merida, GMT-05
2012-05-31,26.08791666666667,21.74,32.43,0.76,06:18:00,19:37:00,America/Merida, GMT-05
2012-06-01,28.491666666666664,22.72,35.37,0.7,06:18:00,19:38:00,America/Merida, GMT-05
2012-06-02,28.577083333333334,22.72,36.12,0.65,06:18:00,19:38:00,America/Merida, GMT-05
2012-06-03,26.88,23.65,31.33,0.77,06:18:00,19:39:00,America/Merida, GMT-05
2012-06-04,26.703333333333333,23.65,30.37,0.78,06:18:00,19:39:00,America/Merida, GMT-05
2012-06-05,27.416666666666668,23.76,35.69,0.76,06:18:00,19:39:00,America/Merida, GMT-05
2012-06-06,27.41625,23.65,34.82,0.77,06:18:00,19:40:00,America/Merida, GMT-05
2012-06-07,26.996250000000003,23.58,31.47,0.78,06:18:00,19:40:00,America/Merida, GMT-05
2012-06-08,28.709999999999997,24.62,34.49,0.72,06:18:00,19:40:00,America/Merida, GMT-05
2012-06-09,29.5525,24.65,36.49,0.68,06:18:00,19:41:00,America/Merida, GMT-05
2012-06-10,29.755,24.66,36.48,0.63,06:18:00,19:41:00,America/Merida, GMT-05
2012-06-11,29.439166666666665,23.57,35.34,0.61,06:18:00,19:41:00,America/Merida, GMT-05
2012-06-12,28.111249999999995,22.95,34.73,0.7,06:18:00,19:42:00,America/Merida, GMT-05
2012-06-13,28.992173913043477,23.57,35.32,0.63,06:18:00,19:42:00,America/Merida, GMT-05
2012-06-14,27.6575,23.58,34.53,0.66,06:18:00,19:42:00,America/Merida, GMT-05
2012-06-15,26.251666666666665,23.45,35.4,0.8,06:18:00,19:43:00,America/Merida, GMT-05
2012-06-16,26.129583333333333,22.65,33.33,0.79,06:18:00,19:43:00,America/Merida, GMT-05
2012-06-17,25.587083333333336,22.65,32.84,0.79,06:19:00,19:43:00,America/Merida, GMT-05
2012-06-18,25.387083333333337,20.95,33.08,0.82,06:19:00,19:43:00,America/Merida, GMT-05
2012-06-19,26.80333333333333,22.62,33.49,0.77,06:19:00,19:44:00,America/Merida, GMT-05
2012-06-20,26.41916666666667,23.58,30.59,0.81,06:19:00,19:44:00,America/Merida, GMT-05
2012-06-21,25.539166666666663,22.65,29.37,0.83,06:19:00,19:44:00,America/Merida, GMT-05
2012-06-22,26.504999999999995,23.64,32.27,0.83,06:20:00,19:44:00,America/Merida, GMT-05
2012-06-23,26.673333333333332,23.65,32.28,0.85,06:20:00,19:44:00,America/Merida, GMT-05
2012-06-24,25.673750000000002,22.71,30.3,0.88,06:20:00,19:44:00,America/Merida, GMT-05
2012-06-25,25.550833333333326,23.66,29.35,0.89,06:20:00,19:45:00,America/Merida, GMT-05
2012-06-26,26.051666666666666,23.65,31.54,0.86,06:20:00,19:45:00,America/Merida, GMT-05
2012-06-27,28.2075,23.59,33.37,0.76,06:21:00,19:45:00,America/Merida, GMT-05
2012-06-28,28.751666666666665,24.65,34.29,0.75,06:21:00,19:45:00,America/Merida, GMT-05
2012-06-29,28.178333333333327,23.58,34.33,0.71,06:21:00,19:45:00,America/Merida, GMT-05
2012-06-30,28.010833333333334,22.72,33.38,0.68,06:22:00,19:45:00,America/Merida, GMT-05
2012-07-01,27.835416666666664,22.72,33.36,0.7,06:22:00,19:45:00,America/Merida, GMT-05
2012-07-02,26.538333333333338,23.35,31.48,0.76,06:22:00,19:45:00,America/Merida, GMT-05
2012-07-03,27.914347826086956,22.72,33.35,0.69,06:23:00,19:45:00,America/Merida, GMT-05
2012-07-04,28.00333333333333,22.48,33.42,0.67,06:23:00,19:45:00,America/Merida, GMT-05
2012-07-05,27.75458333333333,23.65,33.4,0.69,06:23:00,19:45:00,America/Merida, GMT-05
2012-07-06,28.006666666666664,23.58,33.6,0.69,06:24:00,19:45:00,America/Merida, GMT-05
2012-07-07,26.767916666666665,22.72,34.71,0.75,06:24:00,19:45:00,America/Merida, GMT-05
2012-07-08,25.506249999999998,21.66,31.82,0.77,06:24:00,19:45:00,America/Merida, GMT-05
2012-07-09,26.64208333333333,23.56,33.84,0.81,06:25:00,19:45:00,America/Merida, GMT-05
2012-07-10,27.174999999999997,22.64,33.44,0.75,06:25:00,19:45:00,America/Merida, GMT-05
2012-07-11,26.045416666666664,22.43,32.31,0.82,06:25:00,19:45:00,America/Merida, GMT-05
2012-07-12,27.00083333333333,22.65,34.75,0.76,06:26:00,19:45:00,America/Merida, GMT-05
2012-07-13,27.959166666666672,22.75,33.44,0.71,06:26:00,19:44:00,America/Merida, GMT-05
2012-07-14,28.267999999999994,22.72,33.43,0.66,06:26:00,19:44:00,America/Merida, GMT-05
2012-07-15,27.23631578947369,22.7,33.47,0.72,06:27:00,19:44:00,America/Merida, GMT-05
2012-07-16,27.487826086956517,22.58,33.51,0.74,06:27:00,19:44:00,America/Merida, GMT-05
2012-07-17,26.128749999999997,23.6,33.36,0.82,06:28:00,19:44:00,America/Merida, GMT-05
2012-07-18,25.299999999999997,21.66,31.46,0.83,06:28:00,19:43:00,America/Merida, GMT-05
2012-07-19,27.83791666666666,23.72,34.34,0.72,06:28:00,19:43:00,America/Merida, GMT-05
2012-07-20,26.969583333333333,22.93,34.27,0.77,06:29:00,19:43:00,America/Merida, GMT-05
2012-07-21,25.70958333333333,22.6,33.52,0.8,06:29:00,19:43:00,America/Merida, GMT-05
2012-07-22,26.126666666666665,21.74,34.5,0.78,06:30:00,19:42:00,America/Merida, GMT-05
2012-07-23,26.032083333333333,22.62,33.33,0.82,06:30:00,19:42:00,America/Merida, GMT-05
2012-07-24,24.63416666666667,21.66,31.34,0.85,06:30:00,19:42:00,America/Merida, GMT-05
2012-07-25,27.337500000000002,21.66,33.38,0.77,06:31:00,19:41:00,America/Merida, GMT-05
2012-07-26,27.51,23.66,33.64,0.75,06:31:00,19:41:00,America/Merida, GMT-05
2012-07-27,25.928749999999997,22.64,34.01,0.83,06:32:00,19:40:00,America/Merida, GMT-05
2012-07-28,27.050416666666667,22.72,33.29,0.77,06:32:00,19:40:00,America/Merida, GMT-05
2012-07-29,27.96375,24.65,33.31,0.76,06:32:00,19:40:00,America/Merida, GMT-05
2012-07-30,27.99875,23.6,33.38,0.71,06:33:00,19:39:00,America/Merida, GMT-05
2012-07-31,27.62708333333333,22.53,33.29,0.73,06:33:00,19:39:00,America/Merida, GMT-05
2012-08-01,27.17083333333333,22.57,34.27,0.74,06:34:00,19:38:00,America/Merida, GMT-05
2012-08-02,27.65875,22.65,34.53,0.7,06:34:00,19:38:00,America/Merida, GMT-05
2012-08-03,28.245,22.55,34.37,0.69,06:34:00,19:37:00,America/Merida, GMT-05
2012-08-04,28.42,23.54,35.3,0.7,06:35:00,19:37:00,America/Merida, GMT-05
2012-08-05,28.378749999999997,23.61,34.27,0.71,06:35:00,19:36:00,America/Merida, GMT-05
2012-08-06,29.163749999999993,24.6,34.41,0.71,06:36:00,19:35:00,America/Merida, GMT-05
2012-08-07,26.514166666666668,23.14,32.37,0.79,06:36:00,19:35:00,America/Merida, GMT-05
2012-08-08,26.709166666666672,23.53,31.23,0.78,06:36:00,19:34:00,America/Merida, GMT-05
2012-08-09,29.329583333333332,25.66,34.32,0.68,06:37:00,19:34:00,America/Merida, GMT-05
2012-08-10,28.580000000000002,23.58,35.44,0.71,06:37:00,19:33:00,America/Merida, GMT-05
2012-08-11,27.752499999999998,22.34,34.29,0.75,06:37:00,19:32:00,America/Merida, GMT-05
2012-08-12,26.047083333333337,22.61,33.51,0.83,06:38:00,19:32:00,America/Merida, GMT-05
2012-08-13,27.500416666666663,23.65,33.36,0.75,06:38:00,19:31:00,America/Merida, GMT-05
2012-08-14,26.97619047619048,23.62,34.27,0.82,06:38:00,19:30:00,America/Merida, GMT-05
2012-08-15,26.960434782608697,23.34,32.85,0.81,06:39:00,19:30:00,America/Merida, GMT-05
2012-08-16,25.284166666666668,23.58,32.28,0.85,06:39:00,19:29:00,America/Merida, GMT-05
2012-08-17,27.290833333333335,23.65,34.18,0.78,06:39:00,19:28:00,America/Merida, GMT-05
2012-08-18,27.87166666666667,22.43,33.23,0.77,06:40:00,19:27:00,America/Merida, GMT-05
2012-08-19,28.66916666666667,23.65,34.39,0.73,06:40:00,19:27:00,America/Merida, GMT-05
2012-08-20,28.75375,23.5,34.33,0.7,06:40:00,19:26:00,America/Merida, GMT-05
2012-08-21,27.17409090909091,23.58,34.37,0.79,06:41:00,19:25:00,America/Merida, GMT-05
2012-08-22,28.4575,23.65,34.25,0.68,06:41:00,19:24:00,America/Merida, GMT-05
2012-08-23,27.419999999999998,23.65,33.37,0.73,06:41:00,19:23:00,America/Merida, GMT-05
2012-08-24,27.839583333333334,23.56,34.29,0.74,06:41:00,19:23:00,America/Merida, GMT-05
2012-08-25,28.460416666666664,22.74,34.27,0.71,06:42:00,19:22:00,America/Merida, GMT-05
2012-08-26,28.503749999999997,24.61,33.42,0.69,06:42:00,19:21:00,America/Merida, GMT-05
2012-08-27,27.913333333333338,22.57,33.37,0.72,06:42:00,19:20:00,America/Merida, GMT-05
2012-08-28,27.58125,21.37,35.28,0.72,06:43:00,19:19:00,America/Merida, GMT-05
2012-08-29,27.468333333333334,23.7,34.46,0.75,06:43:00,19:18:00,America/Merida, GMT-05
2012-08-30,27.792916666666667,23.65,35.3,0.73,06:43:00,19:17:00,America/Merida, GMT-05
2012-08-31,27.70375,23.72,34.39,0.78,06:43:00,19:17:00,America/Merida, GMT-05
2012-09-01,28.531666666666666,23.65,35.35,0.71,06:44:00,19:16:00,America/Merida, GMT-05
2012-09-02,28.342916666666667,24.5,36.88,0.73,06:44:00,19:15:00,America/Merida, GMT-05
2012-09-03,28.15875,23.66,34.35,0.7,06:44:00,19:14:00,America/Merida, GMT-05
2012-09-04,27.83041666666666,23.65,34.27,0.72,06:44:00,19:13:00,America/Merida, GMT-05
2012-09-05,28.53708333333334,23.63,35.54,0.67,06:45:00,19:12:00,America/Merida, GMT-05
2012-09-06,28.452916666666667,22.57,35.28,0.69,06:45:00,19:11:00,America/Merida, GMT-05
2012-09-07,28.45208333333333,23.64,36.31,0.71,06:45:00,19:10:00,America/Merida, GMT-05
2012-09-08,28.829583333333332,22.6,36.15,0.67,06:45:00,19:09:00,America/Merida, GMT-05
2012-09-09,29.284583333333334,22.7,37.33,0.62,06:46:00,19:08:00,America/Merida, GMT-05
2012-09-10,28.37708333333333,22.67,37.3,0.69,06:46:00,19:07:00,America/Merida, GMT-05
2012-09-11,27.995416666666667,22.57,35.42,0.71,06:46:00,19:06:00,America/Merida, GMT-05
2012-09-12,28.49625,22.7,36.58,0.67,06:46:00,19:05:00,America/Merida, GMT-05
2012-09-13,27.266521739130436,22.72,36.7,0.77,06:46:00,19:04:00,America/Merida, GMT-05
2012-09-14,26.389166666666668,20.59,34.6,0.84,06:47:00,19:03:00,America/Merida, GMT-05
2012-09-15,27.13666666666667,22.69,33.26,0.79,06:47:00,19:03:00,America/Merida, GMT-05
2012-09-16,25.934583333333336,21.6,33.46,0.82,06:47:00,19:02:00,America/Merida, GMT-05
2012-09-17,26.18041666666667,21.66,34.53,0.78,06:47:00,19:01:00,America/Merida, GMT-05
2012-09-18,25.548333333333332,21.51,32.21,0.84,06:48:00,19:00:00,America/Merida, GMT-05
2012-09-19,25.6375,21.66,31.47,0.81,06:48:00,18:59:00,America/Merida, GMT-05
2012-09-20,26.583333333333332,22.65,31.29,0.76,06:48:00,18:58:00,America/Merida, GMT-05
2012-09-21,26.752499999999998,22.72,32.35,0.78,06:48:00,18:57:00,America/Merida, GMT-05
2012-09-22,27.21166666666667,23.65,32.36,0.75,06:49:00,18:56:00,America/Merida, GMT-05
2012-09-23,26.122083333333332,22.49,33.32,0.8,06:49:00,18:55:00,America/Merida, GMT-05
2012-09-24,24.72,22.64,29.25,0.85,06:49:00,18:54:00,America/Merida, GMT-05
2012-09-25,25.96208333333333,22.66,31.41,0.78,06:49:00,18:53:00,America/Merida, GMT-05
2012-09-26,26.915000000000003,22.65,33.25,0.75,06:49:00,18:52:00,America/Merida, GMT-05
2012-09-27,26.61916666666667,22.53,34.27,0.78,06:50:00,18:51:00,America/Merida, GMT-05
2012-09-28,27.165833333333335,23.66,33.57,0.78,06:50:00,18:50:00,America/Merida, GMT-05
2012-09-29,27.918333333333333,23.64,33.37,0.72,06:50:00,18:49:00,America/Merida, GMT-05
2012-09-30,27.662499999999998,22.65,34.34,0.74,06:50:00,18:48:00,America/Merida, GMT-05
2012-10-01,27.33708333333333,23.65,33.55,0.77,06:51:00,18:47:00,America/Merida, GMT-05
2012-10-02,25.959999999999997,22.5,31.28,0.78,06:51:00,18:46:00,America/Merida, GMT-05
2012-10-03,25.054999999999996,21.66,32.46,0.85,06:51:00,18:45:00,America/Merida, GMT-05
2012-10-04,25.130416666666665,22.6,30.43,0.86,06:52:00,18:45:00,America/Merida, GMT-05
2012-10-05,25.3875,22.43,31.31,0.86,06:52:00,18:44:00,America/Merida, GMT-05
2012-10-06,25.630416666666665,22.66,32.32,0.86,06:52:00,18:43:00,America/Merida, GMT-05
2012-10-07,25.12166666666667,22.67,31.49,0.86,06:52:00,18:42:00,America/Merida, GMT-05
2012-10-08,25.393333333333334,21.66,31.28,0.83,06:53:00,18:41:00,America/Merida, GMT-05
2012-10-09,26.093333333333334,21.68,32.47,0.82,06:53:00,18:40:00,America/Merida, GMT-05
2012-10-10,26.922173913043476,23.65,32.36,0.79,06:53:00,18:39:00,America/Merida, GMT-05
2012-10-11,27.76041666666666,24.65,33.35,0.78,06:54:00,18:38:00,America/Merida, GMT-05
2012-10-12,27.384583333333335,24.65,31.37,0.72,06:54:00,18:38:00,America/Merida, GMT-05
2012-10-13,26.461249999999996,22.6,31.36,0.7,06:54:00,18:37:00,America/Merida, GMT-05
2012-10-14,26.043333333333333,19.57,31.39,0.72,06:55:00,18:36:00,America/Merida, GMT-05
2012-10-15,26.30333333333333,21.74,31.37,0.75,06:55:00,18:35:00,America/Merida, GMT-05
2012-10-16,25.632500000000004,20.59,32.3,0.73,06:55:00,18:34:00,America/Merida, GMT-05
2012-10-17,25.707499999999996,19.66,33.13,0.71,06:56:00,18:34:00,America/Merida, GMT-05
2012-10-18,26.622916666666665,20.66,33.31,0.72,06:56:00,18:33:00,America/Merida, GMT-05
2012-10-19,26.75208333333333,22.65,33.31,0.73,06:56:00,18:32:00,America/Merida, GMT-05
2012-10-20,26.173333333333332,20.54,32.31,0.74,06:57:00,18:31:00,America/Merida, GMT-05
2012-10-21,27.252916666666664,22.53,33.29,0.73,06:57:00,18:31:00,America/Merida, GMT-05
2012-10-22,27.128333333333334,23.64,32.41,0.72,06:58:00,18:30:00,America/Merida, GMT-05
2012-10-23,26.88041666666666,22.72,31.36,0.73,06:58:00,18:29:00,America/Merida, GMT-05
2012-10-24,26.7975,23.65,31.37,0.72,06:58:00,18:29:00,America/Merida, GMT-05
2012-10-25,25.17916666666667,18.61,33.31,0.72,06:59:00,18:28:00,America/Merida, GMT-05
2012-10-26,24.92625,18.71,31.44,0.74,06:59:00,18:27:00,America/Merida, GMT-05
2012-10-27,25.511666666666667,19.61,32.38,0.69,07:00:00,18:27:00,America/Merida, GMT-05
2012-10-28,24.6608,18.62,30.34,0.74,07:00:00,17:26:00,America/Merida, GMT-06
2012-10-29,23.388333333333332,19.73,27.34,0.61,06:01:00,17:26:00,America/Merida, GMT-06
2012-10-30,21.893749999999997,16.53,28.4,0.66,06:01:00,17:25:00,America/Merida, GMT-06
2012-10-31,21.54375,13.63,30.25,0.62,06:02:00,17:24:00,America/Merida, GMT-06
2012-11-01,23.65041666666667,16.72,31.29,0.59,06:02:00,17:24:00,America/Merida, GMT-06
2012-11-02,23.873749999999998,17.6,31.41,0.56,06:03:00,17:23:00,America/Merida, GMT-06
2012-11-03,24.536666666666665,19.66,31.31,0.62,06:03:00,17:23:00,America/Merida, GMT-06
2012-11-04,25.369583333333335,19.73,32.42,0.65,06:04:00,17:22:00,America/Merida, GMT-06
2012-11-05,24.84125,19.58,31.42,0.69,06:04:00,17:22:00,America/Merida, GMT-06
2012-11-06,23.59375,17.65,30.41,0.71,06:05:00,17:22:00,America/Merida, GMT-06
2012-11-07,23.11,17.7,29.36,0.67,06:05:00,17:21:00,America/Merida, GMT-06
2012-11-08,22.187916666666666,15.64,28.37,0.62,06:06:00,17:21:00,America/Merida, GMT-06
2012-11-09,22.669999999999998,13.52,31.3,0.61,06:07:00,17:20:00,America/Merida, GMT-06
2012-11-10,24.343478260869563,17.38,30.41,0.51,06:07:00,17:20:00,America/Merida, GMT-06
2012-11-11,25.322916666666668,19.51,32.37,0.58,06:08:00,17:20:00,America/Merida, GMT-06
2012-11-12,24.871666666666666,19.54,32.48,0.61,06:08:00,17:19:00,America/Merida, GMT-06
2012-11-13,25.124583333333334,19.47,31.37,0.68,06:09:00,17:19:00,America/Merida, GMT-06
2012-11-14,25.256249999999994,20.65,31.31,0.68,06:09:00,17:19:00,America/Merida, GMT-06
2012-11-15,24.888749999999998,20.47,30.36,0.7,06:10:00,17:19:00,America/Merida, GMT-06
2012-11-16,23.60083333333333,16.87,30.37,0.67,06:11:00,17:18:00,America/Merida, GMT-06
2012-11-17,22.14833333333333,17.41,28.29,0.67,06:11:00,17:18:00,America/Merida, GMT-06
2012-11-18,22.08791666666667,17.65,27.42,0.67,06:12:00,17:18:00,America/Merida, GMT-06
2012-11-19,22.09041666666667,17.65,26.48,0.77,06:13:00,17:18:00,America/Merida, GMT-06
2012-11-20,22.05695652173913,20.65,24.27,0.87,06:13:00,17:18:00,America/Merida, GMT-06
2012-11-21,22.17625,17.51,27.34,0.7,06:14:00,17:18:00,America/Merida, GMT-06
2012-11-22,21.45875,14.65,27.35,0.68,06:15:00,17:17:00,America/Merida, GMT-06
2012-11-23,22.04869565217391,14.73,28.48,0.6,06:15:00,17:17:00,America/Merida, GMT-06
2012-11-24,20.979166666666668,13.71,26.38,0.62,06:16:00,17:17:00,America/Merida, GMT-06
2012-11-25,21.205416666666668,11.6,29.18,0.64,06:16:00,17:17:00,America/Merida, GMT-06
2012-11-26,23.199583333333333,16.44,30.36,0.67,06:17:00,17:17:00,America/Merida, GMT-06
2012-11-27,23.497916666666665,18.53,30.28,0.69,06:18:00,17:17:00,America/Merida, GMT-06
2012-11-28,23.639166666666668,17.93,30.28,0.75,06:18:00,17:17:00,America/Merida, GMT-06
2012-11-29,23.1675,17.58,29.3,0.74,06:19:00,17:17:00,America/Merida, GMT-06
2012-11-30,23.293333333333333,16.77,30.28,0.71,06:20:00,17:18:00,America/Merida, GMT-06
2012-12-01,23.413750000000004,16.58,30.36,0.76,06:20:00,17:18:00,America/Merida, GMT-06
2012-12-02,24.705416666666665,19.73,31.29,0.7,06:21:00,17:18:00,America/Merida, GMT-06
2012-12-03,24.4575,19.51,30.35,0.67,06:22:00,17:18:00,America/Merida, GMT-06
2012-12-04,24.53333333333333,19.64,31.17,0.63,06:22:00,17:18:00,America/Merida, GMT-06
2012-12-05,23.62333333333333,18.73,30.27,0.65,06:23:00,17:18:00,America/Merida, GMT-06
2012-12-06,21.924166666666665,14.67,30.18,0.71,06:24:00,17:19:00,America/Merida, GMT-06
2012-12-07,23.994583333333335,18.59,31.29,0.65,06:24:00,17:19:00,America/Merida, GMT-06
2012-12-08,24.24291666666667,17.67,31.29,0.63,06:25:00,17:19:00,America/Merida, GMT-06
2012-12-09,24.45416666666667,16.5,32.44,0.61,06:25:00,17:19:00,America/Merida, GMT-06
2012-12-10,24.792916666666667,17.73,34.38,0.69,06:26:00,17:20:00,America/Merida, GMT-06
2012-12-11,26.076249999999998,21.66,33.12,0.76,06:27:00,17:20:00,America/Merida, GMT-06
2012-12-12,25.45708333333333,21.59,31.35,0.77,06:27:00,17:20:00,America/Merida, GMT-06
2012-12-13,24.83375,20.68,30.47,0.73,06:28:00,17:21:00,America/Merida, GMT-06
2012-12-14,23.334166666666665,18.47,30.28,0.7,06:28:00,17:21:00,America/Merida, GMT-06
2012-12-15,22.91,14.77,32.1,0.65,06:29:00,17:21:00,America/Merida, GMT-06
2012-12-16,23.743750000000002,15.58,32.59,0.65,06:29:00,17:22:00,America/Merida, GMT-06
2012-12-17,24.53375,18.54,32.48,0.71,06:30:00,17:22:00,America/Merida, GMT-06
2012-12-18,26.16652173913043,21.72,33.33,0.69,06:31:00,17:23:00,America/Merida, GMT-06
2012-12-19,26.829583333333332,22.57,33.44,0.69,06:31:00,17:23:00,America/Merida, GMT-06
2012-12-20,26.41541666666667,20.56,33.33,0.69,06:32:00,17:23:00,America/Merida, GMT-06
2012-12-21,22.421666666666667,19.66,25.29,0.68,06:32:00,17:24:00,America/Merida, GMT-06
2012-12-22,21.081666666666667,13.69,27.39,0.61,06:33:00,17:24:00,America/Merida, GMT-06
2012-12-23,21.243333333333332,13.54,28.34,0.58,06:33:00,17:25:00,America/Merida, GMT-06
2012-12-24,21.163749999999997,12.51,30.41,0.61,06:34:00,17:25:00,America/Merida, GMT-06
2012-12-25,23.374583333333334,14.65,32.39,0.64,06:34:00,17:26:00,America/Merida, GMT-06
2012-12-26,23.035833333333333,17.6,30.34,0.74,06:34:00,17:26:00,America/Merida, GMT-06
2012-12-27,24.786666666666665,20.73,30.28,0.67,06:35:00,17:27:00,America/Merida, GMT-06
2012-12-28,27.24625,22.65,34.24,0.66,06:35:00,17:28:00,America/Merida, GMT-06
2012-12-29,25.035,20.61,32.29,0.73,06:36:00,17:28:00,America/Merida, GMT-06
2012-12-30,23.789999999999996,20.73,27.33,0.63,06:36:00,17:29:00,America/Merida, GMT-06
2012-12-31,23.9225,18.73,31.55,0.63,06:36:00,17:29:00,America/Merida, GMT-06
