date,avg_temperature,min_temperature,max_temperature,humidity,sunrise_time,sunset_time,time_zone,gmt_zone
2010-01-01,22.16473684210526,17.29,28.03,0.83,06:43:00,17:52:00,America/Mexico_City, GMT-06
2010-01-02,18.53473684210526,16.35,21.62,0.82,06:43:00,17:53:00,America/Mexico_City, GMT-06
2010-01-03,19.21315789473684,14.82,24.43,0.83,06:43:00,17:53:00,America/Mexico_City, GMT-06
2010-01-04,18.83684210526316,17.03,21.49,0.79,06:43:00,17:54:00,America/Mexico_City, GMT-06
2010-01-05,18.1605,14.5,22.73,0.78,06:44:00,17:54:00,America/Mexico_City, GMT-06
2010-01-06,17.691499999999998,13.19,23.66,0.78,06:44:00,17:55:00,America/Mexico_City, GMT-06
2010-01-07,18.688095238095237,9.73,26.78,0.75,06:44:00,17:56:00,America/Mexico_City, GMT-06
2010-01-08,17.849047619047617,15.3,20.04,0.76,06:45:00,17:56:00,America/Mexico_City, GMT-06
2010-01-09,14.42190476190476,12.22,17.09,0.72,06:45:00,17:57:00,America/Mexico_City, GMT-06
2010-01-10,13.571000000000002,10.19,17.53,0.79,06:45:00,17:57:00,America/Mexico_City, GMT-06
2010-01-11,14.948500000000001,7.28,20.09,0.74,06:45:00,17:58:00,America/Mexico_City, GMT-06
2010-01-12,14.547619047619047,9.3,19.1,0.74,06:45:00,17:59:00,America/Mexico_City, GMT-06
2010-01-13,16.594736842105263,11.81,21.84,0.7,06:46:00,17:59:00,America/Mexico_City, GMT-06
2010-01-14,18.716842105263154,11.29,26.39,0.74,06:46:00,18:00:00,America/Mexico_City, GMT-06
2010-01-15,22.431000000000004,11.21,30.92,0.64,06:46:00,18:00:00,America/Mexico_City, GMT-06
2010-01-16,19.24,14.28,24.6,0.74,06:46:00,18:01:00,America/Mexico_City, GMT-06
2010-01-17,18.339499999999997,14.28,24.18,0.8,06:46:00,18:02:00,America/Mexico_City, GMT-06
2010-01-18,20.089523809523815,11.28,29.23,0.73,06:46:00,18:02:00,America/Mexico_City, GMT-06
2010-01-19,20.522727272727277,13.34,29.24,0.74,06:46:00,18:03:00,America/Mexico_City, GMT-06
2010-01-20,22.9035,12.23,31.81,0.7,06:46:00,18:03:00,America/Mexico_City, GMT-06
2010-01-21,23.648095238095234,12.72,32.98,0.56,06:46:00,18:04:00,America/Mexico_City, GMT-06
2010-01-22,24.102380952380948,12.19,33.6,0.62,06:46:00,18:05:00,America/Mexico_City, GMT-06
2010-01-23,23.878571428571426,13.73,33.86,0.6,06:46:00,18:05:00,America/Mexico_City, GMT-06
2010-01-24,22.529047619047613,9.73,32.57,0.56,06:46:00,18:06:00,America/Mexico_City, GMT-06
2010-01-25,20.37894736842105,15.83,27.23,0.7,06:46:00,18:06:00,America/Mexico_City, GMT-06
2010-01-26,20.339,14.28,29.61,0.76,06:46:00,18:07:00,America/Mexico_City, GMT-06
2010-01-27,20.45619047619048,14.74,26.82,0.73,06:46:00,18:07:00,America/Mexico_City, GMT-06
2010-01-28,22.038947368421052,13.98,29.07,0.69,06:46:00,18:08:00,America/Mexico_City, GMT-06
2010-01-29,23.60809523809524,14.83,31.78,0.62,06:46:00,18:08:00,America/Mexico_City, GMT-06
2010-01-30,22.067619047619047,19.22,27.13,0.78,06:45:00,18:09:00,America/Mexico_City, GMT-06
2010-01-31,19.1065,16.3,22.48,0.87,06:45:00,18:10:00,America/Mexico_City, GMT-06
2010-02-01,20.49947368421053,16.3,25.5,0.79,06:45:00,18:10:00,America/Mexico_City, GMT-06
2010-02-02,21.34190476190476,13.84,29.4,0.7,06:45:00,18:11:00,America/Mexico_City, GMT-06
2010-02-03,23.6155,14.8,33.68,0.71,06:45:00,18:11:00,America/Mexico_City, GMT-06
2010-02-04,24.491428571428568,16.08,30.1,0.64,06:44:00,18:12:00,America/Mexico_City, GMT-06
2010-02-05,22.958571428571425,16.38,30.71,0.74,06:44:00,18:12:00,America/Mexico_City, GMT-06
2010-02-06,20.479999999999997,17.03,25.08,0.77,06:44:00,18:12:00,America/Mexico_City, GMT-06
2010-02-07,23.062857142857144,16.83,30.95,0.7,06:43:00,18:13:00,America/Mexico_City, GMT-06
2010-02-08,25.319499999999998,15.38,32.64,0.58,06:43:00,18:13:00,America/Mexico_City, GMT-06
2010-02-09,23.90333333333333,15.28,32.03,0.66,06:43:00,18:14:00,America/Mexico_City, GMT-06
2010-02-10,21.21826086956522,17.62,25.11,0.77,06:42:00,18:14:00,America/Mexico_City, GMT-06
2010-02-11,24.712380952380947,16.12,33.68,0.57,06:42:00,18:15:00,America/Mexico_City, GMT-06
2010-02-12,21.256499999999996,15.83,27.06,0.7,06:42:00,18:15:00,America/Mexico_City, GMT-06
2010-02-13,18.287142857142854,15.02,22.49,0.75,06:41:00,18:16:00,America/Mexico_City, GMT-06
2010-02-14,22.0005,13.3,31.13,0.66,06:41:00,18:16:00,America/Mexico_City, GMT-06
2010-02-15,20.04095238095238,14.26,25.64,0.77,06:40:00,18:16:00,America/Mexico_City, GMT-06
2010-02-16,17.967368421052626,15.02,22.52,0.71,06:40:00,18:17:00,America/Mexico_City, GMT-06
2010-02-17,18.577894736842108,14.83,25.12,0.76,06:39:00,18:17:00,America/Mexico_City, GMT-06
2010-02-18,18.07894736842105,14.31,24.52,0.82,06:39:00,18:17:00,America/Mexico_City, GMT-06
2010-02-19,19.580476190476197,14.02,27.16,0.77,06:38:00,18:18:00,America/Mexico_City, GMT-06
2010-02-20,23.032,16.19,31.69,0.71,06:38:00,18:18:00,America/Mexico_City, GMT-06
2010-02-21,26.478947368421053,16.87,34.78,0.54,06:37:00,18:18:00,America/Mexico_City, GMT-06
2010-02-22,26.4178947368421,16.35,35.0,0.5,06:37:00,18:19:00,America/Mexico_City, GMT-06
2010-02-23,24.95157894736842,13.21,34.02,0.53,06:36:00,18:19:00,America/Mexico_City, GMT-06
2010-02-24,16.956666666666667,11.68,21.04,0.65,06:36:00,18:19:00,America/Mexico_City, GMT-06
2010-02-25,16.628571428571426,12.02,24.14,0.68,06:35:00,18:20:00,America/Mexico_City, GMT-06
2010-02-26,23.177,11.19,32.86,0.57,06:34:00,18:20:00,America/Mexico_City, GMT-06
2010-02-27,20.422105263157892,16.02,26.05,0.61,06:34:00,18:20:00,America/Mexico_City, GMT-06
2010-02-28,21.935,12.28,32.35,0.62,06:33:00,18:21:00,America/Mexico_City, GMT-06
2010-03-01,25.394999999999996,16.73,32.04,0.58,06:32:00,18:21:00,America/Mexico_City, GMT-06
2010-03-02,20.037499999999998,15.28,23.53,0.78,06:32:00,18:21:00,America/Mexico_City, GMT-06
2010-03-03,17.521304347826085,13.02,23.91,0.75,06:31:00,18:21:00,America/Mexico_City, GMT-06
2010-03-04,19.442499999999992,13.72,25.86,0.71,06:30:00,18:22:00,America/Mexico_City, GMT-06
2010-03-05,21.419999999999998,14.36,29.89,0.64,06:30:00,18:22:00,America/Mexico_City, GMT-06
2010-03-06,21.46523809523809,16.8,25.59,0.66,06:29:00,18:22:00,America/Mexico_City, GMT-06
2010-03-07,23.298571428571424,16.48,29.71,0.68,06:28:00,18:22:00,America/Mexico_City, GMT-06
2010-03-08,23.906818181818185,14.69,33.33,0.66,06:28:00,18:22:00,America/Mexico_City, GMT-06
2010-03-09,26.64263157894737,16.28,36.0,0.55,06:27:00,18:23:00,America/Mexico_City, GMT-06
2010-03-10,25.750000000000007,14.25,34.7,0.53,06:26:00,18:23:00,America/Mexico_City, GMT-06
2010-03-11,26.219999999999995,15.1,33.59,0.52,06:25:00,18:23:00,America/Mexico_City, GMT-06
2010-03-12,22.808,15.96,31.65,0.66,06:25:00,18:23:00,America/Mexico_City, GMT-06
2010-03-13,20.871052631578944,16.02,27.03,0.68,06:24:00,18:23:00,America/Mexico_City, GMT-06
2010-03-14,25.59526315789473,14.73,34.93,0.53,06:23:00,18:24:00,America/Mexico_City, GMT-06
2010-03-15,27.231428571428566,17.05,36.48,0.56,06:22:00,18:24:00,America/Mexico_City, GMT-06
2010-03-16,23.994285714285713,17.65,30.58,0.71,06:22:00,18:24:00,America/Mexico_City, GMT-06
2010-03-17,20.558571428571426,16.65,24.93,0.73,06:21:00,18:24:00,America/Mexico_City, GMT-06
2010-03-18,17.25842105263158,15.02,20.63,0.8,06:20:00,18:24:00,America/Mexico_City, GMT-06
2010-03-19,24.3721052631579,11.69,33.78,0.57,06:19:00,18:25:00,America/Mexico_City, GMT-06
2010-03-20,26.66549999999999,16.29,33.91,0.5,06:19:00,18:25:00,America/Mexico_City, GMT-06
2010-03-21,20.707,14.71,26.68,0.7,06:18:00,18:25:00,America/Mexico_City, GMT-06
2010-03-22,17.252999999999997,14.36,21.15,0.75,06:17:00,18:25:00,America/Mexico_City, GMT-06
2010-03-23,22.75684210526316,9.75,34.16,0.6,06:16:00,18:25:00,America/Mexico_City, GMT-06
2010-03-24,26.77631578947368,15.64,36.15,0.48,06:15:00,18:25:00,America/Mexico_City, GMT-06
2010-03-25,26.664499999999997,16.23,35.94,0.54,06:15:00,18:25:00,America/Mexico_City, GMT-06
2010-03-26,23.381999999999994,19.64,28.8,0.63,06:14:00,18:26:00,America/Mexico_City, GMT-06
2010-03-27,26.639047619047616,15.96,36.04,0.49,06:13:00,18:26:00,America/Mexico_City, GMT-06
2010-03-28,25.93142857142857,19.19,35.49,0.59,06:12:00,18:26:00,America/Mexico_City, GMT-06
2010-03-29,20.48684210526315,16.56,24.48,0.73,06:11:00,18:26:00,America/Mexico_City, GMT-06
2010-03-30,21.781499999999998,13.38,29.49,0.61,06:11:00,18:26:00,America/Mexico_City, GMT-06
2010-03-31,24.5285,15.02,33.75,0.59,06:10:00,18:26:00,America/Mexico_City, GMT-06
2010-04-01,26.184999999999995,18.25,34.89,0.62,06:09:00,18:27:00,America/Mexico_City, GMT-06
2010-04-02,27.33333333333333,17.84,34.81,0.52,06:08:00,18:27:00,America/Mexico_City, GMT-06
2010-04-03,27.513684210526314,16.71,34.97,0.52,06:08:00,18:27:00,America/Mexico_City, GMT-06
2010-04-04,26.397894736842105,20.18,33.05,0.61,06:07:00,19:27:00,America/Mexico_City, GMT-05
2010-04-05,26.790555555555557,19.39,33.05,0.6,07:06:00,19:27:00,America/Mexico_City, GMT-05
2010-04-06,26.891739130434782,19.69,34.55,0.62,07:05:00,19:27:00,America/Mexico_City, GMT-05
2010-04-07,27.99722222222222,18.84,34.82,0.58,07:05:00,19:28:00,America/Mexico_City, GMT-05
2010-04-08,26.349,18.29,33.02,0.61,07:04:00,19:28:00,America/Mexico_City, GMT-05
2010-04-09,24.060999999999996,20.03,29.5,0.67,07:03:00,19:28:00,America/Mexico_City, GMT-05
2010-04-10,24.056842105263158,20.03,29.18,0.73,07:02:00,19:28:00,America/Mexico_City, GMT-05
2010-04-11,25.673684210526314,18.64,31.6,0.64,07:02:00,19:28:00,America/Mexico_City, GMT-05
2010-04-12,26.627368421052623,19.37,32.84,0.6,07:01:00,19:29:00,America/Mexico_City, GMT-05
2010-04-13,24.17,17.25,32.03,0.77,07:00:00,19:29:00,America/Mexico_City, GMT-05
2010-04-14,25.819999999999997,19.84,32.49,0.67,06:59:00,19:29:00,America/Mexico_City, GMT-05
2010-04-15,24.0195,20.03,31.66,0.72,06:59:00,19:29:00,America/Mexico_City, GMT-05
2010-04-16,24.81,18.03,30.95,0.68,06:58:00,19:29:00,America/Mexico_City, GMT-05
2010-04-17,24.758947368421055,18.0,33.0,0.66,06:57:00,19:30:00,America/Mexico_City, GMT-05
2010-04-18,25.910526315789475,17.29,33.41,0.64,06:57:00,19:30:00,America/Mexico_City, GMT-05
2010-04-19,25.514736842105265,18.21,32.59,0.6,06:56:00,19:30:00,America/Mexico_City, GMT-05
2010-04-20,27.018888888888885,16.74,34.59,0.58,06:55:00,19:30:00,America/Mexico_City, GMT-05
2010-04-21,27.238947368421055,18.8,34.82,0.62,06:55:00,19:30:00,America/Mexico_City, GMT-05
2010-04-22,28.1115,18.29,35.51,0.53,06:54:00,19:31:00,America/Mexico_City, GMT-05
2010-04-23,28.52421052631579,20.96,34.83,0.55,06:54:00,19:31:00,America/Mexico_City, GMT-05
2010-04-24,29.554444444444446,18.29,37.81,0.49,06:53:00,19:31:00,America/Mexico_City, GMT-05
2010-04-25,29.375,19.74,36.75,0.51,06:52:00,19:31:00,America/Mexico_City, GMT-05
2010-04-26,27.004736842105263,19.77,34.15,0.64,06:52:00,19:32:00,America/Mexico_City, GMT-05
2010-04-27,28.92055555555556,20.1,35.89,0.52,06:51:00,19:32:00,America/Mexico_City, GMT-05
2010-04-28,28.65736842105263,20.97,36.08,0.59,06:51:00,19:32:00,America/Mexico_City, GMT-05
2010-04-29,26.49681818181818,21.28,32.96,0.69,06:50:00,19:33:00,America/Mexico_City, GMT-05
2010-04-30,28.590526315789475,20.25,36.86,0.53,06:50:00,19:33:00,America/Mexico_City, GMT-05
2010-05-01,27.156000000000006,19.92,33.59,0.57,06:49:00,19:33:00,America/Mexico_City, GMT-05
2010-05-02,28.060526315789474,19.88,36.14,0.45,06:49:00,19:33:00,America/Mexico_City, GMT-05
2010-05-03,28.66105263157895,17.84,36.51,0.49,06:48:00,19:34:00,America/Mexico_City, GMT-05
2010-05-04,25.979999999999997,22.83,29.94,0.66,06:48:00,19:34:00,America/Mexico_City, GMT-05
2010-05-05,27.73944444444444,20.03,34.82,0.52,06:47:00,19:34:00,America/Mexico_City, GMT-05
2010-05-06,28.425789473684205,20.0,34.95,0.56,06:47:00,19:35:00,America/Mexico_City, GMT-05
2010-05-07,29.22,20.28,36.82,0.49,06:46:00,19:35:00,America/Mexico_City, GMT-05
2010-05-08,28.203157894736847,21.09,36.12,0.52,06:46:00,19:35:00,America/Mexico_City, GMT-05
2010-05-09,28.335789473684212,21.02,32.83,0.47,06:45:00,19:36:00,America/Mexico_City, GMT-05
2010-05-10,28.54947368421053,19.16,35.74,0.52,06:45:00,19:36:00,America/Mexico_City, GMT-05
2010-05-11,28.42684210526316,17.9,36.82,0.38,06:45:00,19:36:00,America/Mexico_City, GMT-05
2010-05-12,29.247894736842106,21.8,36.47,0.47,06:44:00,19:37:00,America/Mexico_City, GMT-05
2010-05-13,28.96857142857143,21.28,36.88,0.47,06:44:00,19:37:00,America/Mexico_City, GMT-05
2010-05-14,25.16,20.84,34.86,0.77,06:44:00,19:37:00,America/Mexico_City, GMT-05
2010-05-15,25.794999999999998,20.16,34.23,0.73,06:43:00,19:38:00,America/Mexico_City, GMT-05
2010-05-16,26.418421052631583,20.03,33.59,0.6,06:43:00,19:38:00,America/Mexico_City, GMT-05
2010-05-17,26.63052631578947,22.81,30.8,0.67,06:43:00,19:38:00,America/Mexico_City, GMT-05
2010-05-18,27.06833333333333,22.02,32.0,0.66,06:42:00,19:39:00,America/Mexico_City, GMT-05
2010-05-19,28.50789473684211,20.97,34.92,0.48,06:42:00,19:39:00,America/Mexico_City, GMT-05
2010-05-20,29.502105263157897,20.76,36.39,0.54,06:42:00,19:39:00,America/Mexico_City, GMT-05
2010-05-21,29.414736842105263,23.11,35.26,0.51,06:42:00,19:40:00,America/Mexico_City, GMT-05
2010-05-22,28.018421052631584,21.93,32.92,0.59,06:41:00,19:40:00,America/Mexico_City, GMT-05
2010-05-23,28.557368421052633,21.37,34.7,0.55,06:41:00,19:41:00,America/Mexico_City, GMT-05
2010-05-24,27.75315789473684,21.89,32.82,0.67,06:41:00,19:41:00,America/Mexico_City, GMT-05
2010-05-25,28.302222222222227,23.03,33.59,0.68,06:41:00,19:41:00,America/Mexico_City, GMT-05
2010-05-26,27.210476190476193,22.24,31.7,0.6,06:41:00,19:42:00,America/Mexico_City, GMT-05
2010-05-27,26.685555555555553,22.21,30.5,0.66,06:41:00,19:42:00,America/Mexico_City, GMT-05
2010-05-28,26.16631578947369,20.37,31.75,0.53,06:41:00,19:42:00,America/Mexico_City, GMT-05
2010-05-29,25.597894736842107,20.76,31.65,0.69,06:40:00,19:43:00,America/Mexico_City, GMT-05
2010-05-30,26.9409090909091,19.93,33.88,0.6,06:40:00,19:43:00,America/Mexico_City, GMT-05
2010-05-31,29.166842105263157,22.28,36.1,0.56,06:40:00,19:43:00,America/Mexico_City, GMT-05
2010-06-01,29.435263157894735,21.14,36.94,0.48,06:40:00,19:44:00,America/Mexico_City, GMT-05
2010-06-02,29.696666666666673,20.83,36.9,0.52,06:40:00,19:44:00,America/Mexico_City, GMT-05
2010-06-03,28.899473684210527,20.79,37.87,0.5,06:40:00,19:44:00,America/Mexico_City, GMT-05
2010-06-04,27.00578947368421,21.22,35.8,0.67,06:40:00,19:45:00,America/Mexico_City, GMT-05
2010-06-05,26.405789473684216,18.95,32.85,0.64,06:40:00,19:45:00,America/Mexico_City, GMT-05
2010-06-06,29.085263157894737,21.14,35.7,0.6,06:40:00,19:45:00,America/Mexico_City, GMT-05
2010-06-07,28.148823529411768,22.15,34.42,0.64,06:40:00,19:46:00,America/Mexico_City, GMT-05
2010-06-08,26.83666666666667,20.84,35.38,0.7,06:40:00,19:46:00,America/Mexico_City, GMT-05
2010-06-09,26.381578947368418,20.21,33.74,0.71,06:40:00,19:46:00,America/Mexico_City, GMT-05
2010-06-10,25.580526315789474,20.0,31.77,0.74,06:40:00,19:47:00,America/Mexico_City, GMT-05
2010-06-11,24.718421052631577,20.67,32.6,0.76,06:40:00,19:47:00,America/Mexico_City, GMT-05
2010-06-12,25.331578947368424,20.03,31.97,0.79,06:40:00,19:47:00,America/Mexico_City, GMT-05
2010-06-13,22.677000000000003,19.03,28.69,0.86,06:41:00,19:47:00,America/Mexico_City, GMT-05
2010-06-14,23.50111111111111,19.94,27.78,0.85,06:41:00,19:48:00,America/Mexico_City, GMT-05
2010-06-15,23.633157894736843,20.03,26.71,0.81,06:41:00,19:48:00,America/Mexico_City, GMT-05
2010-06-16,25.220526315789474,20.25,32.76,0.78,06:41:00,19:48:00,America/Mexico_City, GMT-05
2010-06-17,23.942105263157895,18.95,29.63,0.82,06:41:00,19:49:00,America/Mexico_City, GMT-05
2010-06-18,24.571052631578947,19.25,29.88,0.72,06:41:00,19:49:00,America/Mexico_City, GMT-05
2010-06-19,25.80526315789474,20.03,29.86,0.7,06:41:00,19:49:00,America/Mexico_City, GMT-05
2010-06-20,23.698421052631574,19.77,28.87,0.84,06:42:00,19:49:00,America/Mexico_City, GMT-05
2010-06-21,25.158947368421053,19.24,30.5,0.78,06:42:00,19:49:00,America/Mexico_City, GMT-05
2010-06-22,25.759000000000004,19.81,32.61,0.71,06:42:00,19:50:00,America/Mexico_City, GMT-05
2010-06-23,26.22666666666667,20.29,31.83,0.8,06:42:00,19:50:00,America/Mexico_City, GMT-05
2010-06-24,26.330000000000002,20.69,30.98,0.73,06:42:00,19:50:00,America/Mexico_City, GMT-05
2010-06-25,26.23315789473684,22.14,31.84,0.76,06:43:00,19:50:00,America/Mexico_City, GMT-05
2010-06-26,25.277777777777782,22.19,28.89,0.76,06:43:00,19:50:00,America/Mexico_City, GMT-05
2010-06-27,21.200526315789475,19.69,22.78,1.0,06:43:00,19:50:00,America/Mexico_City, GMT-05
2010-06-28,21.330000000000002,19.03,24.0,0.98,06:43:00,19:51:00,America/Mexico_City, GMT-05
2010-06-29,24.42444444444444,19.25,28.89,0.84,06:44:00,19:51:00,America/Mexico_City, GMT-05
2010-06-30,22.98947368421052,20.03,26.77,0.91,06:44:00,19:51:00,America/Mexico_City, GMT-05
2010-07-01,25.57421052631579,18.25,31.7,0.7,06:44:00,19:51:00,America/Mexico_City, GMT-05
2010-07-02,26.335000000000008,20.25,31.89,0.69,06:44:00,19:51:00,America/Mexico_City, GMT-05
2010-07-03,25.846842105263157,21.38,31.83,0.69,06:45:00,19:51:00,America/Mexico_City, GMT-05
2010-07-04,24.85,19.24,30.73,0.72,06:45:00,19:51:00,America/Mexico_City, GMT-05
2010-07-05,25.310526315789474,18.84,30.97,0.73,06:45:00,19:51:00,America/Mexico_City, GMT-05
2010-07-06,26.31388888888889,19.8,31.69,0.65,06:46:00,19:51:00,America/Mexico_City, GMT-05
2010-07-07,24.40777777777778,21.38,30.25,0.83,06:46:00,19:51:00,America/Mexico_City, GMT-05
2010-07-08,24.05684210526316,20.25,30.01,0.78,06:46:00,19:51:00,America/Mexico_City, GMT-05
2010-07-09,24.159444444444446,19.84,29.75,0.82,06:47:00,19:51:00,America/Mexico_City, GMT-05
2010-07-10,24.882777777777775,20.03,29.7,0.73,06:47:00,19:51:00,America/Mexico_City, GMT-05
2010-07-11,25.134210526315787,19.84,29.0,0.78,06:47:00,19:51:00,America/Mexico_City, GMT-05
2010-07-12,25.531,20.75,30.79,0.74,06:47:00,19:51:00,America/Mexico_City, GMT-05
2010-07-13,26.2095,20.76,31.71,0.7,06:48:00,19:51:00,America/Mexico_City, GMT-05
2010-07-14,24.785555555555558,19.25,31.75,0.79,06:48:00,19:51:00,America/Mexico_City, GMT-05
2010-07-15,23.40363636363637,17.3,29.81,0.8,06:48:00,19:51:00,America/Mexico_City, GMT-05
2010-07-16,24.439000000000004,19.17,29.4,0.76,06:49:00,19:50:00,America/Mexico_City, GMT-05
2010-07-17,24.541428571428572,19.25,28.79,0.72,06:49:00,19:50:00,America/Mexico_City, GMT-05
2010-07-18,23.953684210526315,20.16,28.83,0.87,06:49:00,19:50:00,America/Mexico_City, GMT-05
2010-07-19,23.350526315789477,20.0,29.05,0.88,06:50:00,19:50:00,America/Mexico_City, GMT-05
2010-07-20,23.207894736842107,20.03,27.46,0.93,06:50:00,19:50:00,America/Mexico_City, GMT-05
2010-07-21,22.655238095238097,20.22,27.09,0.96,06:50:00,19:49:00,America/Mexico_City, GMT-05
2010-07-22,23.471818181818186,19.98,28.69,0.87,06:51:00,19:49:00,America/Mexico_City, GMT-05
2010-07-23,25.07684210526316,20.03,30.91,0.78,06:51:00,19:49:00,America/Mexico_City, GMT-05
2010-07-24,25.128499999999995,20.25,31.64,0.82,06:51:00,19:49:00,America/Mexico_City, GMT-05
2010-07-25,25.23315789473684,21.22,30.81,0.84,06:52:00,19:48:00,America/Mexico_City, GMT-05
2010-07-26,24.96944444444445,19.24,30.64,0.7,06:52:00,19:48:00,America/Mexico_City, GMT-05
2010-07-27,22.807619047619045,19.03,27.22,0.89,06:52:00,19:48:00,America/Mexico_City, GMT-05
2010-07-28,24.874999999999993,19.25,30.89,0.76,06:53:00,19:48:00,America/Mexico_City, GMT-05
2010-07-29,25.283181818181824,19.75,30.88,0.77,06:53:00,19:47:00,America/Mexico_City, GMT-05
2010-07-30,24.7915,19.93,29.81,0.66,06:53:00,19:47:00,America/Mexico_City, GMT-05
2010-07-31,25.5,19.63,28.95,0.69,06:54:00,19:46:00,America/Mexico_City, GMT-05
2010-08-01,24.987222222222226,20.23,29.59,0.79,06:54:00,19:46:00,America/Mexico_City, GMT-05
2010-08-02,24.021052631578947,19.03,28.76,0.77,06:54:00,19:46:00,America/Mexico_City, GMT-05
2010-08-03,24.641052631578955,19.0,29.69,0.74,06:54:00,19:45:00,America/Mexico_City, GMT-05
2010-08-04,23.51052631578947,19.81,27.71,0.86,06:55:00,19:45:00,America/Mexico_City, GMT-05
2010-08-05,24.537499999999994,19.24,29.58,0.78,06:55:00,19:44:00,America/Mexico_City, GMT-05
2010-08-06,23.494166666666672,19.21,28.64,0.86,06:55:00,19:44:00,America/Mexico_City, GMT-05
2010-08-07,25.045499999999997,20.98,30.63,0.76,06:56:00,19:43:00,America/Mexico_City, GMT-05
2010-08-08,26.007222222222225,22.18,30.03,0.75,06:56:00,19:43:00,America/Mexico_City, GMT-05
2010-08-09,24.743333333333332,21.71,30.76,0.85,06:56:00,19:42:00,America/Mexico_City, GMT-05
2010-08-10,25.985789473684214,19.84,31.96,0.7,06:56:00,19:42:00,America/Mexico_City, GMT-05
2010-08-11,23.265,19.69,27.78,0.92,06:57:00,19:41:00,America/Mexico_City, GMT-05
2010-08-12,25.01055555555556,19.18,30.82,0.82,06:57:00,19:41:00,America/Mexico_City, GMT-05
2010-08-13,25.556500000000003,22.01,30.41,0.76,06:57:00,19:40:00,America/Mexico_City, GMT-05
2010-08-14,24.328500000000002,19.81,29.95,0.84,06:57:00,19:40:00,America/Mexico_City, GMT-05
2010-08-15,24.09315789473684,20.16,28.86,0.82,06:58:00,19:39:00,America/Mexico_City, GMT-05
2010-08-16,24.33833333333334,20.25,29.95,0.83,06:58:00,19:38:00,America/Mexico_City, GMT-05
2010-08-17,22.991428571428578,17.68,29.85,0.83,06:58:00,19:38:00,America/Mexico_City, GMT-05
2010-08-18,23.026499999999995,19.18,28.82,0.87,06:58:00,19:37:00,America/Mexico_City, GMT-05
2010-08-19,22.819999999999997,19.0,29.1,0.88,06:58:00,19:37:00,America/Mexico_City, GMT-05
2010-08-20,22.988636363636367,19.88,27.94,0.89,06:59:00,19:36:00,America/Mexico_City, GMT-05
2010-08-21,23.089500000000005,17.19,29.21,0.86,06:59:00,19:35:00,America/Mexico_City, GMT-05
2010-08-22,24.988095238095237,19.81,30.01,0.78,06:59:00,19:35:00,America/Mexico_City, GMT-05
2010-08-23,23.779499999999995,19.03,27.82,0.9,06:59:00,19:34:00,America/Mexico_City, GMT-05
2010-08-24,22.812999999999995,19.98,27.58,0.93,06:59:00,19:33:00,America/Mexico_City, GMT-05
2010-08-25,23.599473684210526,19.03,27.76,0.85,06:59:00,19:33:00,America/Mexico_City, GMT-05
2010-08-26,22.605999999999998,19.84,25.79,0.94,07:00:00,19:32:00,America/Mexico_City, GMT-05
2010-08-27,23.915238095238095,19.81,27.62,0.87,07:00:00,19:31:00,America/Mexico_City, GMT-05
2010-08-28,23.931428571428572,19.83,27.94,0.92,07:00:00,19:30:00,America/Mexico_City, GMT-05
2010-08-29,24.8478947368421,19.98,29.76,0.83,07:00:00,19:30:00,America/Mexico_City, GMT-05
2010-08-30,23.265714285714285,19.99,28.7,0.95,07:00:00,19:29:00,America/Mexico_City, GMT-05
2010-08-31,22.435000000000002,19.03,28.0,0.92,07:00:00,19:28:00,America/Mexico_City, GMT-05
2010-09-01,23.771904761904757,19.25,29.76,0.82,07:00:00,19:27:00,America/Mexico_City, GMT-05
2010-09-02,25.012,19.69,29.76,0.78,07:01:00,19:27:00,America/Mexico_City, GMT-05
2010-09-03,24.36809523809524,20.81,26.81,0.87,07:01:00,19:26:00,America/Mexico_City, GMT-05
2010-09-04,21.90904761904762,19.69,24.6,0.96,07:01:00,19:25:00,America/Mexico_City, GMT-05
2010-09-05,24.850952380952382,19.17,29.87,0.77,07:01:00,19:24:00,America/Mexico_City, GMT-05
2010-09-06,24.141428571428577,18.0,30.05,0.8,07:01:00,19:23:00,America/Mexico_City, GMT-05
2010-09-07,24.566499999999998,19.78,29.76,0.87,07:01:00,19:23:00,America/Mexico_City, GMT-05
2010-09-08,24.8935,19.73,30.7,0.8,07:01:00,19:22:00,America/Mexico_City, GMT-05
2010-09-09,24.316842105263156,20.0,29.9,0.78,07:01:00,19:21:00,America/Mexico_City, GMT-05
2010-09-10,23.870952380952378,19.0,31.61,0.82,07:02:00,19:20:00,America/Mexico_City, GMT-05
2010-09-11,23.983809523809523,20.1,28.93,0.9,07:02:00,19:19:00,America/Mexico_City, GMT-05
2010-09-12,24.3865,20.8,27.81,0.92,07:02:00,19:19:00,America/Mexico_City, GMT-05
2010-09-13,24.400526315789477,20.03,28.03,0.8,07:02:00,19:18:00,America/Mexico_City, GMT-05
2010-09-14,25.16238095238095,19.98,29.94,0.75,07:02:00,19:17:00,America/Mexico_City, GMT-05
2010-09-15,24.26681818181818,19.8,28.8,0.86,07:02:00,19:16:00,America/Mexico_City, GMT-05
2010-09-16,23.925909090909087,19.98,27.92,0.84,07:02:00,19:15:00,America/Mexico_City, GMT-05
2010-09-17,24.871428571428574,18.99,29.83,0.76,07:02:00,19:14:00,America/Mexico_City, GMT-05
2010-09-18,25.4695,20.54,30.01,0.84,07:02:00,19:14:00,America/Mexico_City, GMT-05
2010-09-19,24.401999999999997,20.0,31.69,0.81,07:02:00,19:13:00,America/Mexico_City, GMT-05
2010-09-20,24.128571428571426,18.98,29.85,0.83,07:03:00,19:12:00,America/Mexico_City, GMT-05
2010-09-21,24.107999999999997,19.8,29.4,0.86,07:03:00,19:11:00,America/Mexico_City, GMT-05
2010-09-22,24.395238095238092,19.32,30.76,0.88,07:03:00,19:10:00,America/Mexico_City, GMT-05
2010-09-23,23.927272727272733,18.67,29.94,0.8,07:03:00,19:09:00,America/Mexico_City, GMT-05
2010-09-24,23.9505,20.74,30.42,0.86,07:03:00,19:09:00,America/Mexico_City, GMT-05
2010-09-25,22.02052631578947,17.76,25.77,0.92,07:03:00,19:08:00,America/Mexico_City, GMT-05
2010-09-26,19.98428571428571,16.79,23.01,1.0,07:03:00,19:07:00,America/Mexico_City, GMT-05
2010-09-27,20.97714285714286,19.03,24.41,0.97,07:03:00,19:06:00,America/Mexico_City, GMT-05
2010-09-28,22.415499999999994,19.0,25.7,0.92,07:03:00,19:05:00,America/Mexico_City, GMT-05
2010-09-29,21.418260869565216,17.99,24.0,0.83,07:03:00,19:04:00,America/Mexico_City, GMT-05
2010-09-30,23.055500000000002,18.92,27.74,0.84,07:04:00,19:04:00,America/Mexico_City, GMT-05
2010-10-01,22.450476190476188,16.2,28.01,0.76,07:04:00,19:03:00,America/Mexico_City, GMT-05
2010-10-02,22.472380952380945,16.83,27.76,0.73,07:04:00,19:02:00,America/Mexico_City, GMT-05
2010-10-03,22.590952380952373,17.75,28.01,0.72,07:04:00,19:01:00,America/Mexico_City, GMT-05
2010-10-04,21.50210526315789,18.12,25.98,0.84,07:04:00,19:00:00,America/Mexico_City, GMT-05
2010-10-05,21.448095238095238,16.1,27.8,0.8,07:04:00,19:00:00,America/Mexico_City, GMT-05
2010-10-06,22.175238095238097,15.19,27.49,0.69,07:04:00,18:59:00,America/Mexico_City, GMT-05
2010-10-07,21.376818181818184,14.74,26.95,0.7,07:05:00,18:58:00,America/Mexico_City, GMT-05
2010-10-08,21.865238095238094,14.81,27.75,0.82,07:05:00,18:57:00,America/Mexico_City, GMT-05
2010-10-09,21.43904761904762,14.95,27.6,0.78,07:05:00,18:57:00,America/Mexico_City, GMT-05
2010-10-10,21.944999999999997,14.9,27.68,0.7,07:05:00,18:56:00,America/Mexico_City, GMT-05
2010-10-11,23.061499999999995,14.83,30.16,0.69,07:05:00,18:55:00,America/Mexico_City, GMT-05
2010-10-12,23.187142857142856,16.76,29.71,0.85,07:05:00,18:54:00,America/Mexico_City, GMT-05
2010-10-13,22.754285714285714,17.65,28.08,0.75,07:06:00,18:54:00,America/Mexico_City, GMT-05
2010-10-14,21.938499999999998,17.02,27.04,0.7,07:06:00,18:53:00,America/Mexico_City, GMT-05
2010-10-15,21.66526315789474,16.84,26.95,0.81,07:06:00,18:52:00,America/Mexico_City, GMT-05
2010-10-16,22.093999999999998,15.29,27.61,0.72,07:06:00,18:52:00,America/Mexico_City, GMT-05
2010-10-17,23.066190476190474,17.69,28.57,0.76,07:07:00,18:51:00,America/Mexico_City, GMT-05
2010-10-18,22.99238095238095,17.81,29.81,0.74,07:07:00,18:50:00,America/Mexico_City, GMT-05
2010-10-19,24.430500000000002,16.84,30.99,0.74,07:07:00,18:50:00,America/Mexico_City, GMT-05
2010-10-20,22.849523809523806,16.32,28.58,0.75,07:07:00,18:49:00,America/Mexico_City, GMT-05
2010-10-21,22.364499999999996,15.81,28.01,0.78,07:08:00,18:49:00,America/Mexico_City, GMT-05
2010-10-22,22.479999999999997,15.8,28.79,0.76,07:08:00,18:48:00,America/Mexico_City, GMT-05
2010-10-23,23.57904761904762,18.03,30.76,0.75,07:08:00,18:47:00,America/Mexico_City, GMT-05
2010-10-24,24.141,16.94,29.95,0.75,07:08:00,18:47:00,America/Mexico_City, GMT-05
2010-10-25,24.72095238095238,19.7,28.88,0.78,07:09:00,18:46:00,America/Mexico_City, GMT-05
2010-10-26,24.647,17.94,29.74,0.73,07:09:00,18:46:00,America/Mexico_City, GMT-05
2010-10-27,25.772000000000002,17.84,34.8,0.73,07:09:00,18:45:00,America/Mexico_City, GMT-05
2010-10-28,24.8565,20.03,29.9,0.78,07:10:00,18:45:00,America/Mexico_City, GMT-05
2010-10-29,22.09714285714286,18.16,26.2,0.87,07:10:00,18:44:00,America/Mexico_City, GMT-05
2010-10-30,21.314545454545453,17.7,25.62,0.84,07:10:00,18:44:00,America/Mexico_City, GMT-05
2010-10-31,21.897272727272732,15.98,26.76,0.8,07:11:00,17:44:00,America/Mexico_City, GMT-06
2010-11-01,24.249047619047623,16.29,30.8,0.8,06:11:00,17:43:00,America/Mexico_City, GMT-06
2010-11-02,24.380454545454544,18.25,30.8,0.77,06:12:00,17:43:00,America/Mexico_City, GMT-06
2010-11-03,21.6195,17.44,25.58,0.79,06:12:00,17:42:00,America/Mexico_City, GMT-06
2010-11-04,19.81772727272727,16.29,24.07,0.69,06:12:00,17:42:00,America/Mexico_City, GMT-06
2010-11-05,16.85545454545455,14.93,19.96,0.81,06:13:00,17:42:00,America/Mexico_City, GMT-06
2010-11-06,18.4785,13.83,25.13,0.78,06:13:00,17:41:00,America/Mexico_City, GMT-06
2010-11-07,18.213809523809523,11.18,23.78,0.77,06:14:00,17:41:00,America/Mexico_City, GMT-06
2010-11-08,17.969047619047615,8.96,25.05,0.73,06:14:00,17:41:00,America/Mexico_City, GMT-06
2010-11-09,19.504499999999997,11.99,26.89,0.72,06:15:00,17:40:00,America/Mexico_City, GMT-06
2010-11-10,20.395,12.02,27.88,0.71,06:15:00,17:40:00,America/Mexico_City, GMT-06
2010-11-11,21.088571428571427,12.94,28.04,0.72,06:16:00,17:40:00,America/Mexico_City, GMT-06
2010-11-12,21.774499999999996,13.84,27.51,0.73,06:16:00,17:40:00,America/Mexico_City, GMT-06
2010-11-13,22.036,17.72,25.72,0.82,06:17:00,17:39:00,America/Mexico_City, GMT-06
2010-11-14,21.825238095238095,15.65,28.9,0.75,06:17:00,17:39:00,America/Mexico_City, GMT-06
2010-11-15,22.884210526315794,16.51,29.97,0.68,06:18:00,17:39:00,America/Mexico_City, GMT-06
2010-11-16,21.17809523809524,11.23,28.93,0.67,06:18:00,17:39:00,America/Mexico_City, GMT-06
2010-11-17,23.70809523809524,16.85,30.88,0.72,06:19:00,17:39:00,America/Mexico_City, GMT-06
2010-11-18,23.255,18.19,28.66,0.75,06:19:00,17:39:00,America/Mexico_City, GMT-06
2010-11-19,22.524761904761906,19.01,26.4,0.78,06:20:00,17:39:00,America/Mexico_City, GMT-06
2010-11-20,21.70421052631579,17.77,25.12,0.82,06:20:00,17:39:00,America/Mexico_City, GMT-06
2010-11-21,23.01157894736842,17.28,28.02,0.76,06:21:00,17:39:00,America/Mexico_City, GMT-06
2010-11-22,22.7985,14.56,29.41,0.77,06:21:00,17:39:00,America/Mexico_City, GMT-06
2010-11-23,23.07894736842105,16.02,31.52,0.77,06:22:00,17:39:00,America/Mexico_City, GMT-06
2010-11-24,22.809499999999996,15.76,29.99,0.72,06:22:00,17:39:00,America/Mexico_City, GMT-06
2010-11-25,23.338095238095246,15.01,31.6,0.68,06:23:00,17:39:00,America/Mexico_City, GMT-06
2010-11-26,23.282608695652176,13.67,31.0,0.67,06:24:00,17:39:00,America/Mexico_City, GMT-06
2010-11-27,20.57052631578948,17.68,23.29,0.83,06:24:00,17:39:00,America/Mexico_City, GMT-06
2010-11-28,21.824736842105263,15.37,29.63,0.77,06:25:00,17:39:00,America/Mexico_City, GMT-06
2010-11-29,24.981666666666666,14.83,31.75,0.65,06:25:00,17:39:00,America/Mexico_City, GMT-06
2010-11-30,24.023000000000003,15.24,31.87,0.68,06:26:00,17:39:00,America/Mexico_City, GMT-06
2010-12-01,17.84222222222222,15.68,20.03,0.84,06:27:00,17:39:00,America/Mexico_City, GMT-06
2010-12-02,19.478999999999996,15.83,28.45,0.83,06:27:00,17:39:00,America/Mexico_City, GMT-06
2010-12-03,18.931,14.0,24.09,0.79,06:28:00,17:40:00,America/Mexico_City, GMT-06
2010-12-04,20.294444444444444,13.84,26.59,0.71,06:28:00,17:40:00,America/Mexico_City, GMT-06
2010-12-05,20.048888888888886,15.02,24.57,0.7,06:29:00,17:40:00,America/Mexico_City, GMT-06
2010-12-06,19.895294117647058,16.02,24.51,0.69,06:29:00,17:40:00,America/Mexico_City, GMT-06
2010-12-07,18.439999999999998,10.25,24.89,0.76,06:30:00,17:41:00,America/Mexico_City, GMT-06
2010-12-08,19.877894736842112,11.08,27.26,0.73,06:31:00,17:41:00,America/Mexico_City, GMT-06
2010-12-09,18.097894736842107,13.25,23.4,0.71,06:31:00,17:41:00,America/Mexico_City, GMT-06
2010-12-10,17.912727272727274,10.16,25.89,0.72,06:32:00,17:42:00,America/Mexico_City, GMT-06
2010-12-11,18.557142857142857,9.79,28.19,0.73,06:32:00,17:42:00,America/Mexico_City, GMT-06
2010-12-12,18.3925,9.23,23.82,0.72,06:33:00,17:42:00,America/Mexico_City, GMT-06
2010-12-13,16.823499999999996,13.02,20.65,0.79,06:33:00,17:43:00,America/Mexico_City, GMT-06
2010-12-14,17.038571428571426,11.17,23.57,0.7,06:34:00,17:43:00,America/Mexico_City, GMT-06
2010-12-15,17.8215,8.64,25.84,0.72,06:35:00,17:43:00,America/Mexico_City, GMT-06
2010-12-16,19.659,9.13,28.79,0.67,06:35:00,17:44:00,America/Mexico_City, GMT-06
2010-12-17,19.965238095238096,11.03,28.41,0.67,06:36:00,17:44:00,America/Mexico_City, GMT-06
2010-12-18,18.86714285714286,9.68,25.9,0.74,06:36:00,17:45:00,America/Mexico_City, GMT-06
2010-12-19,21.20157894736842,13.63,27.02,0.72,06:37:00,17:45:00,America/Mexico_City, GMT-06
2010-12-20,20.385789473684213,11.66,27.81,0.75,06:37:00,17:45:00,America/Mexico_City, GMT-06
2010-12-21,19.952272727272724,13.11,27.94,0.77,06:38:00,17:46:00,America/Mexico_City, GMT-06
2010-12-22,19.582105263157892,10.72,26.58,0.74,06:38:00,17:46:00,America/Mexico_City, GMT-06
2010-12-23,19.83368421052631,12.9,26.08,0.74,06:39:00,17:47:00,America/Mexico_City, GMT-06
2010-12-24,19.64842105263158,11.03,27.29,0.73,06:39:00,17:47:00,America/Mexico_City, GMT-06
2010-12-25,18.69263157894737,12.19,25.07,0.78,06:40:00,17:48:00,America/Mexico_City, GMT-06
2010-12-26,17.608421052631577,12.68,21.76,0.72,06:40:00,17:48:00,America/Mexico_City, GMT-06
2010-12-27,17.195263157894736,12.68,24.2,0.73,06:40:00,17:49:00,America/Mexico_City, GMT-06
2010-12-28,16.916999999999998,11.71,23.87,0.78,06:41:00,17:50:00,America/Mexico_City, GMT-06
2010-12-29,18.808000000000003,8.79,27.82,0.71,06:41:00,17:50:00,America/Mexico_City, GMT-06
2010-12-30,23.071666666666673,12.13,31.61,0.6,06:42:00,17:51:00,America/Mexico_City, GMT-06
2010-12-31,23.567000000000004,15.02,31.86,0.63,06:42:00,17:51:00,America/Mexico_City, GMT-06
