date,avg_temperature,min_temperature,max_temperature,humidity,sunrise_time,sunset_time,time_zone,gmt_zone
2010-01-01,14.815833333333332,9.54,20.4,0.53,07:12:00,18:11:00,America/Mexico_City, GMT-06
2010-01-02,11.716666666666667,5.54,20.21,0.68,07:12:00,18:12:00,America/Mexico_City, GMT-06
2010-01-03,12.087083333333334,8.68,16.96,0.74,07:12:00,18:12:00,America/Mexico_City, GMT-06
2010-01-04,11.279583333333333,6.54,16.38,0.65,07:12:00,18:13:00,America/Mexico_City, GMT-06
2010-01-05,10.90625,5.6,17.24,0.63,07:13:00,18:14:00,America/Mexico_City, GMT-06
2010-01-06,12.567083333333334,7.45,19.16,0.63,07:13:00,18:14:00,America/Mexico_City, GMT-06
2010-01-07,12.634166666666667,6.34,18.1,0.68,07:13:00,18:15:00,America/Mexico_City, GMT-06
2010-01-08,10.26375,8.55,13.13,0.84,07:13:00,18:15:00,America/Mexico_City, GMT-06
2010-01-09,9.330416666666666,7.68,10.41,0.91,07:14:00,18:16:00,America/Mexico_City, GMT-06
2010-01-10,9.7,5.68,16.38,0.76,07:14:00,18:17:00,America/Mexico_City, GMT-06
2010-01-11,9.1075,3.52,14.29,0.67,07:14:00,18:17:00,America/Mexico_City, GMT-06
2010-01-12,10.004166666666668,4.42,15.31,0.69,07:14:00,18:18:00,America/Mexico_City, GMT-06
2010-01-13,11.192916666666664,6.74,18.1,0.69,07:14:00,18:19:00,America/Mexico_City, GMT-06
2010-01-14,12.760416666666666,6.37,20.07,0.55,07:14:00,18:19:00,America/Mexico_City, GMT-06
2010-01-15,13.398750000000001,8.64,19.04,0.46,07:14:00,18:20:00,America/Mexico_City, GMT-06
2010-01-16,12.979583333333332,5.75,21.09,0.59,07:15:00,18:21:00,America/Mexico_City, GMT-06
2010-01-17,14.651250000000003,6.29,23.97,0.55,07:15:00,18:21:00,America/Mexico_City, GMT-06
2010-01-18,15.93416666666667,8.34,23.66,0.52,07:15:00,18:22:00,America/Mexico_City, GMT-06
2010-01-19,15.454583333333334,6.26,24.89,0.55,07:15:00,18:23:00,America/Mexico_City, GMT-06
2010-01-20,16.17791666666667,7.04,25.99,0.43,07:15:00,18:23:00,America/Mexico_City, GMT-06
2010-01-21,16.320416666666667,7.02,25.97,0.31,07:15:00,18:24:00,America/Mexico_City, GMT-06
2010-01-22,15.361666666666665,4.13,25.31,0.33,07:14:00,18:24:00,America/Mexico_City, GMT-06
2010-01-23,16.51458333333333,7.07,27.02,0.32,07:14:00,18:25:00,America/Mexico_City, GMT-06
2010-01-24,15.375833333333334,3.81,27.02,0.34,07:14:00,18:26:00,America/Mexico_City, GMT-06
2010-01-25,15.29166666666667,5.93,24.96,0.41,07:14:00,18:26:00,America/Mexico_City, GMT-06
2010-01-26,15.291666666666666,5.29,24.09,0.45,07:14:00,18:27:00,America/Mexico_City, GMT-06
2010-01-27,14.732083333333335,5.63,24.14,0.53,07:14:00,18:28:00,America/Mexico_City, GMT-06
2010-01-28,15.129583333333331,6.66,22.12,0.49,07:14:00,18:28:00,America/Mexico_City, GMT-06
2010-01-29,15.588333333333333,10.09,21.2,0.45,07:13:00,18:29:00,America/Mexico_City, GMT-06
2010-01-30,13.381666666666668,11.41,16.25,0.58,07:13:00,18:29:00,America/Mexico_City, GMT-06
2010-01-31,12.229583333333332,5.23,19.05,0.65,07:13:00,18:30:00,America/Mexico_City, GMT-06
2010-02-01,12.803333333333333,10.29,17.87,0.69,07:13:00,18:31:00,America/Mexico_City, GMT-06
2010-02-02,12.614583333333334,8.34,19.02,0.72,07:12:00,18:31:00,America/Mexico_City, GMT-06
2010-02-03,13.12,11.44,14.97,0.76,07:12:00,18:32:00,America/Mexico_City, GMT-06
2010-02-04,12.229166666666666,9.64,14.96,0.83,07:12:00,18:32:00,America/Mexico_City, GMT-06
2010-02-05,13.711666666666668,6.02,22.21,0.4,07:11:00,18:33:00,America/Mexico_City, GMT-06
2010-02-06,13.02791666666667,2.63,23.21,0.51,07:11:00,18:33:00,America/Mexico_City, GMT-06
2010-02-07,13.933750000000003,3.3,23.96,0.45,07:11:00,18:34:00,America/Mexico_City, GMT-06
2010-02-08,14.659999999999998,8.41,22.22,0.44,07:10:00,18:34:00,America/Mexico_City, GMT-06
2010-02-09,14.382083333333336,6.4,23.53,0.55,07:10:00,18:35:00,America/Mexico_City, GMT-06
2010-02-10,16.429583333333337,9.39,25.06,0.48,07:09:00,18:35:00,America/Mexico_City, GMT-06
2010-02-11,16.82916666666667,11.91,23.98,0.39,07:09:00,18:36:00,America/Mexico_City, GMT-06
2010-02-12,16.243750000000002,9.34,22.52,0.46,07:09:00,18:36:00,America/Mexico_City, GMT-06
2010-02-13,14.69916666666667,6.42,23.18,0.53,07:08:00,18:37:00,America/Mexico_City, GMT-06
2010-02-14,16.780833333333337,10.88,24.04,0.37,07:08:00,18:37:00,America/Mexico_City, GMT-06
2010-02-15,14.191250000000002,9.2,21.03,0.45,07:07:00,18:38:00,America/Mexico_City, GMT-06
2010-02-16,12.238750000000003,4.48,21.84,0.57,07:06:00,18:38:00,America/Mexico_City, GMT-06
2010-02-17,11.209583333333333,8.55,14.96,0.69,07:06:00,18:39:00,America/Mexico_City, GMT-06
2010-02-18,9.524583333333334,7.53,12.96,0.83,07:05:00,18:39:00,America/Mexico_City, GMT-06
2010-02-19,12.674999999999999,5.55,20.18,0.59,07:05:00,18:40:00,America/Mexico_City, GMT-06
2010-02-20,15.560833333333335,9.39,22.95,0.43,07:04:00,18:40:00,America/Mexico_City, GMT-06
2010-02-21,16.016250000000003,10.18,22.21,0.36,07:04:00,18:40:00,America/Mexico_City, GMT-06
2010-02-22,16.119583333333335,8.95,24.45,0.24,07:03:00,18:41:00,America/Mexico_City, GMT-06
2010-02-23,17.8775,12.28,25.22,0.27,07:02:00,18:41:00,America/Mexico_City, GMT-06
2010-02-24,14.589999999999998,9.47,19.44,0.38,07:02:00,18:42:00,America/Mexico_City, GMT-06
2010-02-25,13.817916666666669,2.34,25.13,0.44,07:01:00,18:42:00,America/Mexico_City, GMT-06
2010-02-26,15.424166666666666,7.64,24.23,0.31,07:00:00,18:42:00,America/Mexico_City, GMT-06
2010-02-27,13.9525,4.33,23.1,0.45,07:00:00,18:43:00,America/Mexico_City, GMT-06
2010-02-28,14.819583333333334,4.58,23.17,0.41,06:59:00,18:43:00,America/Mexico_City, GMT-06
2010-03-01,16.40125,9.1,25.09,0.32,06:58:00,18:43:00,America/Mexico_City, GMT-06
2010-03-02,16.12125,6.12,25.27,0.37,06:57:00,18:44:00,America/Mexico_City, GMT-06
2010-03-03,16.118750000000002,5.33,26.08,0.41,06:57:00,18:44:00,America/Mexico_City, GMT-06
2010-03-04,17.5425,6.23,26.2,0.34,06:56:00,18:44:00,America/Mexico_City, GMT-06
2010-03-05,17.988333333333333,7.71,26.25,0.34,06:55:00,18:45:00,America/Mexico_City, GMT-06
2010-03-06,17.462500000000002,8.53,26.18,0.38,06:54:00,18:45:00,America/Mexico_City, GMT-06
2010-03-07,17.6825,9.41,26.04,0.52,06:53:00,18:45:00,America/Mexico_City, GMT-06
2010-03-08,17.747083333333332,11.46,22.18,0.48,06:53:00,18:46:00,America/Mexico_City, GMT-06
2010-03-09,20.445217391304347,12.32,27.0,0.35,06:52:00,18:46:00,America/Mexico_City, GMT-06
2010-03-10,19.41166666666667,11.13,27.07,0.36,06:51:00,18:46:00,America/Mexico_City, GMT-06
2010-03-11,19.70041666666667,11.18,29.22,0.28,06:50:00,18:46:00,America/Mexico_City, GMT-06
2010-03-12,19.00625,10.36,28.25,0.25,06:49:00,18:47:00,America/Mexico_City, GMT-06
2010-03-13,17.44666666666667,6.34,28.86,0.39,06:49:00,18:47:00,America/Mexico_City, GMT-06
2010-03-14,20.10173913043479,11.97,27.16,0.21,06:48:00,18:47:00,America/Mexico_City, GMT-06
2010-03-15,19.3425,12.05,26.86,0.26,06:47:00,18:48:00,America/Mexico_City, GMT-06
2010-03-16,18.74583333333333,13.32,25.09,0.37,06:46:00,18:48:00,America/Mexico_City, GMT-06
2010-03-17,15.269583333333332,9.09,23.38,0.58,06:45:00,18:48:00,America/Mexico_City, GMT-06
2010-03-18,14.937083333333334,4.46,23.33,0.46,06:44:00,18:48:00,America/Mexico_City, GMT-06
2010-03-19,18.485833333333332,12.08,25.94,0.4,06:43:00,18:49:00,America/Mexico_City, GMT-06
2010-03-20,18.57166666666667,12.08,25.03,0.27,06:43:00,18:49:00,America/Mexico_City, GMT-06
2010-03-21,17.085833333333337,6.31,25.2,0.42,06:42:00,18:49:00,America/Mexico_City, GMT-06
2010-03-22,16.783333333333335,6.44,25.23,0.41,06:41:00,18:49:00,America/Mexico_City, GMT-06
2010-03-23,18.669166666666666,11.98,27.17,0.33,06:40:00,18:50:00,America/Mexico_City, GMT-06
2010-03-24,18.741250000000004,12.0,26.98,0.27,06:39:00,18:50:00,America/Mexico_City, GMT-06
2010-03-25,19.548750000000002,11.62,27.22,0.26,06:38:00,18:50:00,America/Mexico_City, GMT-06
2010-03-26,17.727500000000003,6.34,28.04,0.45,06:37:00,18:50:00,America/Mexico_City, GMT-06
2010-03-27,19.898750000000003,11.98,28.25,0.29,06:37:00,18:51:00,America/Mexico_City, GMT-06
2010-03-28,18.12875,8.34,27.31,0.4,06:36:00,18:51:00,America/Mexico_City, GMT-06
2010-03-29,14.798333333333332,7.37,21.91,0.63,06:35:00,18:51:00,America/Mexico_City, GMT-06
2010-03-30,16.370833333333334,9.16,23.16,0.48,06:34:00,18:51:00,America/Mexico_City, GMT-06
2010-03-31,17.79291666666667,10.17,25.0,0.37,06:33:00,18:51:00,America/Mexico_City, GMT-06
2010-04-01,19.05708333333334,12.01,26.05,0.31,06:32:00,18:52:00,America/Mexico_City, GMT-06
2010-04-02,18.926250000000003,12.82,26.25,0.28,06:31:00,18:52:00,America/Mexico_City, GMT-06
2010-04-03,18.290833333333335,10.15,26.04,0.36,06:31:00,18:52:00,America/Mexico_City, GMT-06
2010-04-04,19.43695652173913,12.23,26.1,0.38,06:30:00,19:52:00,America/Mexico_City, GMT-05
2010-04-05,20.03,11.31,28.11,0.36,07:29:00,19:53:00,America/Mexico_City, GMT-05
2010-04-06,19.603333333333328,10.4,28.17,0.44,07:28:00,19:53:00,America/Mexico_City, GMT-05
2010-04-07,19.404999999999998,13.96,27.51,0.46,07:27:00,19:53:00,America/Mexico_City, GMT-05
2010-04-08,17.331666666666667,11.39,24.24,0.57,07:26:00,19:53:00,America/Mexico_City, GMT-05
2010-04-09,18.30666666666667,10.75,26.11,0.55,07:26:00,19:54:00,America/Mexico_City, GMT-05
2010-04-10,18.745416666666667,11.38,26.12,0.53,07:25:00,19:54:00,America/Mexico_City, GMT-05
2010-04-11,19.449583333333333,11.34,26.31,0.52,07:24:00,19:54:00,America/Mexico_City, GMT-05
2010-04-12,17.437916666666663,13.38,23.42,0.63,07:23:00,19:54:00,America/Mexico_City, GMT-05
2010-04-13,17.66791666666667,11.56,25.18,0.54,07:22:00,19:55:00,America/Mexico_City, GMT-05
2010-04-14,16.917499999999997,9.1,24.98,0.55,07:22:00,19:55:00,America/Mexico_City, GMT-05
2010-04-15,16.865416666666665,9.29,24.16,0.51,07:21:00,19:55:00,America/Mexico_City, GMT-05
2010-04-16,15.928750000000003,9.37,22.3,0.54,07:20:00,19:56:00,America/Mexico_City, GMT-05
2010-04-17,13.605833333333335,7.53,21.38,0.73,07:19:00,19:56:00,America/Mexico_City, GMT-05
2010-04-18,16.352083333333336,9.21,23.26,0.56,07:18:00,19:56:00,America/Mexico_City, GMT-05
2010-04-19,18.15875,9.63,26.17,0.5,07:18:00,19:57:00,America/Mexico_City, GMT-05
2010-04-20,19.174166666666665,11.94,27.17,0.31,07:17:00,19:57:00,America/Mexico_City, GMT-05
2010-04-21,20.210833333333333,9.23,28.22,0.36,07:16:00,19:57:00,America/Mexico_City, GMT-05
2010-04-22,20.528750000000006,14.98,27.16,0.34,07:16:00,19:57:00,America/Mexico_City, GMT-05
2010-04-23,21.13625,13.16,27.18,0.33,07:15:00,19:58:00,America/Mexico_City, GMT-05
2010-04-24,21.39,15.07,27.99,0.31,07:14:00,19:58:00,America/Mexico_City, GMT-05
2010-04-25,22.016250000000003,15.19,29.28,0.25,07:14:00,19:58:00,America/Mexico_City, GMT-05
2010-04-26,21.454583333333336,12.83,29.1,0.25,07:13:00,19:59:00,America/Mexico_City, GMT-05
2010-04-27,21.2475,12.35,29.19,0.21,07:12:00,19:59:00,America/Mexico_City, GMT-05
2010-04-28,21.19304347826087,12.99,28.11,0.19,07:12:00,19:59:00,America/Mexico_City, GMT-05
2010-04-29,20.962500000000002,12.72,29.19,0.18,07:11:00,20:00:00,America/Mexico_City, GMT-05
2010-04-30,20.34875,9.36,29.19,0.15,07:10:00,20:00:00,America/Mexico_City, GMT-05
2010-05-01,21.612916666666667,13.16,29.97,0.17,07:10:00,20:01:00,America/Mexico_City, GMT-05
2010-05-02,21.398333333333337,6.34,30.97,0.13,07:09:00,20:01:00,America/Mexico_City, GMT-05
2010-05-03,22.409166666666668,12.06,31.12,0.21,07:09:00,20:01:00,America/Mexico_City, GMT-05
2010-05-04,21.0825,13.74,29.04,0.35,07:08:00,20:02:00,America/Mexico_City, GMT-05
2010-05-05,21.685,12.48,30.21,0.38,07:08:00,20:02:00,America/Mexico_City, GMT-05
2010-05-06,21.05333333333334,7.8,31.38,0.27,07:07:00,20:02:00,America/Mexico_City, GMT-05
2010-05-07,22.164583333333336,11.63,32.23,0.34,07:07:00,20:03:00,America/Mexico_City, GMT-05
2010-05-08,21.182083333333328,10.99,31.11,0.3,07:06:00,20:03:00,America/Mexico_City, GMT-05
2010-05-09,20.089166666666667,12.29,29.32,0.49,07:06:00,20:04:00,America/Mexico_City, GMT-05
2010-05-10,20.18666666666667,13.19,28.16,0.41,07:05:00,20:04:00,America/Mexico_City, GMT-05
2010-05-11,21.24916666666667,11.61,28.24,0.39,07:05:00,20:04:00,America/Mexico_City, GMT-05
2010-05-12,21.40869565217391,14.72,29.17,0.32,07:04:00,20:05:00,America/Mexico_City, GMT-05
2010-05-13,19.5425,12.64,27.09,0.48,07:04:00,20:05:00,America/Mexico_City, GMT-05
2010-05-14,19.852916666666662,14.44,26.3,0.49,07:04:00,20:05:00,America/Mexico_City, GMT-05
2010-05-15,18.86958333333334,13.54,26.26,0.54,07:03:00,20:06:00,America/Mexico_City, GMT-05
2010-05-16,16.905,13.59,22.53,0.65,07:03:00,20:06:00,America/Mexico_City, GMT-05
2010-05-17,17.157500000000002,11.4,23.27,0.65,07:03:00,20:07:00,America/Mexico_City, GMT-05
2010-05-18,19.13125,12.38,26.32,0.55,07:02:00,20:07:00,America/Mexico_City, GMT-05
2010-05-19,20.755217391304345,11.81,28.23,0.43,07:02:00,20:08:00,America/Mexico_City, GMT-05
2010-05-20,21.747083333333336,12.97,29.28,0.37,07:02:00,20:08:00,America/Mexico_City, GMT-05
2010-05-21,23.260833333333338,13.86,31.01,0.33,07:01:00,20:08:00,America/Mexico_City, GMT-05
2010-05-22,22.975000000000005,14.48,30.04,0.25,07:01:00,20:09:00,America/Mexico_City, GMT-05
2010-05-23,22.360416666666666,13.59,30.19,0.32,07:01:00,20:09:00,America/Mexico_City, GMT-05
2010-05-24,21.678749999999997,14.67,29.96,0.51,07:01:00,20:10:00,America/Mexico_City, GMT-05
2010-05-25,23.056249999999995,15.78,30.18,0.4,07:00:00,20:10:00,America/Mexico_City, GMT-05
2010-05-26,21.312500000000004,14.38,28.3,0.49,07:00:00,20:10:00,America/Mexico_City, GMT-05
2010-05-27,19.668333333333333,15.37,26.19,0.61,07:00:00,20:11:00,America/Mexico_City, GMT-05
2010-05-28,18.330416666666668,12.46,23.82,0.67,07:00:00,20:11:00,America/Mexico_City, GMT-05
2010-05-29,21.14916666666667,14.39,28.98,0.51,07:00:00,20:12:00,America/Mexico_City, GMT-05
2010-05-30,22.395,14.6,31.0,0.27,07:00:00,20:12:00,America/Mexico_City, GMT-05
2010-05-31,22.140833333333333,11.46,30.61,0.3,06:59:00,20:12:00,America/Mexico_City, GMT-05
2010-06-01,22.050833333333333,13.05,30.14,0.41,06:59:00,20:13:00,America/Mexico_City, GMT-05
2010-06-02,22.599583333333328,12.6,28.98,0.34,06:59:00,20:13:00,America/Mexico_City, GMT-05
2010-06-03,22.70375,13.18,29.84,0.27,06:59:00,20:13:00,America/Mexico_City, GMT-05
2010-06-04,22.58083333333333,12.66,30.19,0.29,06:59:00,20:14:00,America/Mexico_City, GMT-05
2010-06-05,21.7925,14.09,28.97,0.39,06:59:00,20:14:00,America/Mexico_City, GMT-05
2010-06-06,20.937083333333334,12.59,29.41,0.43,06:59:00,20:15:00,America/Mexico_City, GMT-05
2010-06-07,21.384583333333328,13.62,29.1,0.44,06:59:00,20:15:00,America/Mexico_City, GMT-05
2010-06-08,20.58791666666666,15.63,28.12,0.52,06:59:00,20:15:00,America/Mexico_City, GMT-05
2010-06-09,20.279583333333328,13.34,28.12,0.59,06:59:00,20:16:00,America/Mexico_City, GMT-05
2010-06-10,20.376666666666672,14.88,27.64,0.55,06:59:00,20:16:00,America/Mexico_City, GMT-05
2010-06-11,19.94375,16.16,26.42,0.61,06:59:00,20:16:00,America/Mexico_City, GMT-05
2010-06-12,20.757083333333334,15.88,27.17,0.61,06:59:00,20:16:00,America/Mexico_City, GMT-05
2010-06-13,19.050833333333333,14.41,26.34,0.64,06:59:00,20:17:00,America/Mexico_City, GMT-05
2010-06-14,19.217500000000005,14.55,26.57,0.6,07:00:00,20:17:00,America/Mexico_City, GMT-05
2010-06-15,18.6025,12.63,26.31,0.64,07:00:00,20:17:00,America/Mexico_City, GMT-05
2010-06-16,18.3875,15.57,22.64,0.68,07:00:00,20:18:00,America/Mexico_City, GMT-05
2010-06-17,18.150833333333335,15.37,21.67,0.69,07:00:00,20:18:00,America/Mexico_City, GMT-05
2010-06-18,18.474166666666665,14.57,23.13,0.64,07:00:00,20:18:00,America/Mexico_City, GMT-05
2010-06-19,18.647916666666667,14.43,27.17,0.64,07:00:00,20:18:00,America/Mexico_City, GMT-05
2010-06-20,18.77208333333333,13.62,25.39,0.59,07:00:00,20:19:00,America/Mexico_City, GMT-05
2010-06-21,19.205833333333334,14.45,26.52,0.61,07:01:00,20:19:00,America/Mexico_City, GMT-05
2010-06-22,18.72583333333333,14.36,26.41,0.65,07:01:00,20:19:00,America/Mexico_City, GMT-05
2010-06-23,18.27,12.41,27.17,0.66,07:01:00,20:19:00,America/Mexico_City, GMT-05
2010-06-24,18.202916666666663,14.26,24.19,0.66,07:01:00,20:19:00,America/Mexico_City, GMT-05
2010-06-25,18.72416666666667,13.52,26.38,0.61,07:01:00,20:19:00,America/Mexico_City, GMT-05
2010-06-26,20.55875,15.82,27.54,0.54,07:02:00,20:20:00,America/Mexico_City, GMT-05
2010-06-27,20.405,12.6,27.33,0.57,07:02:00,20:20:00,America/Mexico_City, GMT-05
2010-06-28,20.455,13.62,27.49,0.57,07:02:00,20:20:00,America/Mexico_City, GMT-05
2010-06-29,20.069583333333334,14.42,26.19,0.59,07:02:00,20:20:00,America/Mexico_City, GMT-05
2010-06-30,19.687083333333337,15.8,24.6,0.64,07:03:00,20:20:00,America/Mexico_City, GMT-05
2010-07-01,19.49458333333333,16.03,24.33,0.71,07:03:00,20:20:00,America/Mexico_City, GMT-05
2010-07-02,20.577499999999997,16.52,26.12,0.65,07:03:00,20:20:00,America/Mexico_City, GMT-05
2010-07-03,18.814583333333328,15.24,24.2,0.67,07:04:00,20:20:00,America/Mexico_City, GMT-05
2010-07-04,18.434583333333332,13.63,23.16,0.67,07:04:00,20:20:00,America/Mexico_City, GMT-05
2010-07-05,17.027499999999996,13.38,24.25,0.74,07:04:00,20:20:00,America/Mexico_City, GMT-05
2010-07-06,17.227499999999996,13.65,24.18,0.8,07:05:00,20:20:00,America/Mexico_City, GMT-05
2010-07-07,17.498749999999998,14.59,23.1,0.77,07:05:00,20:20:00,America/Mexico_City, GMT-05
2010-07-08,16.85666666666667,14.57,21.21,0.81,07:05:00,20:20:00,America/Mexico_City, GMT-05
2010-07-09,16.30375,14.56,19.35,0.83,07:06:00,20:20:00,America/Mexico_City, GMT-05
2010-07-10,16.305833333333336,13.62,20.29,0.81,07:06:00,20:20:00,America/Mexico_City, GMT-05
2010-07-11,18.07,13.7,22.59,0.71,07:06:00,20:20:00,America/Mexico_City, GMT-05
2010-07-12,18.485833333333336,12.89,25.43,0.73,07:07:00,20:20:00,America/Mexico_City, GMT-05
2010-07-13,19.405416666666664,13.59,25.32,0.63,07:07:00,20:20:00,America/Mexico_City, GMT-05
2010-07-14,17.99416666666667,13.58,23.3,0.65,07:07:00,20:20:00,America/Mexico_City, GMT-05
2010-07-15,17.754583333333333,12.55,24.16,0.7,07:08:00,20:19:00,America/Mexico_City, GMT-05
2010-07-16,18.446666666666665,13.45,24.3,0.62,07:08:00,20:19:00,America/Mexico_City, GMT-05
2010-07-17,17.999166666666664,12.63,24.16,0.6,07:08:00,20:19:00,America/Mexico_City, GMT-05
2010-07-18,18.483333333333334,14.55,24.29,0.66,07:09:00,20:19:00,America/Mexico_City, GMT-05
2010-07-19,18.473333333333333,15.17,24.23,0.71,07:09:00,20:19:00,America/Mexico_City, GMT-05
2010-07-20,17.427083333333332,14.62,22.24,0.76,07:10:00,20:18:00,America/Mexico_City, GMT-05
2010-07-21,18.22583333333333,14.36,24.18,0.69,07:10:00,20:18:00,America/Mexico_City, GMT-05
2010-07-22,16.56666666666666,14.63,19.34,0.81,07:10:00,20:18:00,America/Mexico_City, GMT-05
2010-07-23,15.994166666666665,14.52,19.2,0.87,07:11:00,20:17:00,America/Mexico_City, GMT-05
2010-07-24,15.416666666666663,14.6,17.91,0.9,07:11:00,20:17:00,America/Mexico_City, GMT-05
2010-07-25,16.232499999999998,13.56,20.4,0.85,07:11:00,20:17:00,America/Mexico_City, GMT-05
2010-07-26,16.73875,13.58,21.96,0.77,07:12:00,20:16:00,America/Mexico_City, GMT-05
2010-07-27,18.669999999999995,14.21,25.58,0.66,07:12:00,20:16:00,America/Mexico_City, GMT-05
2010-07-28,16.869999999999994,14.52,22.55,0.76,07:13:00,20:16:00,America/Mexico_City, GMT-05
2010-07-29,17.47958333333333,13.35,24.62,0.71,07:13:00,20:15:00,America/Mexico_City, GMT-05
2010-07-30,17.20541666666666,12.38,24.18,0.61,07:13:00,20:15:00,America/Mexico_City, GMT-05
2010-07-31,16.91583333333333,12.54,24.77,0.66,07:14:00,20:14:00,America/Mexico_City, GMT-05
2010-08-01,17.83625,10.58,24.39,0.64,07:14:00,20:14:00,America/Mexico_City, GMT-05
2010-08-02,19.172083333333337,14.61,26.79,0.63,07:14:00,20:14:00,America/Mexico_City, GMT-05
2010-08-03,18.407083333333333,13.6,24.65,0.66,07:15:00,20:13:00,America/Mexico_City, GMT-05
2010-08-04,17.822916666666668,13.44,24.21,0.63,07:15:00,20:13:00,America/Mexico_City, GMT-05
2010-08-05,17.96833333333333,13.2,24.19,0.62,07:15:00,20:12:00,America/Mexico_City, GMT-05
2010-08-06,18.28125,14.33,24.18,0.68,07:16:00,20:12:00,America/Mexico_City, GMT-05
2010-08-07,18.127499999999994,14.42,25.38,0.7,07:16:00,20:11:00,America/Mexico_City, GMT-05
2010-08-08,18.575,15.53,25.24,0.7,07:16:00,20:10:00,America/Mexico_City, GMT-05
2010-08-09,18.934583333333332,14.92,25.99,0.69,07:17:00,20:10:00,America/Mexico_City, GMT-05
2010-08-10,19.434166666666666,14.59,26.27,0.64,07:17:00,20:09:00,America/Mexico_City, GMT-05
2010-08-11,18.04708333333333,13.63,25.95,0.71,07:17:00,20:09:00,America/Mexico_City, GMT-05
2010-08-12,17.37083333333333,13.46,22.77,0.7,07:18:00,20:08:00,America/Mexico_City, GMT-05
2010-08-13,17.711666666666666,14.59,22.58,0.7,07:18:00,20:07:00,America/Mexico_City, GMT-05
2010-08-14,18.901249999999997,14.56,24.38,0.6,07:18:00,20:07:00,America/Mexico_City, GMT-05
2010-08-15,18.48333333333333,12.6,25.38,0.62,07:19:00,20:06:00,America/Mexico_City, GMT-05
2010-08-16,18.590416666666666,14.49,22.93,0.61,07:19:00,20:05:00,America/Mexico_City, GMT-05
2010-08-17,17.82166666666667,15.05,22.31,0.69,07:19:00,20:05:00,America/Mexico_City, GMT-05
2010-08-18,17.541666666666668,14.39,23.33,0.75,07:19:00,20:04:00,America/Mexico_City, GMT-05
2010-08-19,17.32583333333333,13.61,23.21,0.75,07:20:00,20:03:00,America/Mexico_City, GMT-05
2010-08-20,17.987916666666667,12.85,24.37,0.63,07:20:00,20:03:00,America/Mexico_City, GMT-05
2010-08-21,17.198749999999997,14.36,23.37,0.68,07:20:00,20:02:00,America/Mexico_City, GMT-05
2010-08-22,17.212916666666665,12.75,22.2,0.62,07:20:00,20:01:00,America/Mexico_City, GMT-05
2010-08-23,16.72,12.38,22.22,0.61,07:21:00,20:00:00,America/Mexico_City, GMT-05
2010-08-24,17.338749999999994,10.62,25.47,0.63,07:21:00,20:00:00,America/Mexico_City, GMT-05
2010-08-25,16.827083333333334,14.56,21.21,0.74,07:21:00,19:59:00,America/Mexico_City, GMT-05
2010-08-26,17.40791666666667,14.03,21.44,0.64,07:21:00,19:58:00,America/Mexico_City, GMT-05
2010-08-27,16.46958333333333,13.24,21.34,0.71,07:22:00,19:57:00,America/Mexico_City, GMT-05
2010-08-28,18.089583333333334,10.61,25.07,0.65,07:22:00,19:56:00,America/Mexico_City, GMT-05
2010-08-29,18.224166666666672,14.35,23.85,0.72,07:22:00,19:56:00,America/Mexico_City, GMT-05
2010-08-30,18.33458333333333,14.03,25.03,0.64,07:22:00,19:55:00,America/Mexico_City, GMT-05
2010-08-31,16.75833333333333,14.11,19.24,0.75,07:23:00,19:54:00,America/Mexico_City, GMT-05
2010-09-01,17.96458333333333,14.09,25.29,0.7,07:23:00,19:53:00,America/Mexico_City, GMT-05
2010-09-02,18.199166666666663,13.96,25.66,0.68,07:23:00,19:52:00,America/Mexico_City, GMT-05
2010-09-03,19.249166666666664,15.12,24.3,0.59,07:23:00,19:51:00,America/Mexico_City, GMT-05
2010-09-04,17.672916666666666,14.53,21.93,0.65,07:23:00,19:51:00,America/Mexico_City, GMT-05
2010-09-05,15.828333333333331,13.63,18.22,0.84,07:24:00,19:50:00,America/Mexico_City, GMT-05
2010-09-06,16.153333333333325,13.54,21.24,0.83,07:24:00,19:49:00,America/Mexico_City, GMT-05
2010-09-07,18.39291666666667,14.57,23.1,0.68,07:24:00,19:48:00,America/Mexico_City, GMT-05
2010-09-08,19.007916666666667,13.62,25.18,0.64,07:24:00,19:47:00,America/Mexico_City, GMT-05
2010-09-09,19.47583333333333,14.45,24.55,0.59,07:24:00,19:46:00,America/Mexico_City, GMT-05
2010-09-10,18.866250000000004,13.55,25.32,0.58,07:25:00,19:45:00,America/Mexico_City, GMT-05
2010-09-11,18.522499999999997,13.61,25.44,0.63,07:25:00,19:44:00,America/Mexico_City, GMT-05
2010-09-12,17.75958333333333,13.78,22.63,0.62,07:25:00,19:43:00,America/Mexico_City, GMT-05
2010-09-13,18.275000000000002,13.51,24.33,0.57,07:25:00,19:43:00,America/Mexico_City, GMT-05
2010-09-14,17.766250000000003,14.58,22.61,0.62,07:25:00,19:42:00,America/Mexico_City, GMT-05
2010-09-15,18.134583333333335,14.6,23.4,0.62,07:25:00,19:41:00,America/Mexico_City, GMT-05
2010-09-16,19.05,14.59,25.19,0.54,07:26:00,19:40:00,America/Mexico_City, GMT-05
2010-09-17,16.52166666666667,14.26,20.45,0.65,07:26:00,19:39:00,America/Mexico_City, GMT-05
2010-09-18,16.9525,14.32,21.38,0.76,07:26:00,19:38:00,America/Mexico_City, GMT-05
2010-09-19,18.35208333333333,14.56,23.09,0.68,07:26:00,19:37:00,America/Mexico_City, GMT-05
2010-09-20,19.037499999999994,14.63,24.33,0.61,07:26:00,19:36:00,America/Mexico_City, GMT-05
2010-09-21,18.459999999999997,14.4,25.18,0.66,07:26:00,19:35:00,America/Mexico_City, GMT-05
2010-09-22,18.249583333333334,13.57,26.28,0.61,07:27:00,19:34:00,America/Mexico_City, GMT-05
2010-09-23,17.281250000000004,13.6,23.45,0.68,07:27:00,19:33:00,America/Mexico_City, GMT-05
2010-09-24,16.9425,13.93,23.1,0.73,07:27:00,19:33:00,America/Mexico_City, GMT-05
2010-09-25,17.233333333333334,13.59,21.95,0.67,07:27:00,19:32:00,America/Mexico_City, GMT-05
2010-09-26,17.22583333333333,11.62,23.04,0.56,07:27:00,19:31:00,America/Mexico_City, GMT-05
2010-09-27,16.719583333333336,14.51,19.31,0.64,07:28:00,19:30:00,America/Mexico_City, GMT-05
2010-09-28,17.704999999999995,14.21,22.62,0.6,07:28:00,19:29:00,America/Mexico_City, GMT-05
2010-09-29,16.086666666666662,6.27,24.38,0.43,07:28:00,19:28:00,America/Mexico_City, GMT-05
2010-09-30,15.456666666666665,4.98,24.19,0.46,07:28:00,19:27:00,America/Mexico_City, GMT-05
2010-10-01,14.604999999999997,4.42,23.09,0.44,07:28:00,19:26:00,America/Mexico_City, GMT-05
2010-10-02,14.821666666666665,5.63,22.65,0.48,07:29:00,19:25:00,America/Mexico_City, GMT-05
2010-10-03,14.362083333333333,10.57,20.38,0.55,07:29:00,19:25:00,America/Mexico_City, GMT-05
2010-10-04,13.437916666666665,4.62,21.5,0.53,07:29:00,19:24:00,America/Mexico_City, GMT-05
2010-10-05,14.752916666666666,9.62,21.53,0.58,07:29:00,19:23:00,America/Mexico_City, GMT-05
2010-10-06,15.121250000000002,11.62,21.21,0.57,07:29:00,19:22:00,America/Mexico_City, GMT-05
2010-10-07,15.50625,10.57,23.17,0.54,07:30:00,19:21:00,America/Mexico_City, GMT-05
2010-10-08,16.245416666666664,9.63,23.23,0.54,07:30:00,19:20:00,America/Mexico_City, GMT-05
2010-10-09,16.585416666666667,8.59,25.18,0.58,07:30:00,19:19:00,America/Mexico_City, GMT-05
2010-10-10,17.094166666666666,10.2,25.31,0.59,07:30:00,19:19:00,America/Mexico_City, GMT-05
2010-10-11,18.484583333333337,11.58,26.51,0.54,07:31:00,19:18:00,America/Mexico_City, GMT-05
2010-10-12,19.61791666666667,14.76,26.37,0.4,07:31:00,19:17:00,America/Mexico_City, GMT-05
2010-10-13,16.319999999999997,8.68,22.7,0.4,07:31:00,19:16:00,America/Mexico_City, GMT-05
2010-10-14,13.064583333333331,8.61,17.94,0.6,07:32:00,19:16:00,America/Mexico_City, GMT-05
2010-10-15,13.090416666666664,3.64,22.36,0.59,07:32:00,19:15:00,America/Mexico_City, GMT-05
2010-10-16,15.144583333333335,5.63,24.32,0.57,07:32:00,19:14:00,America/Mexico_City, GMT-05
2010-10-17,15.869999999999997,5.95,24.18,0.59,07:32:00,19:13:00,America/Mexico_City, GMT-05
2010-10-18,17.046666666666663,7.62,24.29,0.51,07:33:00,19:13:00,America/Mexico_City, GMT-05
2010-10-19,17.38958333333333,9.59,25.18,0.51,07:33:00,19:12:00,America/Mexico_City, GMT-05
2010-10-20,17.5425,8.02,26.57,0.44,07:33:00,19:11:00,America/Mexico_City, GMT-05
2010-10-21,17.78375,7.97,26.19,0.46,07:34:00,19:11:00,America/Mexico_City, GMT-05
2010-10-22,18.055,7.42,26.55,0.42,07:34:00,19:10:00,America/Mexico_City, GMT-05
2010-10-23,18.14166666666667,7.62,26.49,0.45,07:35:00,19:09:00,America/Mexico_City, GMT-05
2010-10-24,18.40625,9.63,26.45,0.39,07:35:00,19:09:00,America/Mexico_City, GMT-05
2010-10-25,18.245416666666667,9.05,26.64,0.35,07:35:00,19:08:00,America/Mexico_City, GMT-05
2010-10-26,17.851666666666663,7.59,26.54,0.47,07:36:00,19:07:00,America/Mexico_City, GMT-05
2010-10-27,18.70666666666667,8.67,26.73,0.47,07:36:00,19:07:00,America/Mexico_City, GMT-05
2010-10-28,17.0175,8.62,24.22,0.42,07:37:00,19:06:00,America/Mexico_City, GMT-05
2010-10-29,13.093333333333335,11.56,15.07,0.68,07:37:00,19:06:00,America/Mexico_City, GMT-05
2010-10-30,15.442083333333331,8.63,22.95,0.59,07:37:00,19:05:00,America/Mexico_City, GMT-05
2010-10-31,17.2068,9.61,26.03,0.62,07:38:00,18:05:00,America/Mexico_City, GMT-06
2010-11-01,18.05791666666667,10.37,26.2,0.54,06:38:00,18:04:00,America/Mexico_City, GMT-06
2010-11-02,17.01875,8.34,25.09,0.46,06:39:00,18:04:00,America/Mexico_City, GMT-06
2010-11-03,13.954583333333334,8.57,18.76,0.68,06:39:00,18:03:00,America/Mexico_City, GMT-06
2010-11-04,10.910416666666668,5.61,17.2,0.5,06:40:00,18:03:00,America/Mexico_City, GMT-06
2010-11-05,8.405833333333334,-1.81,18.4,0.41,06:40:00,18:02:00,America/Mexico_City, GMT-06
2010-11-06,9.486666666666665,-2.63,20.91,0.39,06:41:00,18:02:00,America/Mexico_City, GMT-06
2010-11-07,9.1225,-1.58,20.17,0.42,06:41:00,18:02:00,America/Mexico_City, GMT-06
2010-11-08,10.233333333333333,-0.97,20.3,0.46,06:42:00,18:01:00,America/Mexico_City, GMT-06
2010-11-09,11.483333333333334,0.37,21.2,0.41,06:42:00,18:01:00,America/Mexico_City, GMT-06
2010-11-10,12.96541666666667,1.39,22.25,0.39,06:43:00,18:01:00,America/Mexico_City, GMT-06
2010-11-11,13.82541666666667,2.39,23.29,0.38,06:43:00,18:00:00,America/Mexico_City, GMT-06
2010-11-12,14.459999999999999,2.54,24.25,0.41,06:44:00,18:00:00,America/Mexico_City, GMT-06
2010-11-13,14.458750000000004,3.48,23.36,0.4,06:44:00,18:00:00,America/Mexico_City, GMT-06
2010-11-14,14.620833333333337,5.61,24.96,0.6,06:45:00,18:00:00,America/Mexico_City, GMT-06
2010-11-15,16.51916666666667,10.31,25.22,0.56,06:46:00,17:59:00,America/Mexico_City, GMT-06
2010-11-16,14.871249999999998,5.57,23.31,0.55,06:46:00,17:59:00,America/Mexico_City, GMT-06
2010-11-17,15.50666666666667,6.07,24.97,0.54,06:47:00,17:59:00,America/Mexico_City, GMT-06
2010-11-18,13.277500000000002,9.05,17.55,0.63,06:47:00,17:59:00,America/Mexico_City, GMT-06
2010-11-19,15.515833333333335,9.01,22.3,0.55,06:48:00,17:59:00,America/Mexico_City, GMT-06
2010-11-20,15.777083333333332,7.33,23.92,0.47,06:48:00,17:59:00,America/Mexico_City, GMT-06
2010-11-21,16.217083333333328,4.61,24.29,0.37,06:49:00,17:58:00,America/Mexico_City, GMT-06
2010-11-22,16.910416666666663,7.63,24.51,0.42,06:50:00,17:58:00,America/Mexico_City, GMT-06
2010-11-23,17.3075,9.36,25.39,0.36,06:50:00,17:58:00,America/Mexico_City, GMT-06
2010-11-24,16.204999999999995,7.24,25.4,0.4,06:51:00,17:58:00,America/Mexico_City, GMT-06
2010-11-25,16.64916666666667,6.61,25.16,0.43,06:52:00,17:58:00,America/Mexico_City, GMT-06
2010-11-26,17.004166666666666,9.14,24.21,0.5,06:52:00,17:58:00,America/Mexico_City, GMT-06
2010-11-27,15.39916666666666,8.18,22.58,0.61,06:53:00,17:58:00,America/Mexico_City, GMT-06
2010-11-28,16.013749999999995,7.12,24.35,0.57,06:53:00,17:58:00,America/Mexico_City, GMT-06
2010-11-29,16.851666666666663,9.62,24.21,0.56,06:54:00,17:58:00,America/Mexico_City, GMT-06
2010-11-30,15.619999999999997,8.62,24.28,0.48,06:55:00,17:59:00,America/Mexico_City, GMT-06
2010-12-01,13.375,5.63,21.55,0.58,06:55:00,17:59:00,America/Mexico_City, GMT-06
2010-12-02,14.371249999999998,5.62,22.26,0.44,06:56:00,17:59:00,America/Mexico_City, GMT-06
2010-12-03,13.774166666666664,3.63,22.51,0.33,06:57:00,17:59:00,America/Mexico_City, GMT-06
2010-12-04,13.070833333333338,0.6,23.39,0.31,06:57:00,17:59:00,America/Mexico_City, GMT-06
2010-12-05,12.462916666666665,3.24,22.56,0.28,06:58:00,17:59:00,America/Mexico_City, GMT-06
2010-12-06,10.9125,0.61,19.21,0.57,06:58:00,18:00:00,America/Mexico_City, GMT-06
2010-12-07,12.201666666666668,4.62,20.32,0.56,06:59:00,18:00:00,America/Mexico_City, GMT-06
2010-12-08,11.763750000000002,2.63,20.42,0.51,07:00:00,18:00:00,America/Mexico_City, GMT-06
2010-12-09,10.511250000000002,1.63,19.38,0.42,07:00:00,18:00:00,America/Mexico_City, GMT-06
2010-12-10,11.466250000000002,-0.35,22.65,0.29,07:01:00,18:01:00,America/Mexico_City, GMT-06
2010-12-11,12.483333333333333,1.59,22.91,0.26,07:01:00,18:01:00,America/Mexico_City, GMT-06
2010-12-12,11.978333333333332,2.14,21.44,0.28,07:02:00,18:01:00,America/Mexico_City, GMT-06
2010-12-13,11.707083333333332,3.28,21.46,0.48,07:03:00,18:02:00,America/Mexico_City, GMT-06
2010-12-14,12.45583333333333,4.4,20.91,0.32,07:03:00,18:02:00,America/Mexico_City, GMT-06
2010-12-15,12.432500000000003,0.85,22.51,0.38,07:04:00,18:02:00,America/Mexico_City, GMT-06
2010-12-16,12.665000000000001,2.63,21.71,0.47,07:04:00,18:03:00,America/Mexico_City, GMT-06
2010-12-17,13.002499999999998,3.64,21.22,0.44,07:05:00,18:03:00,America/Mexico_City, GMT-06
2010-12-18,12.599166666666669,3.62,21.59,0.37,07:05:00,18:04:00,America/Mexico_City, GMT-06
2010-12-19,13.236666666666665,2.53,23.14,0.39,07:06:00,18:04:00,America/Mexico_City, GMT-06
2010-12-20,13.649999999999999,5.45,23.14,0.39,07:06:00,18:04:00,America/Mexico_City, GMT-06
2010-12-21,14.001666666666665,4.63,23.15,0.33,07:07:00,18:05:00,America/Mexico_City, GMT-06
2010-12-22,13.290833333333337,3.58,22.56,0.3,07:07:00,18:05:00,America/Mexico_City, GMT-06
2010-12-23,13.40375,5.39,22.7,0.31,07:08:00,18:06:00,America/Mexico_City, GMT-06
2010-12-24,12.506666666666666,3.3,21.38,0.39,07:08:00,18:06:00,America/Mexico_City, GMT-06
2010-12-25,11.767499999999998,5.62,18.11,0.48,07:09:00,18:07:00,America/Mexico_City, GMT-06
2010-12-26,11.46583333333333,5.4,18.19,0.6,07:09:00,18:08:00,America/Mexico_City, GMT-06
2010-12-27,12.5325,4.63,19.72,0.5,07:10:00,18:08:00,America/Mexico_City, GMT-06
2010-12-28,13.154583333333333,5.63,20.39,0.48,07:10:00,18:09:00,America/Mexico_City, GMT-06
2010-12-29,14.992083333333335,8.61,21.68,0.42,07:10:00,18:09:00,America/Mexico_City, GMT-06
2010-12-30,14.14958333333333,7.47,22.55,0.37,07:11:00,18:10:00,America/Mexico_City, GMT-06
2010-12-31,14.645416666666664,7.46,22.85,0.34,07:11:00,18:10:00,America/Mexico_City, GMT-06
