ageem,temp_min,temp_avg,temp_max,cdd,hdd,num_records
14039,18.53,18.675,20.1,544.68,480.792,366
14039,19.86,18.415,14.16,563.08,594.07,365
14039,18.23,19.363,14.09,628.593,312.907,366
14039,18.53,19.148,18.36,598.306,361.85,365
14039,18.53,19.447,16.09,702.699,356.139,366
14039,19.6,19.649,16.68,734.205,314.88,365
19039,25.21,21.214,5.31,1476.533,483.1,366
19039,23.72,20.281,2.69,1296.25,646.308,365
19039,24.75,21.895,8.65,1675.77,433.081,366
19039,25.22,20.264,5.94,1336.222,692.317,365
19039,24.62,21.581,5.87,1562.231,434.542,366
19039,23.75,20.854,1.7,1488.616,629.442,365
2004,22.5,17.303,11.61,498.505,936.427,366
2004,24.56,16.699,11.59,296.558,953.942,365
2004,24.72,18.025,10.55,621.359,795.101,366
2004,23.77,19.503,9.5,838.562,472.361,365
2004,23.61,18.706,12.75,677.084,601.849,366
2004,25.19,18.897,12.21,736.923,592.04,365
21114,14.93,16.498,12.62,103.312,836.1,366
21114,16.93,16.272,10.74,114.863,928.21,365
21114,13.9,16.456,15.72,62.751,810.915,366
21114,15.33,16.322,13.51,41.454,836.571,365
21114,15.93,16.899,10.47,108.478,694.278,366
21114,16.93,17.083,11.6,177.352,694.563,365
30193,26.61,25.465,20.17,2550.724,1.669,366
30193,28.63,25.088,14.29,2431.376,26.863,365
30193,27.44,25.375,21.24,2516.249,0,366
30193,26.99,24.743,18.19,2284.84,6.229,365
30193,27.68,25.539,19.32,2579.44,3.192,366
30193,26.7,25.608,19.45,2599.848,5.363,365
31050,26.79,26.282,20.3,2849.27,0.964,366
31050,28.27,25.59,18.83,2594.236,6.479,365
31050,25.66,26.043,24.27,2760.729,0,366
31050,25.65,26.015,19.43,2745.8,2.783,365
31050,26.39,27.067,20.87,3136.974,1.428,366
31050,24.71,26.503,22.93,2921.277,0.212,365
7101,25.19,23.802,20.03,1948.742,8.215,366
7101,23.11,23.388,17.09,1824.403,40.318,365
7101,24.85,25.761,22.42,2658.24,0.55,366
7101,25.78,25.787,20.95,2660.332,0.427,365
7101,26.87,26.053,21.81,2764.713,0.262,366
7101,25.88,24.89,19.43,2348.197,15.884,365
8037,27.05,18.555,5.25,1226.135,1206.154,366
8037,26.32,18.73,1.5,1430.872,1346.966,365
8037,27.71,19.653,6.39,1565.042,1143.001,366
8037,26.44,19.093,-1.29,1333.111,1116.496,365
8037,26.33,19.128,4.09,1367.442,1137.617,366
8037,27.26,19.136,1.07,1503.539,1271.521,365
9014,15.42,16.373,11.37,86.701,865.019,366
9014,16.52,16.866,10.41,178.136,774.715,365
9014,16.14,16.831,13.93,85.533,696.555,366
9014,16.47,16.886,13.66,75.883,665.145,365
9014,16.54,17.087,13.31,147.404,664.459,366
9014,16.12,15.67,10.19,94.677,1127.781,365